Test Data/Switch_500MHz_raw.csv

"Record Length",25000,"Points",-1.00000000e-008,1.25031252e-001
"Sample Interval",4.00000000e-012,s,-9.99600000e-009,1.26281252e-001
"Trigger Point",2500,"Samples",-9.99200000e-009,1.24000002e-001
"Trigger Time",3.97081967e-012,s,-9.98800000e-009,1.17125002e-001
"",,,-9.98400000e-009,1.06187502e-001
"Horizontal Offset",-1.00000000e-008,s,-9.98000000e-009,9.28750015e-002
,,,-9.97600000e-009,7.94062513e-002
,,,-9.97200000e-009,6.80000011e-002
,,,-9.96800000e-009,6.03750010e-002
,,,-9.96400000e-009,5.70312509e-002
,,,-9.96000000e-009,5.78125010e-002
,,,-9.95600000e-009,6.19375010e-002
,,,-9.95200000e-009,6.80000011e-002
,,,-9.94800000e-009,7.38125012e-002
,,,-9.94400000e-009,7.75000012e-002
,,,-9.94000000e-009,7.80000013e-002
,,,-9.93600000e-009,7.48125012e-002
,,,-9.93200000e-009,6.80000011e-002
,,,-9.92800000e-009,5.78750010e-002
,,,-9.92400000e-009,4.56875008e-002
,,,-9.92000000e-009,3.29687506e-002
,,,-9.91600000e-009,2.13125004e-002
,,,-9.91200000e-009,1.20000003e-002
,,,-9.90800000e-009,5.75000018e-003
,,,-9.90400000e-009,2.43750013e-003
,,,-9.90000000e-009,1.59375011e-003
,,,-9.89600000e-009,2.43750013e-003
,,,-9.89200000e-009,4.00000015e-003
,,,-9.88800000e-009,4.84375016e-003
,,,-9.88400000e-009,3.75000015e-003
,,,-9.88000000e-009,3.75000095e-004
,,,-9.87600000e-009,-5.06249999e-003
,,,-9.87200000e-009,-1.20000001e-002
,,,-9.86800000e-009,-1.95312502e-002
,,,-9.86400000e-009,-2.67187503e-002
,,,-9.86000000e-009,-3.23750004e-002
,,,-9.85600000e-009,-3.55937504e-002
,,,-9.85200000e-009,-3.60000004e-002
,,,-9.84800000e-009,-3.41562504e-002
,,,-9.84400000e-009,-3.12812504e-002
,,,-9.84000000e-009,-2.85312503e-002
,,,-9.83600000e-009,-2.70625003e-002
,,,-9.83200000e-009,-2.80000003e-002
,,,-9.82800000e-009,-3.25937504e-002
,,,-9.82400000e-009,-4.07812505e-002
,,,-9.82000000e-009,-5.16875007e-002
,,,-9.81600000e-009,-6.39062509e-002
,,,-9.81200000e-009,-7.60000010e-002
,,,-9.80800000e-009,-8.68437512e-002
,,,-9.80400000e-009,-9.51562513e-002
,,,-9.80000000e-009,-1.00218751e-001
,,,-9.79600000e-009,-1.01718751e-001
,,,-9.79200000e-009,-1.00000001e-001
,,,-9.78800000e-009,-9.62187513e-002
,,,-9.78400000e-009,-9.22500013e-002
,,,-9.78000000e-009,-8.95000012e-002
,,,-9.77600000e-009,-8.91562512e-002
,,,-9.77200000e-009,-9.20000013e-002
,,,-9.76800000e-009,-9.87812514e-002
,,,-9.76400000e-009,-1.08500002e-001
,,,-9.76000000e-009,-1.19656252e-001
,,,-9.75600000e-009,-1.30593752e-001
,,,-9.75200000e-009,-1.40000002e-001
,,,-9.74800000e-009,-1.47562502e-001
,,,-9.74400000e-009,-1.53718752e-001
,,,-9.74000000e-009,-1.59250002e-001
,,,-9.73600000e-009,-1.65093752e-001
,,,-9.73200000e-009,-1.72000002e-001
,,,-9.72800000e-009,-1.79562503e-001
,,,-9.72400000e-009,-1.87968753e-001
,,,-9.72000000e-009,-1.95843753e-001
,,,-9.71600000e-009,-2.01593753e-001
,,,-9.71200000e-009,-2.04000003e-001
,,,-9.70800000e-009,-2.02656253e-001
,,,-9.70400000e-009,-1.98906253e-001
,,,-9.70000000e-009,-1.94062503e-001
,,,-9.69600000e-009,-1.89875003e-001
,,,-9.69200000e-009,-1.88000003e-001
,,,-9.68800000e-009,-1.90062503e-001
,,,-9.68400000e-009,-1.96781253e-001
,,,-9.68000000e-009,-2.07593753e-001
,,,-9.67600000e-009,-2.21281253e-001
,,,-9.67200000e-009,-2.36000003e-001
,,,-9.66800000e-009,-2.49093754e-001
,,,-9.66400000e-009,-2.59281254e-001
,,,-9.66000000e-009,-2.65000004e-001
,,,-9.65600000e-009,-2.65218754e-001
,,,-9.65200000e-009,-2.60000004e-001
,,,-9.64800000e-009,-2.50500004e-001
,,,-9.64400000e-009,-2.39968753e-001
,,,-9.64000000e-009,-2.31187503e-001
,,,-9.63600000e-009,-2.26625003e-001
,,,-9.63200000e-009,-2.28000003e-001
,,,-9.62800000e-009,-2.35750003e-001
,,,-9.62400000e-009,-2.48718754e-001
,,,-9.62000000e-009,-2.64375004e-001
,,,-9.61600000e-009,-2.79750004e-001
,,,-9.61200000e-009,-2.92000004e-001
,,,-9.60800000e-009,-2.98562504e-001
,,,-9.60400000e-009,-2.99718754e-001
,,,-9.60000000e-009,-2.96437504e-001
,,,-9.59600000e-009,-2.90468754e-001
,,,-9.59200000e-009,-2.84000004e-001
,,,-9.58800000e-009,-2.78687504e-001
,,,-9.58400000e-009,-2.76781254e-001
,,,-9.58000000e-009,-2.78718754e-001
,,,-9.57600000e-009,-2.84156254e-001
,,,-9.57200000e-009,-2.92000004e-001
,,,-9.56800000e-009,-3.00656254e-001
,,,-9.56400000e-009,-3.08687505e-001
,,,-9.56000000e-009,-3.14593755e-001
,,,-9.55600000e-009,-3.17187505e-001
,,,-9.55200000e-009,-3.16000005e-001
,,,-9.54800000e-009,-3.10875005e-001
,,,-9.54400000e-009,-3.03562504e-001
,,,-9.54000000e-009,-2.95593754e-001
,,,-9.53600000e-009,-2.88656254e-001
,,,-9.53200000e-009,-2.84000004e-001
,,,-9.52800000e-009,-2.82156254e-001
,,,-9.52400000e-009,-2.83218754e-001
,,,-9.52000000e-009,-2.86093754e-001
,,,-9.51600000e-009,-2.89406254e-001
,,,-9.51200000e-009,-2.92000004e-001
,,,-9.50800000e-009,-2.93312504e-001
,,,-9.50400000e-009,-2.93718754e-001
,,,-9.50000000e-009,-2.94156254e-001
,,,-9.49600000e-009,-2.95937504e-001
,,,-9.49200000e-009,-3.00000004e-001
,,,-9.48800000e-009,-3.06281254e-001
,,,-9.48400000e-009,-3.14156255e-001
,,,-9.48000000e-009,-3.22187505e-001
,,,-9.47600000e-009,-3.28625005e-001
,,,-9.47200000e-009,-3.32000005e-001
,,,-9.46800000e-009,-3.31468755e-001
,,,-9.46400000e-009,-3.27562505e-001
,,,-9.46000000e-009,-3.21375005e-001
,,,-9.45600000e-009,-3.14343755e-001
,,,-9.45200000e-009,-3.08000005e-001
,,,-9.44800000e-009,-3.03500004e-001
,,,-9.44400000e-009,-3.01562504e-001
,,,-9.44000000e-009,-3.02125004e-001
,,,-9.43600000e-009,-3.04625004e-001
,,,-9.43200000e-009,-3.08000005e-001
,,,-9.42800000e-009,-3.10937505e-001
,,,-9.42400000e-009,-3.12281255e-001
,,,-9.42000000e-009,-3.11031255e-001
,,,-9.41600000e-009,-3.06812504e-001
,,,-9.41200000e-009,-3.00000004e-001
,,,-9.40800000e-009,-2.92093754e-001
,,,-9.40400000e-009,-2.85343754e-001
,,,-9.40000000e-009,-2.82000004e-001
,,,-9.39600000e-009,-2.83968754e-001
,,,-9.39200000e-009,-2.92000004e-001
,,,-9.38800000e-009,-3.04937504e-001
,,,-9.38400000e-009,-3.20312505e-001
,,,-9.38000000e-009,-3.34750005e-001
,,,-9.37600000e-009,-3.44812505e-001
,,,-9.37200000e-009,-3.48000005e-001
,,,-9.36800000e-009,-3.42781255e-001
,,,-9.36400000e-009,-3.31218755e-001
,,,-9.36000000e-009,-3.16375005e-001
,,,-9.35600000e-009,-3.02125004e-001
,,,-9.35200000e-009,-2.92000004e-001
,,,-9.34800000e-009,-2.88093754e-001
,,,-9.34400000e-009,-2.91156254e-001
,,,-9.34000000e-009,-2.99875004e-001
,,,-9.33600000e-009,-3.11812505e-001
,,,-9.33200000e-009,-3.24000005e-001
,,,-9.32800000e-009,-3.32812505e-001
,,,-9.32400000e-009,-3.36656255e-001
,,,-9.32000000e-009,-3.34781255e-001
,,,-9.31600000e-009,-3.27500005e-001
,,,-9.31200000e-009,-3.16000005e-001
,,,-9.30800000e-009,-3.01593754e-001
,,,-9.30400000e-009,-2.87562504e-001
,,,-9.30000000e-009,-2.76312504e-001
,,,-9.29600000e-009,-2.69531254e-001
,,,-9.29200000e-009,-2.68000004e-001
,,,-9.28800000e-009,-2.70781254e-001
,,,-9.28400000e-009,-2.76218754e-001
,,,-9.28000000e-009,-2.81781254e-001
,,,-9.27600000e-009,-2.84968754e-001
,,,-9.27200000e-009,-2.84000004e-001
,,,-9.26800000e-009,-2.78125004e-001
,,,-9.26400000e-009,-2.68562504e-001
,,,-9.26000000e-009,-2.57781254e-001
,,,-9.25600000e-009,-2.48781254e-001
,,,-9.25200000e-009,-2.44000004e-001
,,,-9.24800000e-009,-2.44125004e-001
,,,-9.24400000e-009,-2.48781254e-001
,,,-9.24000000e-009,-2.56031254e-001
,,,-9.23600000e-009,-2.63281254e-001
,,,-9.23200000e-009,-2.68000004e-001
,,,-9.22800000e-009,-2.67750004e-001
,,,-9.22400000e-009,-2.62250004e-001
,,,-9.22000000e-009,-2.52437504e-001
,,,-9.21600000e-009,-2.40281253e-001
,,,-9.21200000e-009,-2.28000003e-001
,,,-9.20800000e-009,-2.17593753e-001
,,,-9.20400000e-009,-2.10468753e-001
,,,-9.20000000e-009,-2.07343753e-001
,,,-9.19600000e-009,-2.08156253e-001
,,,-9.19200000e-009,-2.12000003e-001
,,,-9.18800000e-009,-2.16687503e-001
,,,-9.18400000e-009,-2.20468753e-001
,,,-9.18000000e-009,-2.21593753e-001
,,,-9.17600000e-009,-2.18937503e-001
,,,-9.17200000e-009,-2.12000003e-001
,,,-9.16800000e-009,-2.00843753e-001
,,,-9.16400000e-009,-1.87312503e-001
,,,-9.16000000e-009,-1.73781253e-001
,,,-9.15600000e-009,-1.62687502e-001
,,,-9.15200000e-009,-1.56000002e-001
,,,-9.14800000e-009,-1.54250002e-001
,,,-9.14400000e-009,-1.56781252e-001
,,,-9.14000000e-009,-1.61968752e-001
,,,-9.13600000e-009,-1.67750002e-001
,,,-9.13200000e-009,-1.72000002e-001
,,,-9.12800000e-009,-1.72468752e-001
,,,-9.12400000e-009,-1.68593752e-001
,,,-9.12000000e-009,-1.60906252e-001
,,,-9.11600000e-009,-1.50812502e-001
,,,-9.11200000e-009,-1.40000002e-001
,,,-9.10800000e-009,-1.29562502e-001
,,,-9.10400000e-009,-1.20718752e-001
,,,-9.10000000e-009,-1.14156252e-001
,,,-9.09600000e-009,-1.10000002e-001
,,,-9.09200000e-009,-1.08000002e-001
,,,-9.08800000e-009,-1.07218752e-001
,,,-9.08400000e-009,-1.06593751e-001
,,,-9.08000000e-009,-1.05468751e-001
,,,-9.07600000e-009,-1.03343751e-001
,,,-9.07200000e-009,-1.00000001e-001
,,,-9.06800000e-009,-9.49687513e-002
,,,-9.06400000e-009,-8.84687512e-002
,,,-9.06000000e-009,-8.12812511e-002
,,,-9.05600000e-009,-7.42187510e-002
,,,-9.05200000e-009,-6.80000009e-002
,,,-9.04800000e-009,-6.25937508e-002
,,,-9.04400000e-009,-5.78437508e-002
,,,-9.04000000e-009,-5.34062507e-002
,,,-9.03600000e-009,-4.88750006e-002
,,,-9.03200000e-009,-4.40000006e-002
,,,-9.02800000e-009,-3.88125005e-002
,,,-9.02400000e-009,-3.31250004e-002
,,,-9.02000000e-009,-2.75625003e-002
,,,-9.01600000e-009,-2.30000003e-002
,,,-9.01200000e-009,-2.00000002e-002
,,,-9.00800000e-009,-1.83437502e-002
,,,-9.00400000e-009,-1.73437502e-002
,,,-9.00000000e-009,-1.64062502e-002
,,,-8.99600000e-009,-1.48437501e-002
,,,-8.99200000e-009,-1.20000001e-002
,,,-8.98800000e-009,-6.93750001e-003
,,,-8.98400000e-009,3.12500094e-004
,,,-8.98000000e-009,9.25000023e-003
,,,-8.97600000e-009,1.88750004e-002
,,,-8.97200000e-009,2.80000005e-002
,,,-8.96800000e-009,3.51875006e-002
,,,-8.96400000e-009,4.00312507e-002
,,,-8.96000000e-009,4.18750007e-002
,,,-8.95600000e-009,4.03750007e-002
,,,-8.95200000e-009,3.60000006e-002
,,,-8.94800000e-009,3.02812505e-002
,,,-8.94400000e-009,2.51250005e-002
,,,-8.94000000e-009,2.22187504e-002
,,,-8.93600000e-009,2.28750004e-002
,,,-8.93200000e-009,2.80000005e-002
,,,-8.92800000e-009,3.80937507e-002
,,,-8.92400000e-009,5.21875009e-002
,,,-8.92000000e-009,6.86250011e-002
,,,-8.91600000e-009,8.52500014e-002
,,,-8.91200000e-009,1.00000002e-001
,,,-8.90800000e-009,1.10656252e-001
,,,-8.90400000e-009,1.16750002e-001
,,,-8.90000000e-009,1.17906252e-001
,,,-8.89600000e-009,1.14593752e-001
,,,-8.89200000e-009,1.08000002e-001
,,,-8.88800000e-009,1.00281252e-001
,,,-8.88400000e-009,9.41875015e-002
,,,-8.88000000e-009,9.14687515e-002
,,,-8.87600000e-009,9.32812515e-002
,,,-8.87200000e-009,1.00000002e-001
,,,-8.86800000e-009,1.10906252e-001
,,,-8.86400000e-009,1.24375002e-001
,,,-8.86000000e-009,1.37937502e-001
,,,-8.85600000e-009,1.49156252e-001
,,,-8.85200000e-009,1.56000002e-001
,,,-8.84800000e-009,1.57250002e-001
,,,-8.84400000e-009,1.53875002e-001
,,,-8.84000000e-009,1.47187502e-001
,,,-8.83600000e-009,1.39125002e-001
,,,-8.83200000e-009,1.32000002e-001
,,,-8.82800000e-009,1.28125002e-001
,,,-8.82400000e-009,1.29500002e-001
,,,-8.82000000e-009,1.36468752e-001
,,,-8.81600000e-009,1.48468752e-001
,,,-8.81200000e-009,1.64000003e-001
,,,-8.80800000e-009,1.80500003e-001
,,,-8.80400000e-009,1.95562503e-001
,,,-8.80000000e-009,2.06875003e-001
,,,-8.79600000e-009,2.12593753e-001
,,,-8.79200000e-009,2.12000003e-001
,,,-8.78800000e-009,2.05250003e-001
,,,-8.78400000e-009,1.95218753e-001
,,,-8.78000000e-009,1.84562503e-001
,,,-8.77600000e-009,1.76031253e-001
,,,-8.77200000e-009,1.72000003e-001
,,,-8.76800000e-009,1.73562503e-001
,,,-8.76400000e-009,1.81062503e-001
,,,-8.76000000e-009,1.92906253e-001
,,,-8.75600000e-009,2.06781253e-001
,,,-8.75200000e-009,2.20000003e-001
,,,-8.74800000e-009,2.29500004e-001
,,,-8.74400000e-009,2.34250004e-001
,,,-8.74000000e-009,2.33812504e-001
,,,-8.73600000e-009,2.28625003e-001
,,,-8.73200000e-009,2.20000003e-001
,,,-8.72800000e-009,2.09656253e-001
,,,-8.72400000e-009,2.00593753e-001
,,,-8.72000000e-009,1.94593753e-001
,,,-8.71600000e-009,1.92937503e-001
,,,-8.71200000e-009,1.96000003e-001
,,,-8.70800000e-009,2.02937503e-001
,,,-8.70400000e-009,2.12500003e-001
,,,-8.70000000e-009,2.22593753e-001
,,,-8.69600000e-009,2.31062504e-001
,,,-8.69200000e-009,2.36000004e-001
,,,-8.68800000e-009,2.36000004e-001
,,,-8.68400000e-009,2.31468754e-001
,,,-8.68000000e-009,2.23406253e-001
,,,-8.67600000e-009,2.13562503e-001
,,,-8.67200000e-009,2.04000003e-001
,,,-8.66800000e-009,1.96781253e-001
,,,-8.66400000e-009,1.93750003e-001
,,,-8.66000000e-009,1.95531253e-001
,,,-8.65600000e-009,2.01968753e-001
,,,-8.65200000e-009,2.12000003e-001
,,,-8.64800000e-009,2.23531253e-001
,,,-8.64400000e-009,2.34312504e-001
,,,-8.64000000e-009,2.42250004e-001
,,,-8.63600000e-009,2.45781254e-001
,,,-8.63200000e-009,2.44000004e-001
,,,-8.62800000e-009,2.36875004e-001
,,,-8.62400000e-009,2.26250003e-001
,,,-8.62000000e-009,2.14343753e-001
,,,-8.61600000e-009,2.03562503e-001
,,,-8.61200000e-009,1.96000003e-001
,,,-8.60800000e-009,1.93187503e-001
,,,-8.60400000e-009,1.95406253e-001
,,,-8.60000000e-009,2.01781253e-001
,,,-8.59600000e-009,2.10656253e-001
,,,-8.59200000e-009,2.20000003e-001
,,,-8.58800000e-009,2.27562503e-001
,,,-8.58400000e-009,2.31687504e-001
,,,-8.58000000e-009,2.31687504e-001
,,,-8.57600000e-009,2.27531253e-001
,,,-8.57200000e-009,2.20000003e-001
,,,-8.56800000e-009,2.10468753e-001
,,,-8.56400000e-009,2.00968753e-001
,,,-8.56000000e-009,1.93218753e-001
,,,-8.55600000e-009,1.88625003e-001
,,,-8.55200000e-009,1.88000003e-001
,,,-8.54800000e-009,1.91531253e-001
,,,-8.54400000e-009,1.98062503e-001
,,,-8.54000000e-009,2.06125003e-001
,,,-8.53600000e-009,2.13968753e-001
,,,-8.53200000e-009,2.20000003e-001
,,,-8.52800000e-009,2.22875003e-001
,,,-8.52400000e-009,2.22062503e-001
,,,-8.52000000e-009,2.17937503e-001
,,,-8.51600000e-009,2.11437503e-001
,,,-8.51200000e-009,2.04000003e-001
,,,-8.50800000e-009,1.97250003e-001
,,,-8.50400000e-009,1.92562503e-001
,,,-8.50000000e-009,1.90718753e-001
,,,-8.49600000e-009,1.91968753e-001
,,,-8.49200000e-009,1.96000003e-001
,,,-8.48800000e-009,2.02125003e-001
,,,-8.48400000e-009,2.08812503e-001
,,,-8.48000000e-009,2.14750003e-001
,,,-8.47600000e-009,2.18718753e-001
,,,-8.47200000e-009,2.20000003e-001
,,,-8.46800000e-009,2.18312503e-001
,,,-8.46400000e-009,2.14031253e-001
,,,-8.46000000e-009,2.08093753e-001
,,,-8.45600000e-009,2.01656253e-001
,,,-8.45200000e-009,1.96000003e-001
,,,-8.44800000e-009,1.92437503e-001
,,,-8.44400000e-009,1.91593753e-001
,,,-8.44000000e-009,1.93593753e-001
,,,-8.43600000e-009,1.98000003e-001
,,,-8.43200000e-009,2.04000003e-001
,,,-8.42800000e-009,2.10687503e-001
,,,-8.42400000e-009,2.16468753e-001
,,,-8.42000000e-009,2.20312503e-001
,,,-8.41600000e-009,2.21531253e-001
,,,-8.41200000e-009,2.20000003e-001
,,,-8.40800000e-009,2.16312503e-001
,,,-8.40400000e-009,2.11593753e-001
,,,-8.40000000e-009,2.07156253e-001
,,,-8.39600000e-009,2.04312503e-001
,,,-8.39200000e-009,2.04000003e-001
,,,-8.38800000e-009,2.06593753e-001
,,,-8.38400000e-009,2.11531253e-001
,,,-8.38000000e-009,2.17656253e-001
,,,-8.37600000e-009,2.23562503e-001
,,,-8.37200000e-009,2.28000003e-001
,,,-8.36800000e-009,2.29968754e-001
,,,-8.36400000e-009,2.29437504e-001
,,,-8.36000000e-009,2.26906253e-001
,,,-8.35600000e-009,2.23375003e-001
,,,-8.35200000e-009,2.20000003e-001
,,,-8.34800000e-009,2.17906253e-001
,,,-8.34400000e-009,2.17781253e-001
,,,-8.34000000e-009,2.19718753e-001
,,,-8.33600000e-009,2.23312503e-001
,,,-8.33200000e-009,2.28000003e-001
,,,-8.32800000e-009,2.32875004e-001
,,,-8.32400000e-009,2.37375004e-001
,,,-8.32000000e-009,2.40968754e-001
,,,-8.31600000e-009,2.43250004e-001
,,,-8.31200000e-009,2.44000004e-001
,,,-8.30800000e-009,2.42687504e-001
,,,-8.30400000e-009,2.39968754e-001
,,,-8.30000000e-009,2.36250004e-001
,,,-8.29600000e-009,2.32062504e-001
,,,-8.29200000e-009,2.28000003e-001
,,,-8.28800000e-009,2.24843753e-001
,,,-8.28400000e-009,2.23125003e-001
,,,-8.28000000e-009,2.23125003e-001
,,,-8.27600000e-009,2.24781253e-001
,,,-8.27200000e-009,2.28000003e-001
,,,-8.26800000e-009,2.32281254e-001
,,,-8.26400000e-009,2.37281254e-001
,,,-8.26000000e-009,2.42593754e-001
,,,-8.25600000e-009,2.47687504e-001
,,,-8.25200000e-009,2.52000004e-001
,,,-8.24800000e-009,2.54187504e-001
,,,-8.24400000e-009,2.54000004e-001
,,,-8.24000000e-009,2.50906254e-001
,,,-8.23600000e-009,2.44750004e-001
,,,-8.23200000e-009,2.36000004e-001
,,,-8.22800000e-009,2.25875003e-001
,,,-8.22400000e-009,2.16593753e-001
,,,-8.22000000e-009,2.10187503e-001
,,,-8.21600000e-009,2.08343753e-001
,,,-8.21200000e-009,2.12000003e-001
,,,-8.20800000e-009,2.20500003e-001
,,,-8.20400000e-009,2.32062504e-001
,,,-8.20000000e-009,2.44218754e-001
,,,-8.19600000e-009,2.54281254e-001
,,,-8.19200000e-009,2.60000004e-001
,,,-8.18800000e-009,2.59250004e-001
,,,-8.18400000e-009,2.53062504e-001
,,,-8.18000000e-009,2.42906254e-001
,,,-8.17600000e-009,2.31062504e-001
,,,-8.17200000e-009,2.20000003e-001
,,,-8.16800000e-009,2.11625003e-001
,,,-8.16400000e-009,2.07562503e-001
,,,-8.16000000e-009,2.08125003e-001
,,,-8.15600000e-009,2.12718753e-001
,,,-8.15200000e-009,2.20000003e-001
,,,-8.14800000e-009,2.27500003e-001
,,,-8.14400000e-009,2.33312504e-001
,,,-8.14000000e-009,2.35875004e-001
,,,-8.13600000e-009,2.34218754e-001
,,,-8.13200000e-009,2.28000003e-001
,,,-8.12800000e-009,2.17375003e-001
,,,-8.12400000e-009,2.04437503e-001
,,,-8.12000000e-009,1.91187503e-001
,,,-8.11600000e-009,1.79781253e-001
,,,-8.11200000e-009,1.72000003e-001
,,,-8.10800000e-009,1.68937503e-001
,,,-8.10400000e-009,1.70312503e-001
,,,-8.10000000e-009,1.75062503e-001
,,,-8.09600000e-009,1.81562503e-001
,,,-8.09200000e-009,1.88000003e-001
,,,-8.08800000e-009,1.92187503e-001
,,,-8.08400000e-009,1.93218753e-001
,,,-8.08000000e-009,1.91062503e-001
,,,-8.07600000e-009,1.86343753e-001
,,,-8.07200000e-009,1.80000003e-001
,,,-8.06800000e-009,1.72500003e-001
,,,-8.06400000e-009,1.65000003e-001
,,,-8.06000000e-009,1.58125002e-001
,,,-8.05600000e-009,1.52312502e-001
,,,-8.05200000e-009,1.48000002e-001
,,,-8.04800000e-009,1.45375002e-001
,,,-8.04400000e-009,1.44687502e-001
,,,-8.04000000e-009,1.46250002e-001
,,,-8.03600000e-009,1.50187502e-001
,,,-8.03200000e-009,1.56000002e-001
,,,-8.02800000e-009,1.61812503e-001
,,,-8.02400000e-009,1.66093753e-001
,,,-8.02000000e-009,1.67250003e-001
,,,-8.01600000e-009,1.64062503e-001
,,,-8.01200000e-009,1.56000002e-001
,,,-8.00800000e-009,1.42718752e-001
,,,-8.00400000e-009,1.26500002e-001
,,,-8.00000000e-009,1.09718752e-001
,,,-7.99600000e-009,9.48437515e-002
,,,-7.99200000e-009,8.40000013e-002
,,,-7.98800000e-009,7.82812513e-002
,,,-7.98400000e-009,7.74687512e-002
,,,-7.98000000e-009,8.05937513e-002
,,,-7.97600000e-009,8.60625014e-002
,,,-7.97200000e-009,9.20000015e-002
,,,-7.96800000e-009,9.60000015e-002
,,,-7.96400000e-009,9.65000015e-002
,,,-7.96000000e-009,9.30312515e-002
,,,-7.95600000e-009,8.59062514e-002
,,,-7.95200000e-009,7.60000012e-002
,,,-7.94800000e-009,6.45625011e-002
,,,-7.94400000e-009,5.33437509e-002
,,,-7.94000000e-009,4.40937507e-002
,,,-7.93600000e-009,3.80937507e-002
,,,-7.93200000e-009,3.60000006e-002
,,,-7.92800000e-009,3.72812506e-002
,,,-7.92400000e-009,4.03125007e-002
,,,-7.92000000e-009,4.35000007e-002
,,,-7.91600000e-009,4.51562508e-002
,,,-7.91200000e-009,4.40000007e-002
,,,-7.90800000e-009,3.88437507e-002
,,,-7.90400000e-009,2.99375005e-002
,,,-7.90000000e-009,1.85625004e-002
,,,-7.89600000e-009,6.59375019e-003
,,,-7.89200000e-009,-3.99999997e-003
,,,-7.88800000e-009,-1.20312501e-002
,,,-7.88400000e-009,-1.66875002e-002
,,,-7.88000000e-009,-1.78437502e-002
,,,-7.87600000e-009,-1.59375001e-002
,,,-7.87200000e-009,-1.20000001e-002
,,,-7.86800000e-009,-7.65625002e-003
,,,-7.86400000e-009,-4.71874998e-003
,,,-7.86000000e-009,-4.18749997e-003
,,,-7.85600000e-009,-6.56250001e-003
,,,-7.85200000e-009,-1.20000001e-002
,,,-7.84800000e-009,-2.05312502e-002
,,,-7.84400000e-009,-3.10312504e-002
,,,-7.84000000e-009,-4.20312505e-002
,,,-7.83600000e-009,-5.20000007e-002
,,,-7.83200000e-009,-6.00000008e-002
,,,-7.82800000e-009,-6.61250009e-002
