Test Data/Switch_1GHz_trig.csv

"Record Length",25000,"Points",-1.00000000e-008,-4.00000006e-003
"Sample Interval",4.00000000e-012,s,-9.99600000e-009,-2.71875004e-003
"Trigger Point",2500,"Samples",-9.99200000e-009,-4.84375007e-004
"Trigger Time",2.00000000e-014,s,-9.98800000e-009,2.37500004e-003
"",,,-9.98400000e-009,5.39062508e-003
"Horizontal Offset",-1.00000000e-008,s,-9.98000000e-009,8.00000012e-003
,,,-9.97600000e-009,9.64062514e-003
,,,-9.97200000e-009,1.00781252e-002
,,,-9.96800000e-009,9.18750014e-003
,,,-9.96400000e-009,7.07812511e-003
,,,-9.96000000e-009,4.00000006e-003
,,,-9.95600000e-009,4.68750007e-004
,,,-9.95200000e-009,-2.96875004e-003
,,,-9.94800000e-009,-5.75000009e-003
,,,-9.94400000e-009,-7.51562511e-003
,,,-9.94000000e-009,-8.00000012e-003
,,,-9.93600000e-009,-7.10937511e-003
,,,-9.93200000e-009,-5.34375008e-003
,,,-9.92800000e-009,-3.23437505e-003
,,,-9.92400000e-009,-1.29687502e-003
,,,-9.92000000e-009,-1.38777878e-017
,,,-9.91600000e-009,5.46875008e-004
,,,-9.91200000e-009,4.06250006e-004
,,,-9.90800000e-009,-3.12500005e-005
,,,-9.90400000e-009,-2.96875004e-004
,,,-9.90000000e-009,-1.38777878e-017
,,,-9.89600000e-009,1.04687502e-003
,,,-9.89200000e-009,2.75000004e-003
,,,-9.88800000e-009,4.78125007e-003
,,,-9.88400000e-009,6.67187510e-003
,,,-9.88000000e-009,8.00000012e-003
,,,-9.87600000e-009,8.51562513e-003
,,,-9.87200000e-009,8.10937512e-003
,,,-9.86800000e-009,7.00000010e-003
,,,-9.86400000e-009,5.50000008e-003
,,,-9.86000000e-009,4.00000006e-003
,,,-9.85600000e-009,2.84375004e-003
,,,-9.85200000e-009,2.25000003e-003
,,,-9.84800000e-009,2.32812503e-003
,,,-9.84400000e-009,2.98437504e-003
,,,-9.84000000e-009,4.00000006e-003
,,,-9.83600000e-009,4.92187507e-003
,,,-9.83200000e-009,5.59375008e-003
,,,-9.82800000e-009,5.73437509e-003
,,,-9.82400000e-009,5.20312508e-003
,,,-9.82000000e-009,4.00000006e-003
,,,-9.81600000e-009,2.42187504e-003
,,,-9.81200000e-009,8.12500012e-004
,,,-9.80800000e-009,-3.59375005e-004
,,,-9.80400000e-009,-7.18750011e-004
,,,-9.80000000e-009,-1.38777878e-017
,,,-9.79600000e-009,1.89062503e-003
,,,-9.79200000e-009,4.56250007e-003
,,,-9.78800000e-009,7.54687511e-003
,,,-9.78400000e-009,1.02343752e-002
,,,-9.78000000e-009,1.20000002e-002
,,,-9.77600000e-009,1.23281252e-002
,,,-9.77200000e-009,1.10625002e-002
,,,-9.76800000e-009,8.31250012e-003
,,,-9.76400000e-009,4.45312507e-003
,,,-9.76000000e-009,-1.38777878e-017
,,,-9.75600000e-009,-4.26562506e-003
,,,-9.75200000e-009,-7.65625011e-003
,,,-9.74800000e-009,-9.60937514e-003
,,,-9.74400000e-009,-9.75000015e-003
,,,-9.74000000e-009,-8.00000012e-003
,,,-9.73600000e-009,-4.46875007e-003
,,,-9.73200000e-009,3.12500005e-005
,,,-9.72800000e-009,4.76562507e-003
,,,-9.72400000e-009,8.96875013e-003
,,,-9.72000000e-009,1.20000002e-002
,,,-9.71600000e-009,1.33593752e-002
,,,-9.71200000e-009,1.32031252e-002
,,,-9.70800000e-009,1.18906252e-002
,,,-9.70400000e-009,9.98437515e-003
,,,-9.70000000e-009,8.00000012e-003
,,,-9.69600000e-009,6.31250009e-003
,,,-9.69200000e-009,5.18750008e-003
,,,-9.68800000e-009,4.59375007e-003
,,,-9.68400000e-009,4.29687506e-003
,,,-9.68000000e-009,4.00000006e-003
,,,-9.67600000e-009,3.67187505e-003
,,,-9.67200000e-009,3.03125005e-003
,,,-9.66800000e-009,2.10937503e-003
,,,-9.66400000e-009,1.04687502e-003
,,,-9.66000000e-009,-1.38777878e-017
,,,-9.65600000e-009,-8.28125012e-004
,,,-9.65200000e-009,-1.28125002e-003
,,,-9.64800000e-009,-1.26562502e-003
,,,-9.64400000e-009,-7.96875012e-004
,,,-9.64000000e-009,-1.38777878e-017
,,,-9.63600000e-009,9.21875014e-004
,,,-9.63200000e-009,1.64062502e-003
,,,-9.62800000e-009,1.84375003e-003
,,,-9.62400000e-009,1.29687502e-003
,,,-9.62000000e-009,-1.38777878e-017
,,,-9.61600000e-009,-1.54687502e-003
,,,-9.61200000e-009,-2.95312504e-003
,,,-9.60800000e-009,-3.50000005e-003
,,,-9.60400000e-009,-2.60937504e-003
,,,-9.60000000e-009,-1.38777878e-017
,,,-9.59600000e-009,3.98437506e-003
,,,-9.59200000e-009,8.56250013e-003
,,,-9.58800000e-009,1.27500002e-002
,,,-9.58400000e-009,1.54843752e-002
,,,-9.58000000e-009,1.60000002e-002
,,,-9.57600000e-009,1.40156252e-002
,,,-9.57200000e-009,1.00156251e-002
,,,-9.56800000e-009,4.92187507e-003
,,,-9.56400000e-009,-1.25000002e-004
,,,-9.56000000e-009,-4.00000006e-003
,,,-9.55600000e-009,-5.75000009e-003
,,,-9.55200000e-009,-5.04687508e-003
,,,-9.54800000e-009,-2.04687503e-003
,,,-9.54400000e-009,2.62500004e-003
,,,-9.54000000e-009,8.00000012e-003
,,,-9.53600000e-009,1.27031252e-002
,,,-9.53200000e-009,1.56562502e-002
,,,-9.52800000e-009,1.60156252e-002
,,,-9.52400000e-009,1.34062502e-002
,,,-9.52000000e-009,8.00000012e-003
,,,-9.51600000e-009,8.12500012e-004
,,,-9.51200000e-009,-6.67187510e-003
,,,-9.50800000e-009,-1.28437502e-002
,,,-9.50400000e-009,-1.62500002e-002
,,,-9.50000000e-009,-1.60000002e-002
,,,-9.49600000e-009,-1.17968752e-002
,,,-9.49200000e-009,-4.82812507e-003
,,,-9.48800000e-009,3.32812505e-003
,,,-9.48400000e-009,1.08281252e-002
,,,-9.48000000e-009,1.60000002e-002
,,,-9.47600000e-009,1.75312503e-002
,,,-9.47200000e-009,1.53281252e-002
,,,-9.46800000e-009,1.00937502e-002
,,,-9.46400000e-009,3.14062505e-003
,,,-9.46000000e-009,-4.00000006e-003
,,,-9.45600000e-009,-9.67187514e-003
,,,-9.45200000e-009,-1.27500002e-002
,,,-9.44800000e-009,-1.26875002e-002
,,,-9.44400000e-009,-9.57812514e-003
,,,-9.44000000e-009,-4.00000006e-003
,,,-9.43600000e-009,3.14062505e-003
,,,-9.43200000e-009,1.02343752e-002
,,,-9.42800000e-009,1.60312502e-002
,,,-9.42400000e-009,1.94843753e-002
,,,-9.42000000e-009,2.00000003e-002
,,,-9.41600000e-009,1.73906253e-002
,,,-9.41200000e-009,1.25156252e-002
,,,-9.40800000e-009,6.51562510e-003
,,,-9.40400000e-009,6.56250010e-004
,,,-9.40000000e-009,-4.00000006e-003
,,,-9.39600000e-009,-6.81250010e-003
,,,-9.39200000e-009,-7.59375011e-003
,,,-9.38800000e-009,-6.84375010e-003
,,,-9.38400000e-009,-5.37500008e-003
,,,-9.38000000e-009,-4.00000006e-003
,,,-9.37600000e-009,-3.06250005e-003
,,,-9.37200000e-009,-2.98437504e-003
,,,-9.36800000e-009,-3.46875005e-003
,,,-9.36400000e-009,-4.00000006e-003
,,,-9.36000000e-009,-4.00000006e-003
,,,-9.35600000e-009,-3.03125005e-003
,,,-9.35200000e-009,-1.03125002e-003
,,,-9.34800000e-009,1.79687503e-003
,,,-9.34400000e-009,5.00000007e-003
,,,-9.34000000e-009,8.00000012e-003
,,,-9.33600000e-009,1.00781252e-002
,,,-9.33200000e-009,1.08281252e-002
,,,-9.32800000e-009,1.00312501e-002
,,,-9.32400000e-009,7.65625011e-003
,,,-9.32000000e-009,4.00000006e-003
,,,-9.31600000e-009,-2.18750003e-004
,,,-9.31200000e-009,-4.28125006e-003
,,,-9.30800000e-009,-7.35937511e-003
,,,-9.30400000e-009,-8.71875013e-003
,,,-9.30000000e-009,-8.00000012e-003
,,,-9.29600000e-009,-5.26562508e-003
,,,-9.29200000e-009,-1.29687502e-003
,,,-9.28800000e-009,2.92187504e-003
,,,-9.28400000e-009,6.29687509e-003
,,,-9.28000000e-009,8.00000012e-003
,,,-9.27600000e-009,7.60937511e-003
,,,-9.27200000e-009,5.40625008e-003
,,,-9.26800000e-009,2.10937503e-003
,,,-9.26400000e-009,-1.32812502e-003
,,,-9.26000000e-009,-4.00000006e-003
,,,-9.25600000e-009,-5.09375008e-003
,,,-9.25200000e-009,-4.43750007e-003
,,,-9.24800000e-009,-2.29687503e-003
,,,-9.24400000e-009,7.65625011e-004
,,,-9.24000000e-009,4.00000006e-003
,,,-9.23600000e-009,6.70312510e-003
,,,-9.23200000e-009,8.18750012e-003
,,,-9.22800000e-009,8.18750012e-003
,,,-9.22400000e-009,6.68750010e-003
,,,-9.22000000e-009,4.00000006e-003
,,,-9.21600000e-009,7.81250012e-004
,,,-9.21200000e-009,-2.25000003e-003
,,,-9.20800000e-009,-4.39062507e-003
,,,-9.20400000e-009,-5.06250008e-003
,,,-9.20000000e-009,-4.00000006e-003
,,,-9.19600000e-009,-1.29687502e-003
,,,-9.19200000e-009,2.45312504e-003
,,,-9.18800000e-009,6.46875010e-003
,,,-9.18400000e-009,9.89062515e-003
,,,-9.18000000e-009,1.20000002e-002
,,,-9.17600000e-009,1.22812502e-002
,,,-9.17200000e-009,1.09687502e-002
,,,-9.16800000e-009,8.64062513e-003
,,,-9.16400000e-009,6.07812509e-003
,,,-9.16000000e-009,4.00000006e-003
,,,-9.15600000e-009,2.89062504e-003
,,,-9.15200000e-009,3.03125005e-003
,,,-9.14800000e-009,4.23437506e-003
,,,-9.14400000e-009,6.07812509e-003
,,,-9.14000000e-009,8.00000012e-003
,,,-9.13600000e-009,9.51562514e-003
,,,-9.13200000e-009,1.02812502e-002
,,,-9.12800000e-009,1.02343752e-002
,,,-9.12400000e-009,9.40625014e-003
,,,-9.12000000e-009,8.00000012e-003
,,,-9.11600000e-009,6.15625009e-003
,,,-9.11200000e-009,4.25000006e-003
,,,-9.10800000e-009,2.50000004e-003
,,,-9.10400000e-009,1.07812502e-003
,,,-9.10000000e-009,-1.38777878e-017
,,,-9.09600000e-009,-7.34375011e-004
,,,-9.09200000e-009,-1.31250002e-003
,,,-9.08800000e-009,-1.95312503e-003
,,,-9.08400000e-009,-2.82812504e-003
,,,-9.08000000e-009,-4.00000006e-003
,,,-9.07600000e-009,-5.07812508e-003
,,,-9.07200000e-009,-5.98437509e-003
,,,-9.06800000e-009,-6.31250009e-003
,,,-9.06400000e-009,-5.71875009e-003
,,,-9.06000000e-009,-4.00000006e-003
,,,-9.05600000e-009,-1.25000002e-003
,,,-9.05200000e-009,1.96875003e-003
,,,-9.04800000e-009,5.00000007e-003
,,,-9.04400000e-009,7.18750011e-003
,,,-9.04000000e-009,8.00000012e-003
,,,-9.03600000e-009,7.25000011e-003
,,,-9.03200000e-009,5.09375008e-003
,,,-9.02800000e-009,2.01562503e-003
,,,-9.02400000e-009,-1.25000002e-003
,,,-9.02000000e-009,-4.00000006e-003
,,,-9.01600000e-009,-5.39062508e-003
,,,-9.01200000e-009,-5.18750008e-003
,,,-9.00800000e-009,-3.35937505e-003
,,,-9.00400000e-009,-1.25000002e-004
,,,-9.00000000e-009,4.00000006e-003
,,,-8.99600000e-009,8.14062512e-003
,,,-8.99200000e-009,1.15625002e-002
,,,-8.98800000e-009,1.35781252e-002
,,,-8.98400000e-009,1.37656252e-002
,,,-8.98000000e-009,1.20000002e-002
,,,-8.97600000e-009,8.53125013e-003
,,,-8.97200000e-009,4.28125006e-003
,,,-8.96800000e-009,2.03125003e-004
,,,-8.96400000e-009,-2.79687504e-003
,,,-8.96000000e-009,-4.00000006e-003
,,,-8.95600000e-009,-3.03125005e-003
,,,-8.95200000e-009,-1.87500003e-004
,,,-8.94800000e-009,3.89062506e-003
,,,-8.94400000e-009,8.28125012e-003
,,,-8.94000000e-009,1.20000002e-002
,,,-8.93600000e-009,1.41093752e-002
,,,-8.93200000e-009,1.42031252e-002
,,,-8.92800000e-009,1.22812502e-002
,,,-8.92400000e-009,8.67187513e-003
,,,-8.92000000e-009,4.00000006e-003
,,,-8.91600000e-009,-9.06250014e-004
,,,-8.91200000e-009,-5.09375008e-003
,,,-8.90800000e-009,-7.90625012e-003
,,,-8.90400000e-009,-8.92187513e-003
,,,-8.90000000e-009,-8.00000012e-003
,,,-8.89600000e-009,-5.17187508e-003
,,,-8.89200000e-009,-1.35937502e-003
,,,-8.88800000e-009,2.64062504e-003
,,,-8.88400000e-009,5.98437509e-003
,,,-8.88000000e-009,8.00000012e-003
,,,-8.87600000e-009,8.42187513e-003
,,,-8.87200000e-009,7.28125011e-003
,,,-8.86800000e-009,5.06250008e-003
,,,-8.86400000e-009,2.40625004e-003
,,,-8.86000000e-009,-1.38777878e-017
,,,-8.85600000e-009,-1.64062502e-003
,,,-8.85200000e-009,-2.26562503e-003
,,,-8.84800000e-009,-2.00000003e-003
,,,-8.84400000e-009,-1.10937502e-003
,,,-8.84000000e-009,-1.38777878e-017
,,,-8.83600000e-009,1.09375002e-003
,,,-8.83200000e-009,1.93750003e-003
,,,-8.82800000e-009,2.56250004e-003
,,,-8.82400000e-009,3.18750005e-003
,,,-8.82000000e-009,4.00000006e-003
,,,-8.81600000e-009,5.14062508e-003
,,,-8.81200000e-009,6.62500010e-003
,,,-8.80800000e-009,8.37500012e-003
,,,-8.80400000e-009,1.02500002e-002
,,,-8.80000000e-009,1.20000002e-002
,,,-8.79600000e-009,1.32500002e-002
,,,-8.79200000e-009,1.39687502e-002
,,,-8.78800000e-009,1.40468752e-002
,,,-8.78400000e-009,1.33906252e-002
,,,-8.78000000e-009,1.20000002e-002
,,,-8.77600000e-009,9.84375015e-003
,,,-8.77200000e-009,7.29687511e-003
,,,-8.76800000e-009,4.62500007e-003
,,,-8.76400000e-009,2.12500003e-003
,,,-8.76000000e-009,-1.38777878e-017
,,,-8.75600000e-009,-1.48437502e-003
,,,-8.75200000e-009,-2.45312504e-003
,,,-8.74800000e-009,-3.07812505e-003
,,,-8.74400000e-009,-3.54687505e-003
,,,-8.74000000e-009,-4.00000006e-003
,,,-8.73600000e-009,-4.23437506e-003
,,,-8.73200000e-009,-4.18750006e-003
,,,-8.72800000e-009,-3.57812505e-003
,,,-8.72400000e-009,-2.20312503e-003
,,,-8.72000000e-009,-1.38777878e-017
,,,-8.71600000e-009,2.87500004e-003
,,,-8.71200000e-009,5.73437509e-003
,,,-8.70800000e-009,7.90625012e-003
,,,-8.70400000e-009,8.79687513e-003
,,,-8.70000000e-009,8.00000012e-003
,,,-8.69600000e-009,5.71875009e-003
,,,-8.69200000e-009,2.46875004e-003
,,,-8.68800000e-009,-8.43750013e-004
,,,-8.68400000e-009,-3.25000005e-003
,,,-8.68000000e-009,-4.00000006e-003
,,,-8.67600000e-009,-2.67187504e-003
,,,-8.67200000e-009,3.59375005e-004
,,,-8.66800000e-009,4.39062507e-003
,,,-8.66400000e-009,8.57812513e-003
,,,-8.66000000e-009,1.20000002e-002
,,,-8.65600000e-009,1.40000002e-002
,,,-8.65200000e-009,1.43125002e-002
,,,-8.64800000e-009,1.30937502e-002
,,,-8.64400000e-009,1.07812502e-002
,,,-8.64000000e-009,8.00000012e-003
,,,-8.63600000e-009,5.34375008e-003
,,,-8.63200000e-009,3.70312506e-003
,,,-8.62800000e-009,3.56250005e-003
,,,-8.62400000e-009,5.07812508e-003
,,,-8.62000000e-009,8.00000012e-003
,,,-8.61600000e-009,1.14218752e-002
,,,-8.61200000e-009,1.44375002e-002
,,,-8.60800000e-009,1.60000002e-002
,,,-8.60400000e-009,1.52968752e-002
,,,-8.60000000e-009,1.20000002e-002
,,,-8.59600000e-009,6.70312510e-003
,,,-8.59200000e-009,5.46875008e-004
,,,-8.58800000e-009,-4.87500007e-003
,,,-8.58400000e-009,-8.09375012e-003
,,,-8.58000000e-009,-8.00000012e-003
,,,-8.57600000e-009,-4.31250006e-003
,,,-8.57200000e-009,2.01562503e-003
,,,-8.56800000e-009,9.42187514e-003
,,,-8.56400000e-009,1.60000002e-002
,,,-8.56000000e-009,2.00000003e-002
,,,-8.55600000e-009,2.01718753e-002
,,,-8.55200000e-009,1.64062502e-002
,,,-8.54800000e-009,9.50000014e-003
,,,-8.54400000e-009,7.96875012e-004
,,,-8.54000000e-009,-8.00000012e-003
,,,-8.53600000e-009,-1.48437502e-002
,,,-8.53200000e-009,-1.85937503e-002
,,,-8.52800000e-009,-1.86250003e-002
,,,-8.52400000e-009,-1.48906252e-002
,,,-8.52000000e-009,-8.00000012e-003
,,,-8.51600000e-009,9.21875014e-004
,,,-8.51200000e-009,1.00000001e-002
,,,-8.50800000e-009,1.76562503e-002
,,,-8.50400000e-009,2.25937503e-002
,,,-8.50000000e-009,2.40000004e-002
,,,-8.49600000e-009,2.16562503e-002
,,,-8.49200000e-009,1.65937502e-002
,,,-8.48800000e-009,1.02500002e-002
,,,-8.48400000e-009,4.23437506e-003
,,,-8.48000000e-009,-1.38777878e-017
,,,-8.47600000e-009,-1.50000002e-003
,,,-8.47200000e-009,-1.87500003e-004
,,,-8.46800000e-009,3.29687505e-003
,,,-8.46400000e-009,7.78125012e-003
,,,-8.46000000e-009,1.20000002e-002
,,,-8.45600000e-009,1.47968752e-002
,,,-8.45200000e-009,1.55625002e-002
,,,-8.44800000e-009,1.43593752e-002
,,,-8.44400000e-009,1.16093752e-002
,,,-8.44000000e-009,8.00000012e-003
,,,-8.43600000e-009,4.09375006e-003
,,,-8.43200000e-009,6.87500010e-004
,,,-8.42800000e-009,-1.85937503e-003
,,,-8.42400000e-009,-3.42187505e-003
,,,-8.42000000e-009,-4.00000006e-003
,,,-8.41600000e-009,-3.54687505e-003
,,,-8.41200000e-009,-2.31250003e-003
,,,-8.40800000e-009,-4.68750007e-004
,,,-8.40400000e-009,1.71875003e-003
,,,-8.40000000e-009,4.00000006e-003
,,,-8.39600000e-009,6.15625009e-003
,,,-8.39200000e-009,7.75000012e-003
,,,-8.38800000e-009,8.62500013e-003
,,,-8.38400000e-009,8.71875013e-003
,,,-8.38000000e-009,8.00000012e-003
,,,-8.37600000e-009,6.57812510e-003
,,,-8.37200000e-009,4.53125007e-003
,,,-8.36800000e-009,1.96875003e-003
,,,-8.36400000e-009,-9.68750014e-004
,,,-8.36000000e-009,-4.00000006e-003
,,,-8.35600000e-009,-6.46875010e-003
,,,-8.35200000e-009,-8.06250012e-003
,,,-8.34800000e-009,-8.34375012e-003
,,,-8.34400000e-009,-7.00000010e-003
,,,-8.34000000e-009,-4.00000006e-003
,,,-8.33600000e-009,3.12500005e-004
,,,-8.33200000e-009,4.95312507e-003
,,,-8.32800000e-009,8.98437513e-003
,,,-8.32400000e-009,1.15156252e-002
,,,-8.32000000e-009,1.20000002e-002
,,,-8.31600000e-009,1.04218752e-002
,,,-8.31200000e-009,7.43750011e-003
,,,-8.30800000e-009,4.01562506e-003
,,,-8.30400000e-009,1.23437502e-003
,,,-8.30000000e-009,-1.38777878e-017
,,,-8.29600000e-009,7.50000011e-004
,,,-8.29200000e-009,3.42187505e-003
,,,-8.28800000e-009,7.46875011e-003
,,,-8.28400000e-009,1.19843752e-002
,,,-8.28000000e-009,1.60000002e-002
,,,-8.27600000e-009,1.84531253e-002
,,,-8.27200000e-009,1.88125003e-002
,,,-8.26800000e-009,1.69531253e-002
,,,-8.26400000e-009,1.31250002e-002
,,,-8.26000000e-009,8.00000012e-003
,,,-8.25600000e-009,2.64062504e-003
,,,-8.25200000e-009,-1.67187502e-003
,,,-8.24800000e-009,-3.90625006e-003
,,,-8.24400000e-009,-3.37500005e-003
,,,-8.24000000e-009,-1.38777878e-017
,,,-8.23600000e-009,5.50000008e-003
,,,-8.23200000e-009,1.17968752e-002
,,,-8.22800000e-009,1.72812503e-002
,,,-8.22400000e-009,2.03750003e-002
,,,-8.22000000e-009,2.00000003e-002
,,,-8.21600000e-009,1.58437502e-002
,,,-8.21200000e-009,8.89062513e-003
,,,-8.20800000e-009,7.03125010e-004
,,,-8.20400000e-009,-6.82812510e-003
,,,-8.20000000e-009,-1.20000002e-002
,,,-8.19600000e-009,-1.34531252e-002
,,,-8.19200000e-009,-1.11875002e-002
,,,-8.18800000e-009,-5.96875009e-003
,,,-8.18400000e-009,9.37500014e-004
,,,-8.18000000e-009,8.00000012e-003
,,,-8.17600000e-009,1.37812502e-002
,,,-8.17200000e-009,1.71562503e-002
,,,-8.16800000e-009,1.77968753e-002
,,,-8.16400000e-009,1.58750002e-002
,,,-8.16000000e-009,1.20000002e-002
,,,-8.15600000e-009,7.03125010e-003
,,,-8.15200000e-009,2.15625003e-003
,,,-8.14800000e-009,-1.70312503e-003
,,,-8.14400000e-009,-3.85937506e-003
,,,-8.14000000e-009,-4.00000006e-003
,,,-8.13600000e-009,-2.18750003e-003
,,,-8.13200000e-009,8.28125012e-004
,,,-8.12800000e-009,4.12500006e-003
,,,-8.12400000e-009,6.75000010e-003
,,,-8.12000000e-009,8.00000012e-003
,,,-8.11600000e-009,7.62500011e-003
,,,-8.11200000e-009,5.82812509e-003
,,,-8.10800000e-009,3.37500005e-003
,,,-8.10400000e-009,1.15625002e-003
,,,-8.10000000e-009,-1.38777878e-017
,,,-8.09600000e-009,1.71875003e-004
,,,-8.09200000e-009,1.71875003e-003
,,,-8.08800000e-009,4.07812506e-003
,,,-8.08400000e-009,6.43750010e-003
,,,-8.08000000e-009,8.00000012e-003
,,,-8.07600000e-009,8.28125012e-003
,,,-8.07200000e-009,7.15625011e-003
,,,-8.06800000e-009,4.98437507e-003
,,,-8.06400000e-009,2.37500004e-003
,,,-8.06000000e-009,-1.38777878e-017
,,,-8.05600000e-009,-1.37500002e-003
,,,-8.05200000e-009,-1.56250002e-003
,,,-8.04800000e-009,-5.31250008e-004
,,,-8.04400000e-009,1.48437502e-003
,,,-8.04000000e-009,4.00000006e-003
,,,-8.03600000e-009,6.37500009e-003
,,,-8.03200000e-009,7.96875012e-003
,,,-8.02800000e-009,8.28125012e-003
,,,-8.02400000e-009,6.96875010e-003
,,,-8.02000000e-009,4.00000006e-003
,,,-8.01600000e-009,-9.37500014e-005
,,,-8.01200000e-009,-4.62500007e-003
,,,-8.00800000e-009,-8.67187513e-003
,,,-8.00400000e-009,-1.13437502e-002
,,,-8.00000000e-009,-1.20000002e-002
,,,-7.99600000e-009,-1.02031252e-002
,,,-7.99200000e-009,-6.50000010e-003
,,,-7.98800000e-009,-1.60937502e-003
,,,-7.98400000e-009,3.53125005e-003
,,,-7.98000000e-009,8.00000012e-003
,,,-7.97600000e-009,1.09843752e-002
,,,-7.97200000e-009,1.22031252e-002
,,,-7.96800000e-009,1.17968752e-002
,,,-7.96400000e-009,1.01875002e-002
,,,-7.96000000e-009,8.00000012e-003
,,,-7.95600000e-009,5.81250009e-003
,,,-7.95200000e-009,4.17187506e-003
,,,-7.94800000e-009,3.32812505e-003
,,,-7.94400000e-009,3.31250005e-003
,,,-7.94000000e-009,4.00000006e-003
,,,-7.93600000e-009,5.07812508e-003
,,,-7.93200000e-009,6.26562509e-003
,,,-7.92800000e-009,7.28125011e-003
,,,-7.92400000e-009,7.92187512e-003
,,,-7.92000000e-009,8.00000012e-003
,,,-7.91600000e-009,7.31250011e-003
,,,-7.91200000e-009,5.98437509e-003
,,,-7.90800000e-009,4.15625006e-003
,,,-7.90400000e-009,2.07812503e-003
,,,-7.90000000e-009,-1.38777878e-017
,,,-7.89600000e-009,-1.64062502e-003
,,,-7.89200000e-009,-2.54687504e-003
,,,-7.88800000e-009,-2.56250004e-003
,,,-7.88400000e-009,-1.67187502e-003
,,,-7.88000000e-009,-1.38777878e-017
,,,-7.87600000e-009,2.25000003e-003
,,,-7.87200000e-009,4.54687507e-003
,,,-7.86800000e-009,6.51562510e-003
,,,-7.86400000e-009,7.75000012e-003
,,,-7.86000000e-009,8.00000012e-003
,,,-7.85600000e-009,7.10937511e-003
,,,-7.85200000e-009,5.15625008e-003
,,,-7.84800000e-009,2.39062504e-003
,,,-7.84400000e-009,-8.12500012e-004
,,,-7.84000000e-009,-4.00000006e-003
,,,-7.83600000e-009,-6.48437510e-003
,,,-7.83200000e-009,-7.92187512e-003
,,,-7.82800000e-009,-8.03125012e-003
,,,-7.82400000e-009,-6.68750010e-003
