Test Data/Switch_500MHz_envl-.csv

"Record Length",25000,"Points",-1.00000000e-008,-3.72000009e-001
"Sample Interval",4.00000000e-012,s,-9.99600000e-009,-3.77250016e-001
"Trigger Point",2500,"Samples",-9.99200000e-009,-3.74687493e-001
"Trigger Time",3.74072072e-012,s,-9.98800000e-009,-3.65781248e-001
"",,,-9.98400000e-009,-3.69562507e-001
"Horizontal Offset",-1.00000000e-008,s,-9.98000000e-009,-3.63999993e-001
,,,-9.97600000e-009,-3.60062510e-001
,,,-9.97200000e-009,-3.63999993e-001
,,,-9.96800000e-009,-3.65656257e-001
,,,-9.96400000e-009,-3.66406262e-001
,,,-9.96000000e-009,-3.68812501e-001
,,,-9.95600000e-009,-3.67968768e-001
,,,-9.95200000e-009,-3.66500020e-001
,,,-9.94800000e-009,-3.68437499e-001
,,,-9.94400000e-009,-3.70812505e-001
,,,-9.94000000e-009,-3.62749994e-001
,,,-9.93600000e-009,-3.61156255e-001
,,,-9.93200000e-009,-3.72000009e-001
,,,-9.92800000e-009,-3.71062517e-001
,,,-9.92400000e-009,-3.63031268e-001
,,,-9.92000000e-009,-3.64937514e-001
,,,-9.91600000e-009,-3.72000009e-001
,,,-9.91200000e-009,-3.72000009e-001
,,,-9.90800000e-009,-3.73281270e-001
,,,-9.90400000e-009,-3.77062500e-001
,,,-9.90000000e-009,-3.72000009e-001
,,,-9.89600000e-009,-3.72000009e-001
,,,-9.89200000e-009,-3.73062491e-001
,,,-9.88800000e-009,-3.75093758e-001
,,,-9.88400000e-009,-3.77999991e-001
,,,-9.88000000e-009,-3.72000009e-001
,,,-9.87600000e-009,-3.65000010e-001
,,,-9.87200000e-009,-3.66656244e-001
,,,-9.86800000e-009,-3.69718760e-001
,,,-9.86400000e-009,-3.66187513e-001
,,,-9.86000000e-009,-3.72000009e-001
,,,-9.85600000e-009,-3.71218741e-001
,,,-9.85200000e-009,-3.64937514e-001
,,,-9.84800000e-009,-3.63999993e-001
,,,-9.84400000e-009,-3.66625011e-001
,,,-9.84000000e-009,-3.63999993e-001
,,,-9.83600000e-009,-3.61437500e-001
,,,-9.83200000e-009,-3.72000009e-001
,,,-9.82800000e-009,-3.75093758e-001
,,,-9.82400000e-009,-3.68812501e-001
,,,-9.82000000e-009,-3.64406258e-001
,,,-9.81600000e-009,-3.61124992e-001
,,,-9.81200000e-009,-3.66218746e-001
,,,-9.80800000e-009,-3.72156262e-001
,,,-9.80400000e-009,-3.71468753e-001
,,,-9.80000000e-009,-3.65781248e-001
,,,-9.79600000e-009,-3.80125016e-001
,,,-9.79200000e-009,-3.79999995e-001
,,,-9.78800000e-009,-3.72000009e-001
,,,-9.78400000e-009,-3.67687494e-001
,,,-9.78000000e-009,-3.58249992e-001
,,,-9.77600000e-009,-3.63999993e-001
,,,-9.77200000e-009,-3.65562499e-001
,,,-9.76800000e-009,-3.60812515e-001
,,,-9.76400000e-009,-3.63999993e-001
,,,-9.76000000e-009,-3.61062497e-001
,,,-9.75600000e-009,-3.76687497e-001
,,,-9.75200000e-009,-3.79999995e-001
,,,-9.74800000e-009,-3.83343756e-001
,,,-9.74400000e-009,-3.81812513e-001
,,,-9.74000000e-009,-3.68718743e-001
,,,-9.73600000e-009,-3.72000009e-001
,,,-9.73200000e-009,-3.72937500e-001
,,,-9.72800000e-009,-3.79999995e-001
,,,-9.72400000e-009,-3.76437515e-001
,,,-9.72000000e-009,-3.64218742e-001
,,,-9.71600000e-009,-3.59781265e-001
,,,-9.71200000e-009,-3.63999993e-001
,,,-9.70800000e-009,-3.69500011e-001
,,,-9.70400000e-009,-3.82062495e-001
,,,-9.70000000e-009,-3.83656263e-001
,,,-9.69600000e-009,-3.75406265e-001
,,,-9.69200000e-009,-3.70312512e-001
,,,-9.68800000e-009,-3.65437508e-001
,,,-9.68400000e-009,-3.64218742e-001
,,,-9.68000000e-009,-3.72000009e-001
,,,-9.67600000e-009,-3.68625015e-001
,,,-9.67200000e-009,-3.63999993e-001
,,,-9.66800000e-009,-3.62281263e-001
,,,-9.66400000e-009,-3.64968747e-001
,,,-9.66000000e-009,-3.63999993e-001
,,,-9.65600000e-009,-3.72624993e-001
,,,-9.65200000e-009,-3.73374999e-001
,,,-9.64800000e-009,-3.67937505e-001
,,,-9.64400000e-009,-3.67781252e-001
,,,-9.64000000e-009,-3.72000009e-001
,,,-9.63600000e-009,-3.72000009e-001
,,,-9.63200000e-009,-3.64250004e-001
,,,-9.62800000e-009,-3.56000006e-001
,,,-9.62400000e-009,-3.57937515e-001
,,,-9.62000000e-009,-3.66468757e-001
,,,-9.61600000e-009,-3.74781251e-001
,,,-9.61200000e-009,-3.74125004e-001
,,,-9.60800000e-009,-3.67843747e-001
,,,-9.60400000e-009,-3.68250012e-001
,,,-9.60000000e-009,-3.63218755e-001
,,,-9.59600000e-009,-3.62718761e-001
,,,-9.59200000e-009,-3.70781243e-001
,,,-9.58800000e-009,-3.72531265e-001
,,,-9.58400000e-009,-3.64437491e-001
,,,-9.58000000e-009,-3.63124996e-001
,,,-9.57600000e-009,-3.62281263e-001
,,,-9.57200000e-009,-3.64625007e-001
,,,-9.56800000e-009,-3.70812505e-001
,,,-9.56400000e-009,-3.74687493e-001
,,,-9.56000000e-009,-3.69406253e-001
,,,-9.55600000e-009,-3.69406253e-001
,,,-9.55200000e-009,-3.63999993e-001
,,,-9.54800000e-009,-3.57843757e-001
,,,-9.54400000e-009,-3.62500012e-001
,,,-9.54000000e-009,-3.65750015e-001
,,,-9.53600000e-009,-3.58406246e-001
,,,-9.53200000e-009,-3.69906247e-001
,,,-9.52800000e-009,-3.72000009e-001
,,,-9.52400000e-009,-3.71062517e-001
,,,-9.52000000e-009,-3.88000011e-001
,,,-9.51600000e-009,-3.91062498e-001
,,,-9.51200000e-009,-3.80750000e-001
,,,-9.50800000e-009,-3.64125013e-001
,,,-9.50400000e-009,-3.60624999e-001
,,,-9.50000000e-009,-3.72000009e-001
,,,-9.49600000e-009,-3.69531244e-001
,,,-9.49200000e-009,-3.75687510e-001
,,,-9.48800000e-009,-3.80218744e-001
,,,-9.48400000e-009,-3.73437494e-001
,,,-9.48000000e-009,-3.73937517e-001
,,,-9.47600000e-009,-3.72437507e-001
,,,-9.47200000e-009,-3.72000009e-001
,,,-9.46800000e-009,-3.67343754e-001
,,,-9.46400000e-009,-3.68312508e-001
,,,-9.46000000e-009,-3.64968747e-001
,,,-9.45600000e-009,-3.64812493e-001
,,,-9.45200000e-009,-3.63999993e-001
,,,-9.44800000e-009,-3.69406253e-001
,,,-9.44400000e-009,-3.63999993e-001
,,,-9.44000000e-009,-3.59031260e-001
,,,-9.43600000e-009,-3.58562499e-001
,,,-9.43200000e-009,-3.62312496e-001
,,,-9.42800000e-009,-3.67125005e-001
,,,-9.42400000e-009,-3.64875019e-001
,,,-9.42000000e-009,-3.56375009e-001
,,,-9.41600000e-009,-3.63999993e-001
,,,-9.41200000e-009,-3.72000009e-001
,,,-9.40800000e-009,-3.71437520e-001
,,,-9.40400000e-009,-3.69187504e-001
,,,-9.40000000e-009,-3.72000009e-001
,,,-9.39600000e-009,-3.72000009e-001
,,,-9.39200000e-009,-3.63999993e-001
,,,-9.38800000e-009,-3.60812515e-001
,,,-9.38400000e-009,-3.63999993e-001
,,,-9.38000000e-009,-3.70312512e-001
,,,-9.37600000e-009,-3.72687519e-001
,,,-9.37200000e-009,-3.64125013e-001
,,,-9.36800000e-009,-3.63999993e-001
,,,-9.36400000e-009,-3.62843752e-001
,,,-9.36000000e-009,-3.63999993e-001
,,,-9.35600000e-009,-3.65093768e-001
,,,-9.35200000e-009,-3.70124996e-001
,,,-9.34800000e-009,-3.74249995e-001
,,,-9.34400000e-009,-3.72000009e-001
,,,-9.34000000e-009,-3.72000009e-001
,,,-9.33600000e-009,-3.72000009e-001
,,,-9.33200000e-009,-3.59437495e-001
,,,-9.32800000e-009,-3.63999993e-001
,,,-9.32400000e-009,-3.66031259e-001
,,,-9.32000000e-009,-3.72000009e-001
,,,-9.31600000e-009,-3.73625010e-001
,,,-9.31200000e-009,-3.65843743e-001
,,,-9.30800000e-009,-3.63999993e-001
,,,-9.30400000e-009,-3.59874994e-001
,,,-9.30000000e-009,-3.53437513e-001
,,,-9.29600000e-009,-3.63124996e-001
,,,-9.29200000e-009,-3.68062496e-001
,,,-9.28800000e-009,-3.63999993e-001
,,,-9.28400000e-009,-3.64843756e-001
,,,-9.28000000e-009,-3.64718765e-001
,,,-9.27600000e-009,-3.56187493e-001
,,,-9.27200000e-009,-3.58999997e-001
,,,-9.26800000e-009,-3.63999993e-001
,,,-9.26400000e-009,-3.60624999e-001
,,,-9.26000000e-009,-3.56000006e-001
,,,-9.25600000e-009,-3.63999993e-001
,,,-9.25200000e-009,-3.69968742e-001
,,,-9.24800000e-009,-3.66874993e-001
,,,-9.24400000e-009,-3.61687511e-001
,,,-9.24000000e-009,-3.63031268e-001
,,,-9.23600000e-009,-3.71250004e-001
,,,-9.23200000e-009,-3.72000009e-001
,,,-9.22800000e-009,-3.67750019e-001
,,,-9.22400000e-009,-3.75687510e-001
,,,-9.22000000e-009,-3.72000009e-001
,,,-9.21600000e-009,-3.63999993e-001
,,,-9.21200000e-009,-3.69187504e-001
,,,-9.20800000e-009,-3.68593752e-001
,,,-9.20400000e-009,-3.66968751e-001
,,,-9.20000000e-009,-3.57968748e-001
,,,-9.19600000e-009,-3.57968748e-001
,,,-9.19200000e-009,-3.64250004e-001
,,,-9.18800000e-009,-3.66062492e-001
,,,-9.18400000e-009,-3.65718752e-001
,,,-9.18000000e-009,-3.63999993e-001
,,,-9.17600000e-009,-3.63999993e-001
,,,-9.17200000e-009,-3.64781260e-001
,,,-9.16800000e-009,-3.68468761e-001
,,,-9.16400000e-009,-3.72000009e-001
,,,-9.16000000e-009,-3.66312504e-001
,,,-9.15600000e-009,-3.58062506e-001
,,,-9.15200000e-009,-3.63999993e-001
,,,-9.14800000e-009,-3.63875002e-001
,,,-9.14400000e-009,-3.63312513e-001
,,,-9.14000000e-009,-3.63999993e-001
,,,-9.13600000e-009,-3.65156263e-001
,,,-9.13200000e-009,-3.65937501e-001
,,,-9.12800000e-009,-3.66750002e-001
,,,-9.12400000e-009,-3.79031241e-001
,,,-9.12000000e-009,-3.79999995e-001
,,,-9.11600000e-009,-3.68437499e-001
,,,-9.11200000e-009,-3.72093767e-001
,,,-9.10800000e-009,-3.67500007e-001
,,,-9.10400000e-009,-3.66093755e-001
,,,-9.10000000e-009,-3.84499997e-001
,,,-9.09600000e-009,-3.92562509e-001
,,,-9.09200000e-009,-3.88000011e-001
,,,-9.08800000e-009,-3.70531261e-001
,,,-9.08400000e-009,-3.69687498e-001
,,,-9.08000000e-009,-3.70812505e-001
,,,-9.07600000e-009,-3.67968768e-001
,,,-9.07200000e-009,-3.66031259e-001
,,,-9.06800000e-009,-3.65937501e-001
,,,-9.06400000e-009,-3.69343758e-001
,,,-9.06000000e-009,-3.76281261e-001
,,,-9.05600000e-009,-3.72000009e-001
,,,-9.05200000e-009,-3.63156259e-001
,,,-9.04800000e-009,-3.67843747e-001
,,,-9.04400000e-009,-3.75250012e-001
,,,-9.04000000e-009,-3.81249994e-001
,,,-9.03600000e-009,-3.73187512e-001
,,,-9.03200000e-009,-3.63999993e-001
,,,-9.02800000e-009,-3.67875010e-001
,,,-9.02400000e-009,-3.65531266e-001
,,,-9.02000000e-009,-3.66406262e-001
,,,-9.01600000e-009,-3.62906247e-001
,,,-9.01200000e-009,-3.64187509e-001
,,,-9.00800000e-009,-3.66187513e-001
,,,-9.00400000e-009,-3.64156246e-001
,,,-9.00000000e-009,-3.79999995e-001
,,,-8.99600000e-009,-3.94406259e-001
,,,-8.99200000e-009,-3.93968761e-001
,,,-8.98800000e-009,-3.79999995e-001
,,,-8.98400000e-009,-3.73218745e-001
,,,-8.98000000e-009,-3.67218763e-001
,,,-8.97600000e-009,-3.70750010e-001
,,,-8.97200000e-009,-3.80593747e-001
,,,-8.96800000e-009,-3.79999995e-001
,,,-8.96400000e-009,-3.68124992e-001
,,,-8.96000000e-009,-3.60312492e-001
,,,-8.95600000e-009,-3.65218759e-001
,,,-8.95200000e-009,-3.63999993e-001
,,,-8.94800000e-009,-3.67624998e-001
,,,-8.94400000e-009,-3.84687513e-001
,,,-8.94000000e-009,-3.88000011e-001
,,,-8.93600000e-009,-3.75874996e-001
,,,-8.93200000e-009,-3.68499994e-001
,,,-8.92800000e-009,-3.72312516e-001
,,,-8.92400000e-009,-3.72000009e-001
,,,-8.92000000e-009,-3.67624998e-001
,,,-8.91600000e-009,-3.72531265e-001
,,,-8.91200000e-009,-3.69437516e-001
,,,-8.90800000e-009,-3.58156264e-001
,,,-8.90400000e-009,-3.58968765e-001
,,,-8.90000000e-009,-3.66874993e-001
,,,-8.89600000e-009,-3.67156267e-001
,,,-8.89200000e-009,-3.56000006e-001
,,,-8.88800000e-009,-3.66593748e-001
,,,-8.88400000e-009,-3.75687510e-001
,,,-8.88000000e-009,-3.72000009e-001
,,,-8.87600000e-009,-3.66218746e-001
,,,-8.87200000e-009,-3.78312498e-001
,,,-8.86800000e-009,-3.79999995e-001
,,,-8.86400000e-009,-3.69437516e-001
,,,-8.86000000e-009,-3.70406270e-001
,,,-8.85600000e-009,-3.79500002e-001
,,,-8.85200000e-009,-3.88000011e-001
,,,-8.84800000e-009,-3.83875012e-001
,,,-8.84400000e-009,-3.69062513e-001
,,,-8.84000000e-009,-3.58093768e-001
,,,-8.83600000e-009,-3.71187508e-001
,,,-8.83200000e-009,-3.75437498e-001
,,,-8.82800000e-009,-3.68687510e-001
,,,-8.82400000e-009,-3.66718769e-001
,,,-8.82000000e-009,-3.72000009e-001
,,,-8.81600000e-009,-3.68343741e-001
,,,-8.81200000e-009,-3.76375020e-001
,,,-8.80800000e-009,-3.77406269e-001
,,,-8.80400000e-009,-3.72000009e-001
,,,-8.80000000e-009,-3.76593769e-001
,,,-8.79600000e-009,-3.73031259e-001
,,,-8.79200000e-009,-3.59593749e-001
,,,-8.78800000e-009,-3.60000014e-001
,,,-8.78400000e-009,-3.57687503e-001
,,,-8.78000000e-009,-3.56000006e-001
,,,-8.77600000e-009,-3.55562508e-001
,,,-8.77200000e-009,-3.56000006e-001
,,,-8.76800000e-009,-3.58624995e-001
,,,-8.76400000e-009,-3.55156243e-001
,,,-8.76000000e-009,-3.56000006e-001
,,,-8.75600000e-009,-3.62062514e-001
,,,-8.75200000e-009,-3.63999993e-001
,,,-8.74800000e-009,-3.65375012e-001
,,,-8.74400000e-009,-3.64250004e-001
,,,-8.74000000e-009,-3.57625008e-001
,,,-8.73600000e-009,-3.61968756e-001
,,,-8.73200000e-009,-3.69625002e-001
,,,-8.72800000e-009,-3.64625007e-001
,,,-8.72400000e-009,-3.69687498e-001
,,,-8.72000000e-009,-3.68156254e-001
,,,-8.71600000e-009,-3.71687502e-001
,,,-8.71200000e-009,-3.69500011e-001
,,,-8.70800000e-009,-3.59468758e-001
,,,-8.70400000e-009,-3.63593757e-001
,,,-8.70000000e-009,-3.66718769e-001
,,,-8.69600000e-009,-3.63999993e-001
,,,-8.69200000e-009,-3.63999993e-001
,,,-8.68800000e-009,-3.62250000e-001
,,,-8.68400000e-009,-3.64031255e-001
,,,-8.68000000e-009,-3.69062513e-001
,,,-8.67600000e-009,-3.64125013e-001
,,,-8.67200000e-009,-3.74718755e-001
,,,-8.66800000e-009,-3.72000009e-001
,,,-8.66400000e-009,-3.65375012e-001
,,,-8.66000000e-009,-3.63999993e-001
,,,-8.65600000e-009,-3.72000009e-001
,,,-8.65200000e-009,-3.80031258e-001
,,,-8.64800000e-009,-3.78687501e-001
,,,-8.64400000e-009,-3.68531257e-001
,,,-8.64000000e-009,-3.60843748e-001
,,,-8.63600000e-009,-3.65624994e-001
,,,-8.63200000e-009,-3.63999993e-001
,,,-8.62800000e-009,-3.63468766e-001
,,,-8.62400000e-009,-3.59499991e-001
,,,-8.62000000e-009,-3.63999993e-001
,,,-8.61600000e-009,-3.63999993e-001
,,,-8.61200000e-009,-3.56124997e-001
,,,-8.60800000e-009,-3.62843752e-001
,,,-8.60400000e-009,-3.64125013e-001
,,,-8.60000000e-009,-3.63999993e-001
,,,-8.59600000e-009,-3.67937505e-001
,,,-8.59200000e-009,-3.72375011e-001
,,,-8.58800000e-009,-3.68499994e-001
,,,-8.58400000e-009,-3.63999993e-001
,,,-8.58000000e-009,-3.60249996e-001
,,,-8.57600000e-009,-3.57343763e-001
,,,-8.57200000e-009,-3.56000006e-001
,,,-8.56800000e-009,-3.57593745e-001
,,,-8.56400000e-009,-3.58156264e-001
,,,-8.56000000e-009,-3.61218750e-001
,,,-8.55600000e-009,-3.72000009e-001
,,,-8.55200000e-009,-3.73718768e-001
,,,-8.54800000e-009,-3.67531270e-001
,,,-8.54400000e-009,-3.63999993e-001
,,,-8.54000000e-009,-3.63999993e-001
,,,-8.53600000e-009,-3.63687515e-001
,,,-8.53200000e-009,-3.58593762e-001
,,,-8.52800000e-009,-3.62374991e-001
,,,-8.52400000e-009,-3.65687519e-001
,,,-8.52000000e-009,-3.63999993e-001
,,,-8.51600000e-009,-3.62749994e-001
,,,-8.51200000e-009,-3.63999993e-001
,,,-8.50800000e-009,-3.63999993e-001
,,,-8.50400000e-009,-3.80531251e-001
,,,-8.50000000e-009,-3.88000011e-001
,,,-8.49600000e-009,-3.79281253e-001
,,,-8.49200000e-009,-3.64687502e-001
,,,-8.48800000e-009,-3.63562495e-001
,,,-8.48400000e-009,-3.62781256e-001
,,,-8.48000000e-009,-3.72000009e-001
,,,-8.47600000e-009,-3.71968746e-001
,,,-8.47200000e-009,-3.63999993e-001
,,,-8.46800000e-009,-3.59656245e-001
,,,-8.46400000e-009,-3.66062492e-001
,,,-8.46000000e-009,-3.63999993e-001
,,,-8.45600000e-009,-3.61531258e-001
,,,-8.45200000e-009,-3.64718765e-001
,,,-8.44800000e-009,-3.64843756e-001
,,,-8.44400000e-009,-3.60437512e-001
,,,-8.44000000e-009,-3.63999993e-001
,,,-8.43600000e-009,-3.71250004e-001
,,,-8.43200000e-009,-3.77718747e-001
,,,-8.42800000e-009,-3.72593760e-001
,,,-8.42400000e-009,-3.72999996e-001
,,,-8.42000000e-009,-3.72000009e-001
,,,-8.41600000e-009,-3.66625011e-001
,,,-8.41200000e-009,-3.69125009e-001
,,,-8.40800000e-009,-3.79187495e-001
,,,-8.40400000e-009,-3.85500014e-001
,,,-8.40000000e-009,-3.79999995e-001
,,,-8.39600000e-009,-3.62531245e-001
,,,-8.39200000e-009,-3.63999993e-001
,,,-8.38800000e-009,-3.56937498e-001
,,,-8.38400000e-009,-3.71937513e-001
,,,-8.38000000e-009,-3.73687506e-001
,,,-8.37600000e-009,-3.68874997e-001
,,,-8.37200000e-009,-3.69531244e-001
,,,-8.36800000e-009,-3.63999993e-001
,,,-8.36400000e-009,-3.58468741e-001
,,,-8.36000000e-009,-3.60968769e-001
,,,-8.35600000e-009,-3.69312495e-001
,,,-8.35200000e-009,-3.75062495e-001
,,,-8.34800000e-009,-3.72000009e-001
,,,-8.34400000e-009,-3.68687510e-001
,,,-8.34000000e-009,-3.69375020e-001
,,,-8.33600000e-009,-3.63999993e-001
,,,-8.33200000e-009,-3.65750015e-001
,,,-8.32800000e-009,-3.66031259e-001
,,,-8.32400000e-009,-3.67468745e-001
,,,-8.32000000e-009,-3.74562502e-001
,,,-8.31600000e-009,-3.76562506e-001
,,,-8.31200000e-009,-3.70625019e-001
,,,-8.30800000e-009,-3.67187500e-001
,,,-8.30400000e-009,-3.69562507e-001
,,,-8.30000000e-009,-3.72093767e-001
,,,-8.29600000e-009,-3.73843759e-001
,,,-8.29200000e-009,-3.72000009e-001
,,,-8.28800000e-009,-3.67437512e-001
,,,-8.28400000e-009,-3.58624995e-001
,,,-8.28000000e-009,-3.56062502e-001
,,,-8.27600000e-009,-3.60218763e-001
,,,-8.27200000e-009,-3.63999993e-001
,,,-8.26800000e-009,-3.66468757e-001
,,,-8.26400000e-009,-3.80656242e-001
,,,-8.26000000e-009,-3.82781267e-001
,,,-8.25600000e-009,-3.72000009e-001
,,,-8.25200000e-009,-3.63999993e-001
,,,-8.24800000e-009,-3.63999993e-001
,,,-8.24400000e-009,-3.66562515e-001
,,,-8.24000000e-009,-3.78218770e-001
,,,-8.23600000e-009,-3.79999995e-001
,,,-8.23200000e-009,-3.70375007e-001
,,,-8.22800000e-009,-3.69218767e-001
,,,-8.22400000e-009,-3.68468761e-001
,,,-8.22000000e-009,-3.58156264e-001
,,,-8.21600000e-009,-3.65531266e-001
,,,-8.21200000e-009,-3.74875009e-001
,,,-8.20800000e-009,-3.74156266e-001
,,,-8.20400000e-009,-3.64875019e-001
,,,-8.20000000e-009,-3.65624994e-001
,,,-8.19600000e-009,-3.72624993e-001
,,,-8.19200000e-009,-3.77906263e-001
,,,-8.18800000e-009,-3.72000009e-001
,,,-8.18400000e-009,-3.81000012e-001
,,,-8.18000000e-009,-3.86406243e-001
,,,-8.17600000e-009,-3.78937513e-001
,,,-8.17200000e-009,-3.74406248e-001
,,,-8.16800000e-009,-3.64906251e-001
,,,-8.16400000e-009,-3.74500006e-001
,,,-8.16000000e-009,-3.72000009e-001
,,,-8.15600000e-009,-3.81281257e-001
,,,-8.15200000e-009,-3.76062512e-001
,,,-8.14800000e-009,-3.68468761e-001
,,,-8.14400000e-009,-3.68499994e-001
,,,-8.14000000e-009,-3.70031267e-001
,,,-8.13600000e-009,-3.67968768e-001
,,,-8.13200000e-009,-3.69000018e-001
,,,-8.12800000e-009,-3.63437504e-001
,,,-8.12400000e-009,-3.61718744e-001
,,,-8.12000000e-009,-3.67437512e-001
,,,-8.11600000e-009,-3.64374995e-001
,,,-8.11200000e-009,-3.67593765e-001
,,,-8.10800000e-009,-3.64531249e-001
,,,-8.10400000e-009,-3.65343750e-001
,,,-8.10000000e-009,-3.79875004e-001
,,,-8.09600000e-009,-3.82499993e-001
,,,-8.09200000e-009,-3.72000009e-001
,,,-8.08800000e-009,-3.63999993e-001
,,,-8.08400000e-009,-3.70437503e-001
,,,-8.08000000e-009,-3.66968751e-001
,,,-8.07600000e-009,-3.67468745e-001
,,,-8.07200000e-009,-3.72000009e-001
,,,-8.06800000e-009,-3.64218742e-001
,,,-8.06400000e-009,-3.64687502e-001
,,,-8.06000000e-009,-3.64374995e-001
,,,-8.05600000e-009,-3.69375020e-001
,,,-8.05200000e-009,-3.72000009e-001
,,,-8.04800000e-009,-3.82906258e-001
,,,-8.04400000e-009,-3.81093770e-001
,,,-8.04000000e-009,-3.68031263e-001
,,,-8.03600000e-009,-3.63531262e-001
,,,-8.03200000e-009,-3.64593744e-001
,,,-8.02800000e-009,-3.63999993e-001
,,,-8.02400000e-009,-3.60968769e-001
,,,-8.02000000e-009,-3.67562503e-001
,,,-8.01600000e-009,-3.69531244e-001
,,,-8.01200000e-009,-3.62625003e-001
,,,-8.00800000e-009,-3.63999993e-001
,,,-8.00400000e-009,-3.63593757e-001
,,,-8.00000000e-009,-3.59281242e-001
,,,-7.99600000e-009,-3.72000009e-001
,,,-7.99200000e-009,-3.72031242e-001
,,,-7.98800000e-009,-3.70281249e-001
,,,-7.98400000e-009,-3.75968754e-001
,,,-7.98000000e-009,-3.72062504e-001
,,,-7.97600000e-009,-3.63999993e-001
,,,-7.97200000e-009,-3.59937519e-001
,,,-7.96800000e-009,-3.68156254e-001
,,,-7.96400000e-009,-3.74156266e-001
,,,-7.96000000e-009,-3.72000009e-001
,,,-7.95600000e-009,-3.61000001e-001
,,,-7.95200000e-009,-3.63999993e-001
,,,-7.94800000e-009,-3.63999993e-001
,,,-7.94400000e-009,-3.63093764e-001
,,,-7.94000000e-009,-3.66218746e-001
,,,-7.93600000e-009,-3.68499994e-001
,,,-7.93200000e-009,-3.71093750e-001
,,,-7.92800000e-009,-3.66156250e-001
,,,-7.92400000e-009,-3.63999993e-001
,,,-7.92000000e-009,-3.70625019e-001
,,,-7.91600000e-009,-3.71843755e-001
,,,-7.91200000e-009,-3.70062500e-001
,,,-7.90800000e-009,-3.59656245e-001
,,,-7.90400000e-009,-3.58718753e-001
,,,-7.90000000e-009,-3.63999993e-001
,,,-7.89600000e-009,-3.63437504e-001
,,,-7.89200000e-009,-3.66812497e-001
,,,-7.88800000e-009,-3.72000009e-001
,,,-7.88400000e-009,-3.70093763e-001
,,,-7.88000000e-009,-3.67843747e-001
,,,-7.87600000e-009,-3.70187491e-001
,,,-7.87200000e-009,-3.76656264e-001
,,,-7.86800000e-009,-3.72000009e-001
,,,-7.86400000e-009,-3.72031242e-001
,,,-7.86000000e-009,-3.63999993e-001
