Test Data/Switch_500MHz_trig.csv

"Record Length",25000,"Points",-3.76000000e-009,1.59375527e-003
"Sample Interval",4.00000000e-012,s,-3.75600000e-009,1.65000055e-002
"Trigger Point",940,"Samples",-3.75200000e-009,2.47812556e-002
"Trigger Time",1.38296296e-012,s,-3.74800000e-009,2.40000056e-002
"",,,-3.74400000e-009,1.40937555e-002
"Horizontal Offset",-3.76000000e-009,s,-3.74000000e-009,-2.49999479e-003
,,,-3.73600000e-009,-2.15312451e-002
,,,-3.73200000e-009,-3.80937453e-002
,,,-3.72800000e-009,-4.79999955e-002
,,,-3.72400000e-009,-4.85624955e-002
,,,-3.72000000e-009,-4.01249954e-002
,,,-3.71600000e-009,-2.52499951e-002
,,,-3.71200000e-009,-7.78124487e-003
,,,-3.70800000e-009,8.00000536e-003
,,,-3.70400000e-009,1.83750055e-002
,,,-3.70000000e-009,2.12187556e-002
,,,-3.69600000e-009,1.65625055e-002
,,,-3.69200000e-009,5.93750533e-003
,,,-3.68800000e-009,-7.99999487e-003
,,,-3.68400000e-009,-2.18124951e-002
,,,-3.68000000e-009,-3.20624952e-002
,,,-3.67600000e-009,-3.64687453e-002
,,,-3.67200000e-009,-3.37499953e-002
,,,-3.66800000e-009,-2.39999951e-002
,,,-3.66400000e-009,-9.21874489e-003
,,,-3.66000000e-009,7.31250535e-003
,,,-3.65600000e-009,2.18125056e-002
,,,-3.65200000e-009,3.08437557e-002
,,,-3.64800000e-009,3.20000057e-002
,,,-3.64400000e-009,2.46875056e-002
,,,-3.64000000e-009,1.09687554e-002
,,,-3.63600000e-009,-5.68749484e-003
,,,-3.63200000e-009,-2.12499951e-002
,,,-3.62800000e-009,-3.19999952e-002
,,,-3.62400000e-009,-3.57187453e-002
,,,-3.62000000e-009,-3.20624952e-002
,,,-3.61600000e-009,-2.28437451e-002
,,,-3.61200000e-009,-1.10937449e-002
,,,-3.60800000e-009,5.24520882e-009
,,,-3.60400000e-009,7.56250536e-003
,,,-3.60000000e-009,1.00000054e-002
,,,-3.59600000e-009,7.31250535e-003
,,,-3.59200000e-009,6.87505255e-004
,,,-3.58800000e-009,-7.99999487e-003
,,,-3.58400000e-009,-1.64374950e-002
,,,-3.58000000e-009,-2.24374951e-002
,,,-3.57600000e-009,-2.46249951e-002
,,,-3.57200000e-009,-2.24062451e-002
,,,-3.56800000e-009,-1.59999950e-002
,,,-3.56400000e-009,-6.74999486e-003
,,,-3.56000000e-009,3.25000529e-003
,,,-3.55600000e-009,1.16562554e-002
,,,-3.55200000e-009,1.63437555e-002
,,,-3.54800000e-009,1.60000055e-002
,,,-3.54400000e-009,1.05937554e-002
,,,-3.54000000e-009,1.43750527e-003
,,,-3.53600000e-009,-9.09374489e-003
,,,-3.53200000e-009,-1.83124950e-002
,,,-3.52800000e-009,-2.39999951e-002
,,,-3.52400000e-009,-2.49687451e-002
,,,-3.52000000e-009,-2.13124951e-002
,,,-3.51600000e-009,-1.44687450e-002
,,,-3.51200000e-009,-6.65624485e-003
,,,-3.50800000e-009,5.24520882e-009
,,,-3.50400000e-009,3.75000530e-003
,,,-3.50000000e-009,4.03125531e-003
,,,-3.49600000e-009,1.31250526e-003
,,,-3.49200000e-009,-3.21874480e-003
,,,-3.48800000e-009,-7.99999487e-003
,,,-3.48400000e-009,-1.14374949e-002
,,,-3.48000000e-009,-1.24062449e-002
,,,-3.47600000e-009,-1.05937449e-002
,,,-3.47200000e-009,-6.15624485e-003
,,,-3.46800000e-009,5.24520882e-009
,,,-3.46400000e-009,6.34375534e-003
,,,-3.46000000e-009,1.15000054e-002
,,,-3.45600000e-009,1.40312555e-002
,,,-3.45200000e-009,1.30000054e-002
,,,-3.44800000e-009,8.00000536e-003
,,,-3.44400000e-009,-3.43744760e-004
,,,-3.44000000e-009,-1.04999949e-002
,,,-3.43600000e-009,-2.04687451e-002
,,,-3.43200000e-009,-2.81874952e-002
,,,-3.42800000e-009,-3.19999952e-002
,,,-3.42400000e-009,-3.10624952e-002
,,,-3.42000000e-009,-2.58437451e-002
,,,-3.41600000e-009,-1.76874950e-002
,,,-3.41200000e-009,-8.43749488e-003
,,,-3.40800000e-009,5.24520882e-009
,,,-3.40400000e-009,5.93750533e-003
,,,-3.40000000e-009,8.53125537e-003
,,,-3.39600000e-009,7.87500536e-003
,,,-3.39200000e-009,4.65625531e-003
,,,-3.38800000e-009,5.24520882e-009
,,,-3.38400000e-009,-4.81249483e-003
,,,-3.38000000e-009,-8.49999488e-003
,,,-3.37600000e-009,-1.03749949e-002
,,,-3.37200000e-009,-1.01562449e-002
,,,-3.36800000e-009,-7.99999487e-003
,,,-3.36400000e-009,-4.65624482e-003
,,,-3.36000000e-009,-1.18749477e-003
,,,-3.35600000e-009,1.31250526e-003
,,,-3.35200000e-009,1.87500527e-003
,,,-3.34800000e-009,5.24520882e-009
,,,-3.34400000e-009,-4.12499482e-003
,,,-3.34000000e-009,-9.81249490e-003
,,,-3.33600000e-009,-1.59062450e-002
,,,-3.33200000e-009,-2.10312451e-002
,,,-3.32800000e-009,-2.39999951e-002
,,,-3.32400000e-009,-2.39687451e-002
,,,-3.32000000e-009,-2.08124951e-002
,,,-3.31600000e-009,-1.50312450e-002
,,,-3.31200000e-009,-7.68749487e-003
,,,-3.30800000e-009,5.24520882e-009
,,,-3.30400000e-009,6.53125534e-003
,,,-3.30000000e-009,1.09375054e-002
,,,-3.29600000e-009,1.25937554e-002
,,,-3.29200000e-009,1.14687554e-002
,,,-3.28800000e-009,8.00000536e-003
,,,-3.28400000e-009,2.87500529e-003
,,,-3.28000000e-009,-2.37499479e-003
,,,-3.27600000e-009,-6.53124485e-003
,,,-3.27200000e-009,-8.59374488e-003
,,,-3.26800000e-009,-7.99999487e-003
,,,-3.26400000e-009,-5.24999483e-003
,,,-3.26000000e-009,-9.99994770e-004
,,,-3.25600000e-009,3.50000530e-003
,,,-3.25200000e-009,6.87500535e-003
,,,-3.24800000e-009,8.00000536e-003
,,,-3.24400000e-009,6.15625534e-003
,,,-3.24000000e-009,1.75000527e-003
,,,-3.23600000e-009,-4.24999482e-003
,,,-3.23200000e-009,-1.06249949e-002
,,,-3.22800000e-009,-1.59999950e-002
,,,-3.22400000e-009,-1.94374950e-002
,,,-3.22000000e-009,-2.00624951e-002
,,,-3.21600000e-009,-1.79374950e-002
,,,-3.21200000e-009,-1.35624950e-002
,,,-3.20800000e-009,-7.99999487e-003
,,,-3.20400000e-009,-2.53124479e-003
,,,-3.20000000e-009,1.15625526e-003
,,,-3.19600000e-009,1.81250527e-003
,,,-3.19200000e-009,-1.24999477e-003
,,,-3.18800000e-009,-7.99999487e-003
,,,-3.18400000e-009,-1.69687450e-002
,,,-3.18000000e-009,-2.65624952e-002
,,,-3.17600000e-009,-3.47812453e-002
,,,-3.17200000e-009,-3.96562453e-002
,,,-3.16800000e-009,-3.99999954e-002
,,,-3.16400000e-009,-3.55624953e-002
,,,-3.16000000e-009,-2.79374952e-002
,,,-3.15600000e-009,-1.92812450e-002
,,,-3.15200000e-009,-1.19687449e-002
,,,-3.14800000e-009,-7.99999487e-003
,,,-3.14400000e-009,-8.12499488e-003
,,,-3.14000000e-009,-1.23437449e-002
,,,-3.13600000e-009,-1.91874950e-002
,,,-3.13200000e-009,-2.65312452e-002
,,,-3.12800000e-009,-3.19999952e-002
,,,-3.12400000e-009,-3.32812453e-002
,,,-3.12000000e-009,-2.94687452e-002
,,,-3.11600000e-009,-2.05624951e-002
,,,-3.11200000e-009,-7.46874487e-003
,,,-3.10800000e-009,8.00000536e-003
,,,-3.10400000e-009,2.29375056e-002
,,,-3.10000000e-009,3.46875058e-002
,,,-3.09600000e-009,4.09062559e-002
,,,-3.09200000e-009,4.00937558e-002
,,,-3.08800000e-009,3.20000057e-002
,,,-3.08400000e-009,1.75937555e-002
,,,-3.08000000e-009,4.68755252e-004
,,,-3.07600000e-009,-1.56874950e-002
,,,-3.07200000e-009,-2.73437452e-002
,,,-3.06800000e-009,-3.19999952e-002
,,,-3.06400000e-009,-2.88437452e-002
,,,-3.06000000e-009,-1.92187450e-002
,,,-3.05600000e-009,-6.15624485e-003
,,,-3.05200000e-009,6.68750534e-003
,,,-3.04800000e-009,1.60000055e-002
,,,-3.04400000e-009,1.94375055e-002
,,,-3.04000000e-009,1.68750055e-002
,,,-3.03600000e-009,9.78125539e-003
,,,-3.03200000e-009,5.93755254e-004
,,,-3.02800000e-009,-7.99999487e-003
,,,-3.02400000e-009,-1.38124950e-002
,,,-3.02000000e-009,-1.53749950e-002
,,,-3.01600000e-009,-1.27499949e-002
,,,-3.01200000e-009,-7.06249486e-003
,,,-3.00800000e-009,5.24520882e-009
,,,-3.00400000e-009,6.56250534e-003
,,,-3.00000000e-009,1.06250054e-002
,,,-2.99600000e-009,1.10312554e-002
,,,-2.99200000e-009,7.31250535e-003
,,,-2.98800000e-009,5.24520882e-009
,,,-2.98400000e-009,-9.37499489e-003
,,,-2.98000000e-009,-1.86874950e-002
,,,-2.97600000e-009,-2.54374951e-002
,,,-2.97200000e-009,-2.76249952e-002
,,,-2.96800000e-009,-2.39999951e-002
,,,-2.96400000e-009,-1.51249950e-002
,,,-2.96000000e-009,-2.93749480e-003
,,,-2.95600000e-009,9.62500539e-003
,,,-2.95200000e-009,1.94062555e-002
,,,-2.94800000e-009,2.40000056e-002
,,,-2.94400000e-009,2.21562556e-002
,,,-2.94000000e-009,1.52500055e-002
,,,-2.93600000e-009,5.87500533e-003
,,,-2.93200000e-009,-2.81249480e-003
,,,-2.92800000e-009,-7.99999487e-003
,,,-2.92400000e-009,-8.40624488e-003
,,,-2.92000000e-009,-4.06249482e-003
,,,-2.91600000e-009,3.18750529e-003
,,,-2.91200000e-009,1.07500054e-002
,,,-2.90800000e-009,1.60000055e-002
,,,-2.90400000e-009,1.68750055e-002
,,,-2.90000000e-009,1.30000054e-002
,,,-2.89600000e-009,5.06250532e-003
,,,-2.89200000e-009,-5.28124483e-003
,,,-2.88800000e-009,-1.59999950e-002
,,,-2.88400000e-009,-2.48124951e-002
,,,-2.88000000e-009,-3.02812452e-002
,,,-2.87600000e-009,-3.17812452e-002
,,,-2.87200000e-009,-2.94374952e-002
,,,-2.86800000e-009,-2.39999951e-002
,,,-2.86400000e-009,-1.70937450e-002
,,,-2.86000000e-009,-1.05624949e-002
,,,-2.85600000e-009,-6.15624485e-003
,,,-2.85200000e-009,-5.15624483e-003
,,,-2.84800000e-009,-7.99999487e-003
,,,-2.84400000e-009,-1.39062450e-002
,,,-2.84000000e-009,-2.14374951e-002
,,,-2.83600000e-009,-2.84062452e-002
,,,-2.83200000e-009,-3.24999952e-002
,,,-2.82800000e-009,-3.19999952e-002
,,,-2.82400000e-009,-2.61249951e-002
,,,-2.82000000e-009,-1.61249950e-002
,,,-2.81600000e-009,-4.09374482e-003
,,,-2.81200000e-009,7.43750536e-003
,,,-2.80800000e-009,1.60000055e-002
,,,-2.80400000e-009,1.94375055e-002
,,,-2.80000000e-009,1.75937555e-002
,,,-2.79600000e-009,1.12187554e-002
,,,-2.79200000e-009,2.03125528e-003
,,,-2.78800000e-009,-7.99999487e-003
,,,-2.78400000e-009,-1.69062450e-002
,,,-2.78000000e-009,-2.31874951e-002
,,,-2.77600000e-009,-2.63124951e-002
,,,-2.77200000e-009,-2.64374951e-002
,,,-2.76800000e-009,-2.39999951e-002
,,,-2.76400000e-009,-1.95312450e-002
,,,-2.76000000e-009,-1.40937450e-002
,,,-2.75600000e-009,-8.59374488e-003
,,,-2.75200000e-009,-3.68749481e-003
,,,-2.74800000e-009,5.24520882e-009
,,,-2.74400000e-009,1.78125527e-003
,,,-2.74000000e-009,1.68750527e-003
,,,-2.73600000e-009,-1.87494758e-004
,,,-2.73200000e-009,-3.59374481e-003
,,,-2.72800000e-009,-7.99999487e-003
,,,-2.72400000e-009,-1.28749949e-002
,,,-2.72000000e-009,-1.73749950e-002
,,,-2.71600000e-009,-2.09687451e-002
,,,-2.71200000e-009,-2.32812451e-002
,,,-2.70800000e-009,-2.39999951e-002
,,,-2.70400000e-009,-2.23749951e-002
,,,-2.70000000e-009,-1.89374950e-002
,,,-2.69600000e-009,-1.38124950e-002
,,,-2.69200000e-009,-7.31249486e-003
,,,-2.68800000e-009,5.24520882e-009
,,,-2.68400000e-009,7.03125535e-003
,,,-2.68000000e-009,1.29062554e-002
,,,-2.67600000e-009,1.67500055e-002
,,,-2.67200000e-009,1.78750055e-002
,,,-2.66800000e-009,1.60000055e-002
,,,-2.66400000e-009,1.10625054e-002
,,,-2.66000000e-009,4.28125531e-003
,,,-2.65600000e-009,-3.28124480e-003
,,,-2.65200000e-009,-1.04374949e-002
,,,-2.64800000e-009,-1.59999950e-002
,,,-2.64400000e-009,-1.87812450e-002
,,,-2.64000000e-009,-1.83749950e-002
,,,-2.63600000e-009,-1.47187450e-002
,,,-2.63200000e-009,-8.28124488e-003
,,,-2.62800000e-009,5.24520882e-009
,,,-2.62400000e-009,8.31250537e-003
,,,-2.62000000e-009,1.52500055e-002
,,,-2.61600000e-009,1.93750055e-002
,,,-2.61200000e-009,1.96875055e-002
,,,-2.60800000e-009,1.60000055e-002
,,,-2.60400000e-009,8.84375538e-003
,,,-2.60000000e-009,1.56255248e-004
,,,-2.59600000e-009,-8.06249487e-003
,,,-2.59200000e-009,-1.39374950e-002
,,,-2.58800000e-009,-1.59999950e-002
,,,-2.58400000e-009,-1.38749950e-002
,,,-2.58000000e-009,-8.03124487e-003
,,,-2.57600000e-009,1.56255248e-004
,,,-2.57200000e-009,8.84375538e-003
,,,-2.56800000e-009,1.60000055e-002
,,,-2.56400000e-009,1.95312555e-002
,,,-2.56000000e-009,1.85937555e-002
,,,-2.55600000e-009,1.30312554e-002
,,,-2.55200000e-009,3.65625530e-003
,,,-2.54800000e-009,-7.99999487e-003
,,,-2.54400000e-009,-1.95312450e-002
,,,-2.54000000e-009,-2.84374952e-002
,,,-2.53600000e-009,-3.28124952e-002
,,,-2.53200000e-009,-3.13749952e-002
,,,-2.52800000e-009,-2.39999951e-002
,,,-2.52400000e-009,-1.19687449e-002
,,,-2.52000000e-009,1.84375527e-003
,,,-2.51600000e-009,1.43437555e-002
,,,-2.51200000e-009,2.24687556e-002
,,,-2.50800000e-009,2.40000056e-002
,,,-2.50400000e-009,1.80000055e-002
,,,-2.50000000e-009,5.78125533e-003
,,,-2.49600000e-009,-1.01562449e-002
,,,-2.49200000e-009,-2.65312452e-002
,,,-2.48800000e-009,-3.99999954e-002
,,,-2.48400000e-009,-4.74062455e-002
,,,-2.48000000e-009,-4.78437455e-002
,,,-2.47600000e-009,-4.16562454e-002
,,,-2.47200000e-009,-3.02812452e-002
,,,-2.46800000e-009,-1.59999950e-002
,,,-2.46400000e-009,-1.49999478e-003
,,,-2.46000000e-009,1.02812554e-002
,,,-2.45600000e-009,1.75937555e-002
,,,-2.45200000e-009,1.94687555e-002
,,,-2.44800000e-009,1.60000055e-002
,,,-2.44400000e-009,7.90625536e-003
,,,-2.44000000e-009,-2.40624479e-003
,,,-2.43600000e-009,-1.25312449e-002
,,,-2.43200000e-009,-2.03124951e-002
,,,-2.42800000e-009,-2.39999951e-002
,,,-2.42400000e-009,-2.27187451e-002
,,,-2.42000000e-009,-1.71249950e-002
,,,-2.41600000e-009,-8.74999489e-003
,,,-2.41200000e-009,3.12505250e-004
,,,-2.40800000e-009,8.00000536e-003
,,,-2.40400000e-009,1.26250054e-002
,,,-2.40000000e-009,1.34687554e-002
,,,-2.39600000e-009,1.09062554e-002
,,,-2.39200000e-009,6.00000533e-003
,,,-2.38800000e-009,5.24520882e-009
,,,-2.38400000e-009,-6.06249485e-003
,,,-2.38000000e-009,-1.08124949e-002
,,,-2.37600000e-009,-1.39687450e-002
,,,-2.37200000e-009,-1.55937450e-002
,,,-2.36800000e-009,-1.59999950e-002
,,,-2.36400000e-009,-1.51874950e-002
,,,-2.36000000e-009,-1.37187450e-002
,,,-2.35600000e-009,-1.19062449e-002
,,,-2.35200000e-009,-9.96874490e-003
,,,-2.34800000e-009,-7.99999487e-003
,,,-2.34400000e-009,-5.93749484e-003
,,,-2.34000000e-009,-4.09374482e-003
,,,-2.33600000e-009,-2.46874479e-003
,,,-2.33200000e-009,-1.06249477e-003
,,,-2.32800000e-009,5.24520882e-009
,,,-2.32400000e-009,2.81255249e-004
,,,-2.32000000e-009,-1.87494758e-004
,,,-2.31600000e-009,-1.68749478e-003
,,,-2.31200000e-009,-4.37499482e-003
,,,-2.30800000e-009,-7.99999487e-003
,,,-2.30400000e-009,-1.16562449e-002
,,,-2.30000000e-009,-1.44999950e-002
,,,-2.29600000e-009,-1.54062450e-002
,,,-2.29200000e-009,-1.33749950e-002
,,,-2.28800000e-009,-7.99999487e-003
,,,-2.28400000e-009,2.50005249e-004
,,,-2.28000000e-009,1.00937554e-002
,,,-2.27600000e-009,1.98125055e-002
,,,-2.27200000e-009,2.76250057e-002
,,,-2.26800000e-009,3.20000057e-002
,,,-2.26400000e-009,3.15625057e-002
,,,-2.26000000e-009,2.70000056e-002
,,,-2.25600000e-009,1.92187555e-002
,,,-2.25200000e-009,9.65625539e-003
,,,-2.24800000e-009,5.24520882e-009
,,,-2.24400000e-009,-7.96874487e-003
,,,-2.24000000e-009,-1.29374949e-002
,,,-2.23600000e-009,-1.44374950e-002
,,,-2.23200000e-009,-1.25624949e-002
,,,-2.22800000e-009,-7.99999487e-003
,,,-2.22400000e-009,-2.03124479e-003
,,,-2.22000000e-009,3.81250530e-003
,,,-2.21600000e-009,8.03125536e-003
,,,-2.21200000e-009,9.59375539e-003
,,,-2.20800000e-009,8.00000536e-003
,,,-2.20400000e-009,3.53125530e-003
,,,-2.20000000e-009,-2.62499479e-003
,,,-2.19600000e-009,-8.96874489e-003
,,,-2.19200000e-009,-1.38749950e-002
,,,-2.18800000e-009,-1.59999950e-002
,,,-2.18400000e-009,-1.42187450e-002
,,,-2.18000000e-009,-8.93749489e-003
,,,-2.17600000e-009,-1.15624477e-003
,,,-2.17200000e-009,7.68750536e-003
,,,-2.16800000e-009,1.60000055e-002
,,,-2.16400000e-009,2.20625056e-002
,,,-2.16000000e-009,2.49687556e-002
,,,-2.15600000e-009,2.45937556e-002
,,,-2.15200000e-009,2.13437556e-002
,,,-2.14800000e-009,1.60000055e-002
,,,-2.14400000e-009,9.40625539e-003
,,,-2.14000000e-009,2.93750529e-003
,,,-2.13600000e-009,-2.56249479e-003
,,,-2.13200000e-009,-6.34374485e-003
,,,-2.12800000e-009,-7.99999487e-003
,,,-2.12400000e-009,-7.12499486e-003
,,,-2.12000000e-009,-3.81249481e-003
,,,-2.11600000e-009,1.56250527e-003
,,,-2.11200000e-009,8.46875537e-003
,,,-2.10800000e-009,1.60000055e-002
,,,-2.10400000e-009,2.26250056e-002
,,,-2.10000000e-009,2.74687557e-002
,,,-2.09600000e-009,2.95937557e-002
,,,-2.09200000e-009,2.84687557e-002
,,,-2.08800000e-009,2.40000056e-002
,,,-2.08400000e-009,1.64375055e-002
,,,-2.08000000e-009,7.31250535e-003
,,,-2.07600000e-009,-1.99999478e-003
,,,-2.07200000e-009,-1.01562449e-002
,,,-2.06800000e-009,-1.59999950e-002
,,,-2.06400000e-009,-1.83124950e-002
,,,-2.06000000e-009,-1.72499950e-002
,,,-2.05600000e-009,-1.32187450e-002
,,,-2.05200000e-009,-7.09374486e-003
,,,-2.04800000e-009,5.24520882e-009
,,,-2.04400000e-009,6.75000535e-003
,,,-2.04000000e-009,1.16250054e-002
,,,-2.03600000e-009,1.36250054e-002
,,,-2.03200000e-009,1.23750054e-002
,,,-2.02800000e-009,8.00000536e-003
,,,-2.02400000e-009,1.43750527e-003
,,,-2.02000000e-009,-5.71874484e-003
,,,-2.01600000e-009,-1.19062449e-002
,,,-2.01200000e-009,-1.56562450e-002
,,,-2.00800000e-009,-1.59999950e-002
,,,-2.00400000e-009,-1.24999949e-002
,,,-2.00000000e-009,-6.12499485e-003
,,,-1.99600000e-009,1.78125527e-003
,,,-1.99200000e-009,9.65625539e-003
,,,-1.98800000e-009,1.60000055e-002
,,,-1.98400000e-009,1.97187555e-002
,,,-1.98000000e-009,2.02187555e-002
,,,-1.97600000e-009,1.78125055e-002
,,,-1.97200000e-009,1.33125054e-002
,,,-1.96800000e-009,8.00000536e-003
,,,-1.96400000e-009,3.21875529e-003
,,,-1.96000000e-009,3.75005251e-004
,,,-1.95600000e-009,2.18755248e-004
,,,-1.95200000e-009,2.87500529e-003
,,,-1.94800000e-009,8.00000536e-003
,,,-1.94400000e-009,1.43437555e-002
,,,-1.94000000e-009,2.05000056e-002
,,,-1.93600000e-009,2.49062556e-002
,,,-1.93200000e-009,2.63125056e-002
,,,-1.92800000e-009,2.40000056e-002
,,,-1.92400000e-009,1.80937555e-002
,,,-1.92000000e-009,1.00625054e-002
,,,-1.91600000e-009,1.78125527e-003
,,,-1.91200000e-009,-4.81249483e-003
,,,-1.90800000e-009,-7.99999487e-003
,,,-1.90400000e-009,-7.03124486e-003
,,,-1.90000000e-009,-1.93749478e-003
,,,-1.89600000e-009,6.06250534e-003
,,,-1.89200000e-009,1.53437555e-002
,,,-1.88800000e-009,2.40000056e-002
,,,-1.88400000e-009,3.02812557e-002
,,,-1.88000000e-009,3.33125057e-002
,,,-1.87600000e-009,3.28750057e-002
,,,-1.87200000e-009,2.94375057e-002
,,,-1.86800000e-009,2.40000056e-002
,,,-1.86400000e-009,1.77187555e-002
,,,-1.86000000e-009,1.21875054e-002
,,,-1.85600000e-009,8.40625537e-003
,,,-1.85200000e-009,7.00000535e-003
,,,-1.84800000e-009,8.00000536e-003
,,,-1.84400000e-009,1.10312554e-002
,,,-1.84000000e-009,1.47187555e-002
,,,-1.83600000e-009,1.75937555e-002
,,,-1.83200000e-009,1.82812555e-002
,,,-1.82800000e-009,1.60000055e-002
,,,-1.82400000e-009,1.10625054e-002
,,,-1.82000000e-009,4.46875531e-003
,,,-1.81600000e-009,-2.09374479e-003
,,,-1.81200000e-009,-6.74999486e-003
,,,-1.80800000e-009,-7.99999487e-003
,,,-1.80400000e-009,-5.31249483e-003
,,,-1.80000000e-009,8.43755258e-004
,,,-1.79600000e-009,8.96875538e-003
,,,-1.79200000e-009,1.72500055e-002
,,,-1.78800000e-009,2.40000056e-002
,,,-1.78400000e-009,2.81250057e-002
,,,-1.78000000e-009,2.93125057e-002
,,,-1.77600000e-009,2.81875057e-002
,,,-1.77200000e-009,2.59375056e-002
,,,-1.76800000e-009,2.40000056e-002
,,,-1.76400000e-009,2.34062556e-002
,,,-1.76000000e-009,2.49375056e-002
,,,-1.75600000e-009,2.86562557e-002
,,,-1.75200000e-009,3.40000058e-002
,,,-1.74800000e-009,4.00000058e-002
,,,-1.74400000e-009,4.46562559e-002
,,,-1.74000000e-009,4.70625059e-002
,,,-1.73600000e-009,4.60000059e-002
,,,-1.73200000e-009,4.09375059e-002
,,,-1.72800000e-009,3.20000057e-002
,,,-1.72400000e-009,2.03437555e-002
,,,-1.72000000e-009,8.34375537e-003
,,,-1.71600000e-009,-1.71874478e-003
,,,-1.71200000e-009,-7.62499487e-003
,,,-1.70800000e-009,-7.99999487e-003
,,,-1.70400000e-009,-2.49999479e-003
,,,-1.70000000e-009,7.50000536e-003
,,,-1.69600000e-009,1.97187555e-002
,,,-1.69200000e-009,3.13750057e-002
,,,-1.68800000e-009,4.00000058e-002
,,,-1.68400000e-009,4.35937559e-002
,,,-1.68000000e-009,4.18125059e-002
,,,-1.67600000e-009,3.54687558e-002
,,,-1.67200000e-009,2.61562556e-002
,,,-1.66800000e-009,1.60000055e-002
,,,-1.66400000e-009,7.31250535e-003
,,,-1.66000000e-009,1.75000527e-003
,,,-1.65600000e-009,6.25052461e-005
,,,-1.65200000e-009,2.37500528e-003
,,,-1.64800000e-009,8.00000536e-003
,,,-1.64400000e-009,1.58750055e-002
,,,-1.64000000e-009,2.37500056e-002
,,,-1.63600000e-009,2.98750057e-002
,,,-1.63200000e-009,3.28437557e-002
,,,-1.62800000e-009,3.20000057e-002
,,,-1.62400000e-009,2.76562557e-002
,,,-1.62000000e-009,2.11562556e-002
,,,-1.61600000e-009,1.44375055e-002
,,,-1.61200000e-009,9.53125539e-003
,,,-1.60800000e-009,8.00000536e-003
,,,-1.60400000e-009,1.05625054e-002
,,,-1.60000000e-009,1.67500055e-002
,,,-1.59600000e-009,2.50000056e-002
,,,-1.59200000e-009,3.33750057e-002
