Test Data/Switch_1GHz_raw.csv

"Record Length",25000,"Points",-1.00000000e-008,-2.96000004e-001
"Sample Interval",4.00000000e-012,s,-9.99600000e-009,-2.93625004e-001
"Trigger Point",2500,"Samples",-9.99200000e-009,-2.86375004e-001
"Trigger Time",3.90720174e-012,s,-9.98800000e-009,-2.76000004e-001
"",,,-9.98400000e-009,-2.63687504e-001
"Horizontal Offset",-1.00000000e-008,s,-9.98000000e-009,-2.52781254e-001
,,,-9.97600000e-009,-2.45218754e-001
,,,-9.97200000e-009,-2.42187504e-001
,,,-9.96800000e-009,-2.44000004e-001
,,,-9.96400000e-009,-2.49062504e-001
,,,-9.96000000e-009,-2.56125004e-001
,,,-9.95600000e-009,-2.63031254e-001
,,,-9.95200000e-009,-2.67593754e-001
,,,-9.94800000e-009,-2.68000004e-001
,,,-9.94400000e-009,-2.62468754e-001
,,,-9.94000000e-009,-2.52187504e-001
,,,-9.93600000e-009,-2.38843753e-001
,,,-9.93200000e-009,-2.24718753e-001
,,,-9.92800000e-009,-2.12000003e-001
,,,-9.92400000e-009,-2.01187503e-001
,,,-9.92000000e-009,-1.93812503e-001
,,,-9.91600000e-009,-1.89750003e-001
,,,-9.91200000e-009,-1.88218753e-001
,,,-9.90800000e-009,-1.88000003e-001
,,,-9.90400000e-009,-1.86906253e-001
,,,-9.90000000e-009,-1.84562503e-001
,,,-9.89600000e-009,-1.80937503e-001
,,,-9.89200000e-009,-1.76531253e-001
,,,-9.88800000e-009,-1.72000002e-001
,,,-9.88400000e-009,-1.67187502e-001
,,,-9.88000000e-009,-1.62843752e-001
,,,-9.87600000e-009,-1.59437502e-001
,,,-9.87200000e-009,-1.57187502e-001
,,,-9.86800000e-009,-1.56000002e-001
,,,-9.86400000e-009,-1.54156252e-001
,,,-9.86000000e-009,-1.51375002e-001
,,,-9.85600000e-009,-1.47093752e-001
,,,-9.85200000e-009,-1.40750002e-001
,,,-9.84800000e-009,-1.32000002e-001
,,,-9.84400000e-009,-1.19781252e-001
,,,-9.84000000e-009,-1.04593751e-001
,,,-9.83600000e-009,-8.74062512e-002
,,,-9.83200000e-009,-6.94062509e-002
,,,-9.82800000e-009,-5.20000007e-002
,,,-9.82400000e-009,-3.62500005e-002
,,,-9.82000000e-009,-2.30000003e-002
,,,-9.81600000e-009,-1.29687501e-002
,,,-9.81200000e-009,-6.65625001e-003
,,,-9.80800000e-009,-3.99999997e-003
,,,-9.80400000e-009,-4.03124997e-003
,,,-9.80000000e-009,-5.03124999e-003
,,,-9.79600000e-009,-5.90625000e-003
,,,-9.79200000e-009,-5.78125000e-003
,,,-9.78800000e-009,-3.99999997e-003
,,,-9.78400000e-009,1.87500092e-004
,,,-9.78000000e-009,7.15625020e-003
,,,-9.77600000e-009,1.61875003e-002
,,,-9.77200000e-009,2.61562505e-002
,,,-9.76800000e-009,3.60000006e-002
,,,-9.76400000e-009,4.49687508e-002
,,,-9.76000000e-009,5.29687509e-002
,,,-9.75600000e-009,5.95312510e-002
,,,-9.75200000e-009,6.44375010e-002
,,,-9.74800000e-009,6.80000011e-002
,,,-9.74400000e-009,7.10937511e-002
,,,-9.74000000e-009,7.54062512e-002
,,,-9.73600000e-009,8.15312513e-002
,,,-9.73200000e-009,8.98125014e-002
,,,-9.72800000e-009,1.00000002e-001
,,,-9.72400000e-009,1.11500002e-001
,,,-9.72000000e-009,1.23531252e-001
,,,-9.71600000e-009,1.34562502e-001
,,,-9.71200000e-009,1.43031252e-001
,,,-9.70800000e-009,1.48000002e-001
,,,-9.70400000e-009,1.49250002e-001
,,,-9.70000000e-009,1.48406252e-001
,,,-9.69600000e-009,1.46843752e-001
,,,-9.69200000e-009,1.46218752e-001
,,,-9.68800000e-009,1.48000002e-001
,,,-9.68400000e-009,1.53250002e-001
,,,-9.68000000e-009,1.62687503e-001
,,,-9.67600000e-009,1.75343753e-001
,,,-9.67200000e-009,1.89718753e-001
,,,-9.66800000e-009,2.04000003e-001
,,,-9.66400000e-009,2.16062503e-001
,,,-9.66000000e-009,2.25656253e-001
,,,-9.65600000e-009,2.32218754e-001
,,,-9.65200000e-009,2.35562504e-001
,,,-9.64800000e-009,2.36000004e-001
,,,-9.64400000e-009,2.33812504e-001
,,,-9.64000000e-009,2.31187504e-001
,,,-9.63600000e-009,2.28937504e-001
,,,-9.63200000e-009,2.27718753e-001
,,,-9.62800000e-009,2.28000003e-001
,,,-9.62400000e-009,2.29437504e-001
,,,-9.62000000e-009,2.33031254e-001
,,,-9.61600000e-009,2.38437504e-001
,,,-9.61200000e-009,2.45031254e-001
,,,-9.60800000e-009,2.52000004e-001
,,,-9.60400000e-009,2.57937504e-001
,,,-9.60000000e-009,2.62906254e-001
,,,-9.59600000e-009,2.66343754e-001
,,,-9.59200000e-009,2.67968754e-001
,,,-9.58800000e-009,2.68000004e-001
,,,-9.58400000e-009,2.66625004e-001
,,,-9.58000000e-009,2.65843754e-001
,,,-9.57600000e-009,2.66781254e-001
,,,-9.57200000e-009,2.70125004e-001
,,,-9.56800000e-009,2.76000004e-001
,,,-9.56400000e-009,2.82906254e-001
,,,-9.56000000e-009,2.90406254e-001
,,,-9.55600000e-009,2.96812505e-001
,,,-9.55200000e-009,3.00437505e-001
,,,-9.54800000e-009,3.00000005e-001
,,,-9.54400000e-009,2.94218754e-001
,,,-9.54000000e-009,2.84781254e-001
,,,-9.53600000e-009,2.73250004e-001
,,,-9.53200000e-009,2.61625004e-001
,,,-9.52800000e-009,2.52000004e-001
,,,-9.52400000e-009,2.45562504e-001
,,,-9.52000000e-009,2.44093754e-001
,,,-9.51600000e-009,2.47906254e-001
,,,-9.51200000e-009,2.56343754e-001
,,,-9.50800000e-009,2.68000004e-001
,,,-9.50400000e-009,2.79843754e-001
,,,-9.50000000e-009,2.89937504e-001
,,,-9.49600000e-009,2.96156255e-001
,,,-9.49200000e-009,2.97031255e-001
,,,-9.48800000e-009,2.92000004e-001
,,,-9.48400000e-009,2.80875004e-001
,,,-9.48000000e-009,2.66843754e-001
,,,-9.47600000e-009,2.52937504e-001
,,,-9.47200000e-009,2.41968754e-001
,,,-9.46800000e-009,2.36000004e-001
,,,-9.46400000e-009,2.34750004e-001
,,,-9.46000000e-009,2.37468754e-001
,,,-9.45600000e-009,2.41718754e-001
,,,-9.45200000e-009,2.44687504e-001
,,,-9.44800000e-009,2.44000004e-001
,,,-9.44400000e-009,2.37812504e-001
,,,-9.44000000e-009,2.26812503e-001
,,,-9.43600000e-009,2.13000003e-001
,,,-9.43200000e-009,1.99125003e-001
,,,-9.42800000e-009,1.88000003e-001
,,,-9.42400000e-009,1.81031253e-001
,,,-9.42000000e-009,1.79250003e-001
,,,-9.41600000e-009,1.82218753e-001
,,,-9.41200000e-009,1.88468753e-001
,,,-9.40800000e-009,1.96000003e-001
,,,-9.40400000e-009,2.01375003e-001
,,,-9.40000000e-009,2.03000003e-001
,,,-9.39600000e-009,1.99875003e-001
,,,-9.39200000e-009,1.91968753e-001
,,,-9.38800000e-009,1.80000003e-001
,,,-9.38400000e-009,1.64812503e-001
,,,-9.38000000e-009,1.49187502e-001
,,,-9.37600000e-009,1.35750002e-001
,,,-9.37200000e-009,1.26906252e-001
,,,-9.36800000e-009,1.24000002e-001
,,,-9.36400000e-009,1.25968752e-001
,,,-9.36000000e-009,1.31187502e-001
,,,-9.35600000e-009,1.37062502e-001
,,,-9.35200000e-009,1.40781252e-001
,,,-9.34800000e-009,1.40000002e-001
,,,-9.34400000e-009,1.32625002e-001
,,,-9.34000000e-009,1.19406252e-001
,,,-9.33600000e-009,1.02343752e-001
,,,-9.33200000e-009,8.43125013e-002
,,,-9.32800000e-009,6.80000011e-002
,,,-9.32400000e-009,5.49375009e-002
,,,-9.32000000e-009,4.59375008e-002
,,,-9.31600000e-009,4.06562507e-002
,,,-9.31200000e-009,3.78750007e-002
,,,-9.30800000e-009,3.60000006e-002
,,,-9.30400000e-009,3.29062506e-002
,,,-9.30000000e-009,2.71875005e-002
,,,-9.29600000e-009,1.86562504e-002
,,,-9.29200000e-009,7.90625021e-003
,,,-9.28800000e-009,-3.99999997e-003
,,,-9.28400000e-009,-1.57812501e-002
,,,-9.28000000e-009,-2.67812503e-002
,,,-9.27600000e-009,-3.57500004e-002
,,,-9.27200000e-009,-4.16250005e-002
,,,-9.26800000e-009,-4.40000006e-002
,,,-9.26400000e-009,-4.30312506e-002
,,,-9.26000000e-009,-4.05312505e-002
,,,-9.25600000e-009,-3.76875005e-002
,,,-9.25200000e-009,-3.57812504e-002
,,,-9.24800000e-009,-3.60000004e-002
,,,-9.24400000e-009,-3.95625005e-002
,,,-9.24000000e-009,-4.70937506e-002
,,,-9.23600000e-009,-5.78750008e-002
,,,-9.23200000e-009,-7.06562510e-002
,,,-9.22800000e-009,-8.40000012e-002
,,,-9.22400000e-009,-9.66875014e-002
,,,-9.22000000e-009,-1.08281252e-001
,,,-9.21600000e-009,-1.18218752e-001
,,,-9.21200000e-009,-1.26125002e-001
,,,-9.20800000e-009,-1.32000002e-001
,,,-9.20400000e-009,-1.35531252e-001
,,,-9.20000000e-009,-1.37937502e-001
,,,-9.19600000e-009,-1.39406252e-001
,,,-9.19200000e-009,-1.40000002e-001
,,,-9.18800000e-009,-1.40000002e-001
,,,-9.18400000e-009,-1.40031252e-001
,,,-9.18000000e-009,-1.41250002e-001
,,,-9.17600000e-009,-1.44218752e-001
,,,-9.17200000e-009,-1.49093752e-001
,,,-9.16800000e-009,-1.56000002e-001
,,,-9.16400000e-009,-1.64656252e-001
,,,-9.16000000e-009,-1.74781253e-001
,,,-9.15600000e-009,-1.85437503e-001
,,,-9.15200000e-009,-1.95500003e-001
,,,-9.14800000e-009,-2.04000003e-001
,,,-9.14400000e-009,-2.09656253e-001
,,,-9.14000000e-009,-2.13187503e-001
,,,-9.13600000e-009,-2.14562503e-001
,,,-9.13200000e-009,-2.14000003e-001
,,,-9.12800000e-009,-2.12000003e-001
,,,-9.12400000e-009,-2.09093753e-001
,,,-9.12000000e-009,-2.07031253e-001
,,,-9.11600000e-009,-2.06593753e-001
,,,-9.11200000e-009,-2.08218753e-001
,,,-9.10800000e-009,-2.12000003e-001
,,,-9.10400000e-009,-2.17562503e-001
,,,-9.10000000e-009,-2.24562503e-001
,,,-9.09600000e-009,-2.31937503e-001
,,,-9.09200000e-009,-2.38687503e-001
,,,-9.08800000e-009,-2.44000004e-001
,,,-9.08400000e-009,-2.46968754e-001
,,,-9.08000000e-009,-2.48593754e-001
,,,-9.07600000e-009,-2.49531254e-001
,,,-9.07200000e-009,-2.50437504e-001
,,,-9.06800000e-009,-2.52000004e-001
,,,-9.06400000e-009,-2.54093754e-001
,,,-9.06000000e-009,-2.57406254e-001
,,,-9.05600000e-009,-2.61312504e-001
,,,-9.05200000e-009,-2.65093754e-001
,,,-9.04800000e-009,-2.68000004e-001
,,,-9.04400000e-009,-2.69000004e-001
,,,-9.04000000e-009,-2.68968754e-001
,,,-9.03600000e-009,-2.68406254e-001
,,,-9.03200000e-009,-2.67937504e-001
,,,-9.02800000e-009,-2.68000004e-001
,,,-9.02400000e-009,-2.68000004e-001
,,,-9.02000000e-009,-2.68531254e-001
,,,-9.01600000e-009,-2.69062504e-001
,,,-9.01200000e-009,-2.69031254e-001
,,,-9.00800000e-009,-2.68000004e-001
,,,-9.00400000e-009,-2.65062504e-001
,,,-9.00000000e-009,-2.61875004e-001
,,,-8.99600000e-009,-2.59343754e-001
,,,-8.99200000e-009,-2.58531254e-001
,,,-8.98800000e-009,-2.60000004e-001
,,,-8.98400000e-009,-2.62687504e-001
,,,-8.98000000e-009,-2.66750004e-001
,,,-8.97600000e-009,-2.71125004e-001
,,,-8.97200000e-009,-2.74562504e-001
,,,-8.96800000e-009,-2.76000004e-001
,,,-8.96400000e-009,-2.73500004e-001
,,,-8.96000000e-009,-2.68156254e-001
,,,-8.95600000e-009,-2.60718754e-001
,,,-8.95200000e-009,-2.52281254e-001
,,,-8.94800000e-009,-2.44000004e-001
,,,-8.94400000e-009,-2.35781253e-001
,,,-8.94000000e-009,-2.29156253e-001
,,,-8.93600000e-009,-2.24406253e-001
,,,-8.93200000e-009,-2.21531253e-001
,,,-8.92800000e-009,-2.20000003e-001
,,,-8.92400000e-009,-2.17968753e-001
,,,-8.92000000e-009,-2.15093753e-001
,,,-8.91600000e-009,-2.10625003e-001
,,,-8.91200000e-009,-2.04218753e-001
,,,-8.90800000e-009,-1.96000003e-001
,,,-8.90400000e-009,-1.85687503e-001
,,,-8.90000000e-009,-1.75031253e-001
,,,-8.89600000e-009,-1.65625002e-001
,,,-8.89200000e-009,-1.59000002e-001
,,,-8.88800000e-009,-1.56000002e-001
,,,-8.88400000e-009,-1.55656252e-001
,,,-8.88000000e-009,-1.57093752e-001
,,,-8.87600000e-009,-1.58687502e-001
,,,-8.87200000e-009,-1.58781252e-001
,,,-8.86800000e-009,-1.56000002e-001
,,,-8.86400000e-009,-1.48812502e-001
,,,-8.86000000e-009,-1.37906252e-001
,,,-8.85600000e-009,-1.24781252e-001
,,,-8.85200000e-009,-1.11500002e-001
,,,-8.84800000e-009,-1.00000001e-001
,,,-8.84400000e-009,-9.07812513e-002
,,,-8.84000000e-009,-8.42812512e-002
,,,-8.83600000e-009,-8.02500011e-002
,,,-8.83200000e-009,-7.78750011e-002
,,,-8.82800000e-009,-7.60000010e-002
,,,-8.82400000e-009,-7.27187510e-002
,,,-8.82000000e-009,-6.70000009e-002
,,,-8.81600000e-009,-5.86562508e-002
,,,-8.81200000e-009,-4.80625006e-002
,,,-8.80800000e-009,-3.60000004e-002
,,,-8.80400000e-009,-2.31250003e-002
,,,-8.80000000e-009,-1.06562501e-002
,,,-8.79600000e-009,-3.12499111e-005
,,,-8.79200000e-009,7.68750020e-003
,,,-8.78800000e-009,1.20000003e-002
,,,-8.78400000e-009,1.38437503e-002
,,,-8.78000000e-009,1.49375003e-002
,,,-8.77600000e-009,1.67812503e-002
,,,-8.77200000e-009,2.08125004e-002
,,,-8.76800000e-009,2.80000005e-002
,,,-8.76400000e-009,3.87812507e-002
,,,-8.76000000e-009,5.26562509e-002
,,,-8.75600000e-009,6.76562511e-002
,,,-8.75200000e-009,8.14375013e-002
,,,-8.74800000e-009,9.20000015e-002
,,,-8.74400000e-009,9.81562516e-002
,,,-8.74000000e-009,1.00843752e-001
,,,-8.73600000e-009,1.01062502e-001
,,,-8.73200000e-009,1.00218752e-001
,,,-8.72800000e-009,1.00000002e-001
,,,-8.72400000e-009,1.01718752e-001
,,,-8.72000000e-009,1.07062502e-001
,,,-8.71600000e-009,1.15843752e-001
,,,-8.71200000e-009,1.27218752e-001
,,,-8.70800000e-009,1.40000002e-001
,,,-8.70400000e-009,1.52781252e-001
,,,-8.70000000e-009,1.64875003e-001
,,,-8.69600000e-009,1.75218753e-001
,,,-8.69200000e-009,1.83000003e-001
,,,-8.68800000e-009,1.88000003e-001
,,,-8.68400000e-009,1.90312503e-001
,,,-8.68000000e-009,1.92031253e-001
,,,-8.67600000e-009,1.94375003e-001
,,,-8.67200000e-009,1.98250003e-001
,,,-8.66800000e-009,2.04000003e-001
,,,-8.66400000e-009,2.10562503e-001
,,,-8.66000000e-009,2.17906253e-001
,,,-8.65600000e-009,2.24375003e-001
,,,-8.65200000e-009,2.28093753e-001
,,,-8.64800000e-009,2.28000003e-001
,,,-8.64400000e-009,2.23812503e-001
,,,-8.64000000e-009,2.17906253e-001
,,,-8.63600000e-009,2.12500003e-001
,,,-8.63200000e-009,2.09906253e-001
,,,-8.62800000e-009,2.12000003e-001
,,,-8.62400000e-009,2.19312503e-001
,,,-8.62000000e-009,2.31718754e-001
,,,-8.61600000e-009,2.47125004e-001
,,,-8.61200000e-009,2.62812504e-001
,,,-8.60800000e-009,2.76000004e-001
,,,-8.60400000e-009,2.83562504e-001
,,,-8.60000000e-009,2.85781254e-001
,,,-8.59600000e-009,2.83062504e-001
,,,-8.59200000e-009,2.76562504e-001
,,,-8.58800000e-009,2.68000004e-001
,,,-8.58400000e-009,2.58812504e-001
,,,-8.58000000e-009,2.51718754e-001
,,,-8.57600000e-009,2.47968754e-001
,,,-8.57200000e-009,2.48125004e-001
,,,-8.56800000e-009,2.52000004e-001
,,,-8.56400000e-009,2.58437504e-001
,,,-8.56000000e-009,2.66375004e-001
,,,-8.55600000e-009,2.74250004e-001
,,,-8.55200000e-009,2.80500004e-001
,,,-8.54800000e-009,2.84000004e-001
,,,-8.54400000e-009,2.83593754e-001
,,,-8.54000000e-009,2.80562504e-001
,,,-8.53600000e-009,2.76062504e-001
,,,-8.53200000e-009,2.71468754e-001
,,,-8.52800000e-009,2.68000004e-001
,,,-8.52400000e-009,2.65593754e-001
,,,-8.52000000e-009,2.65125004e-001
,,,-8.51600000e-009,2.66062504e-001
,,,-8.51200000e-009,2.67343754e-001
,,,-8.50800000e-009,2.68000004e-001
,,,-8.50400000e-009,2.66500004e-001
,,,-8.50000000e-009,2.63406254e-001
,,,-8.49600000e-009,2.59312504e-001
,,,-8.49200000e-009,2.55187504e-001
,,,-8.48800000e-009,2.52000004e-001
,,,-8.48400000e-009,2.49718754e-001
,,,-8.48000000e-009,2.48968754e-001
,,,-8.47600000e-009,2.49437504e-001
,,,-8.47200000e-009,2.50656254e-001
,,,-8.46800000e-009,2.52000004e-001
,,,-8.46400000e-009,2.52093754e-001
,,,-8.46000000e-009,2.51250004e-001
,,,-8.45600000e-009,2.49531254e-001
,,,-8.45200000e-009,2.47062504e-001
,,,-8.44800000e-009,2.44000004e-001
,,,-8.44400000e-009,2.39218754e-001
,,,-8.44000000e-009,2.33468754e-001
,,,-8.43600000e-009,2.26906253e-001
,,,-8.43200000e-009,2.19687503e-001
,,,-8.42800000e-009,2.12000003e-001
,,,-8.42400000e-009,2.03343753e-001
,,,-8.42000000e-009,1.94500003e-001
,,,-8.41600000e-009,1.85906253e-001
,,,-8.41200000e-009,1.78218753e-001
,,,-8.40800000e-009,1.72000003e-001
,,,-8.40400000e-009,1.67218753e-001
,,,-8.40000000e-009,1.64531253e-001
,,,-8.39600000e-009,1.64468753e-001
,,,-8.39200000e-009,1.67093753e-001
,,,-8.38800000e-009,1.72000003e-001
,,,-8.38400000e-009,1.76812503e-001
,,,-8.38000000e-009,1.79937503e-001
,,,-8.37600000e-009,1.79625003e-001
,,,-8.37200000e-009,1.74500003e-001
,,,-8.36800000e-009,1.64000003e-001
,,,-8.36400000e-009,1.48000002e-001
,,,-8.36000000e-009,1.29093752e-001
,,,-8.35600000e-009,1.10187502e-001
,,,-8.35200000e-009,9.43750015e-002
,,,-8.34800000e-009,8.40000013e-002
,,,-8.34400000e-009,7.94062513e-002
,,,-8.34000000e-009,7.93750013e-002
,,,-8.33600000e-009,8.18125013e-002
,,,-8.33200000e-009,8.41250013e-002
,,,-8.32800000e-009,8.40000013e-002
,,,-8.32400000e-009,7.93437513e-002
,,,-8.32000000e-009,6.97812511e-002
,,,-8.31600000e-009,5.65625009e-002
,,,-8.31200000e-009,4.18125007e-002
,,,-8.30800000e-009,2.80000005e-002
,,,-8.30400000e-009,1.69687503e-002
,,,-8.30000000e-009,9.81250024e-003
,,,-8.29600000e-009,6.96875019e-003
,,,-8.29200000e-009,8.12500021e-003
,,,-8.28800000e-009,1.20000003e-002
,,,-8.28400000e-009,1.61875003e-002
,,,-8.28000000e-009,1.80312504e-002
,,,-8.27600000e-009,1.57500003e-002
,,,-8.27200000e-009,8.40625021e-003
,,,-8.26800000e-009,-3.99999997e-003
,,,-8.26400000e-009,-2.05312502e-002
,,,-8.26000000e-009,-3.90312505e-002
,,,-8.25600000e-009,-5.64062508e-002
,,,-8.25200000e-009,-6.94687509e-002
,,,-8.24800000e-009,-7.60000010e-002
,,,-8.24400000e-009,-7.55000010e-002
,,,-8.24000000e-009,-7.00625010e-002
,,,-8.23600000e-009,-6.23125008e-002
,,,-8.23200000e-009,-5.53125007e-002
,,,-8.22800000e-009,-5.20000007e-002
,,,-8.22400000e-009,-5.45625007e-002
,,,-8.22000000e-009,-6.34375009e-002
,,,-8.21600000e-009,-7.70625011e-002
,,,-8.21200000e-009,-9.27812513e-002
,,,-8.20800000e-009,-1.08000002e-001
,,,-8.20400000e-009,-1.20656252e-001
,,,-8.20000000e-009,-1.29937502e-001
,,,-8.19600000e-009,-1.35718752e-001
,,,-8.19200000e-009,-1.38687502e-001
,,,-8.18800000e-009,-1.40000002e-001
,,,-8.18400000e-009,-1.41000002e-001
,,,-8.18000000e-009,-1.43593752e-001
,,,-8.17600000e-009,-1.48437502e-001
,,,-8.17200000e-009,-1.55406252e-001
,,,-8.16800000e-009,-1.64000002e-001
,,,-8.16400000e-009,-1.73093752e-001
,,,-8.16000000e-009,-1.82093753e-001
,,,-8.15600000e-009,-1.89593753e-001
,,,-8.15200000e-009,-1.94437503e-001
,,,-8.14800000e-009,-1.96000003e-001
,,,-8.14400000e-009,-1.94531253e-001
,,,-8.14000000e-009,-1.92093753e-001
,,,-8.13600000e-009,-1.90468753e-001
,,,-8.13200000e-009,-1.91406253e-001
,,,-8.12800000e-009,-1.96000003e-001
,,,-8.12400000e-009,-2.04125003e-001
,,,-8.12000000e-009,-2.15281253e-001
,,,-8.11600000e-009,-2.27281253e-001
,,,-8.11200000e-009,-2.37531253e-001
,,,-8.10800000e-009,-2.44000004e-001
,,,-8.10400000e-009,-2.45281254e-001
,,,-8.10000000e-009,-2.43156254e-001
,,,-8.09600000e-009,-2.39437503e-001
,,,-8.09200000e-009,-2.36406253e-001
,,,-8.08800000e-009,-2.36000003e-001
,,,-8.08400000e-009,-2.38875003e-001
,,,-8.08000000e-009,-2.45281254e-001
,,,-8.07600000e-009,-2.53718754e-001
,,,-8.07200000e-009,-2.61937504e-001
,,,-8.06800000e-009,-2.68000004e-001
,,,-8.06400000e-009,-2.70000004e-001
,,,-8.06000000e-009,-2.68937504e-001
,,,-8.05600000e-009,-2.65875004e-001
,,,-8.05200000e-009,-2.62375004e-001
,,,-8.04800000e-009,-2.60000004e-001
,,,-8.04400000e-009,-2.59031254e-001
,,,-8.04000000e-009,-2.60750004e-001
,,,-8.03600000e-009,-2.64843754e-001
,,,-8.03200000e-009,-2.70312504e-001
,,,-8.02800000e-009,-2.76000004e-001
,,,-8.02400000e-009,-2.79843754e-001
,,,-8.02000000e-009,-2.81937504e-001
,,,-8.01600000e-009,-2.81875004e-001
,,,-8.01200000e-009,-2.79718754e-001
,,,-8.00800000e-009,-2.76000004e-001
,,,-8.00400000e-009,-2.70937504e-001
,,,-8.00000000e-009,-2.66562504e-001
,,,-7.99600000e-009,-2.64187504e-001
,,,-7.99200000e-009,-2.64656254e-001
,,,-7.98800000e-009,-2.68000004e-001
,,,-7.98400000e-009,-2.72062504e-001
,,,-7.98000000e-009,-2.76000004e-001
,,,-7.97600000e-009,-2.77750004e-001
,,,-7.97200000e-009,-2.75437504e-001
,,,-7.96800000e-009,-2.68000004e-001
,,,-7.96400000e-009,-2.54937504e-001
,,,-7.96000000e-009,-2.38968753e-001
,,,-7.95600000e-009,-2.23093753e-001
,,,-7.95200000e-009,-2.10562503e-001
,,,-7.94800000e-009,-2.04000003e-001
,,,-7.94400000e-009,-2.03937503e-001
,,,-7.94000000e-009,-2.10187503e-001
,,,-7.93600000e-009,-2.20812503e-001
,,,-7.93200000e-009,-2.33093753e-001
,,,-7.92800000e-009,-2.44000004e-001
,,,-7.92400000e-009,-2.49312504e-001
,,,-7.92000000e-009,-2.48281254e-001
,,,-7.91600000e-009,-2.40875003e-001
,,,-7.91200000e-009,-2.28125003e-001
,,,-7.90800000e-009,-2.12000003e-001
,,,-7.90400000e-009,-1.93937503e-001
,,,-7.90000000e-009,-1.77406253e-001
,,,-7.89600000e-009,-1.64687502e-001
,,,-7.89200000e-009,-1.57375002e-001
,,,-7.88800000e-009,-1.56000002e-001
,,,-7.88400000e-009,-1.58562502e-001
,,,-7.88000000e-009,-1.63125002e-001
,,,-7.87600000e-009,-1.67093752e-001
,,,-7.87200000e-009,-1.68000002e-001
,,,-7.86800000e-009,-1.64000002e-001
,,,-7.86400000e-009,-1.53468752e-001
,,,-7.86000000e-009,-1.37625002e-001
,,,-7.85600000e-009,-1.18843752e-001
,,,-7.85200000e-009,-1.00000001e-001
,,,-7.84800000e-009,-8.40000012e-002
,,,-7.84400000e-009,-7.20625010e-002
,,,-7.84000000e-009,-6.52812509e-002
,,,-7.83600000e-009,-6.32812509e-002
,,,-7.83200000e-009,-6.48437509e-002
