Test Data/Switch_500MHz_envl.csv

"Record Length",25000,"Points",-1.00000000e-008,2.84000009e-001
"Sample Interval",4.00000000e-012,s,-9.99600000e-009,2.91750014e-001
"Trigger Point",2500,"Samples",-9.99200000e-009,2.97343761e-001
"Trigger Time",3.96482759e-012,s,-9.98800000e-009,2.91999996e-001
"",,,-9.98400000e-009,2.84000009e-001
"Horizontal Offset",-1.00000000e-008,s,-9.98000000e-009,2.86406249e-001
,,,-9.97600000e-009,2.86343753e-001
,,,-9.97200000e-009,2.83312500e-001
,,,-9.96800000e-009,2.84000009e-001
,,,-9.96400000e-009,2.89781243e-001
,,,-9.96000000e-009,2.84531265e-001
,,,-9.95600000e-009,2.73499995e-001
,,,-9.95200000e-009,2.77031243e-001
,,,-9.94800000e-009,2.85750002e-001
,,,-9.94400000e-009,2.84218758e-001
,,,-9.94000000e-009,2.85781264e-001
,,,-9.93600000e-009,2.84000009e-001
,,,-9.93200000e-009,2.79875010e-001
,,,-9.92800000e-009,2.85281241e-001
,,,-9.92400000e-009,2.85750002e-001
,,,-9.92000000e-009,2.84000009e-001
,,,-9.91600000e-009,2.78687507e-001
,,,-9.91200000e-009,2.80406266e-001
,,,-9.90800000e-009,2.92468756e-001
,,,-9.90400000e-009,2.93906242e-001
,,,-9.90000000e-009,2.84000009e-001
,,,-9.89600000e-009,2.85125017e-001
,,,-9.89200000e-009,2.84000009e-001
,,,-9.88800000e-009,2.84000009e-001
,,,-9.88400000e-009,2.84312516e-001
,,,-9.88000000e-009,2.88937509e-001
,,,-9.87600000e-009,2.91999996e-001
,,,-9.87200000e-009,2.84062505e-001
,,,-9.86800000e-009,2.84000009e-001
,,,-9.86400000e-009,2.88125008e-001
,,,-9.86000000e-009,2.83374995e-001
,,,-9.85600000e-009,2.83374995e-001
,,,-9.85200000e-009,2.90500015e-001
,,,-9.84800000e-009,2.88312495e-001
,,,-9.84400000e-009,2.84000009e-001
,,,-9.84000000e-009,2.84093767e-001
,,,-9.83600000e-009,2.84000009e-001
,,,-9.83200000e-009,2.78156251e-001
,,,-9.82800000e-009,2.79406250e-001
,,,-9.82400000e-009,2.77937502e-001
,,,-9.82000000e-009,2.73718745e-001
,,,-9.81600000e-009,2.79875010e-001
,,,-9.81200000e-009,2.77968764e-001
,,,-9.80800000e-009,2.80031264e-001
,,,-9.80400000e-009,2.77156264e-001
,,,-9.80000000e-009,2.79906243e-001
,,,-9.79600000e-009,2.84000009e-001
,,,-9.79200000e-009,2.79875010e-001
,,,-9.78800000e-009,2.84000009e-001
,,,-9.78400000e-009,2.77500004e-001
,,,-9.78000000e-009,2.76875019e-001
,,,-9.77600000e-009,2.78031260e-001
,,,-9.77200000e-009,2.84000009e-001
,,,-9.76800000e-009,2.91999996e-001
,,,-9.76400000e-009,2.91812509e-001
,,,-9.76000000e-009,2.81031251e-001
,,,-9.75600000e-009,2.79812515e-001
,,,-9.75200000e-009,2.84000009e-001
,,,-9.74800000e-009,2.91312516e-001
,,,-9.74400000e-009,2.88031250e-001
,,,-9.74000000e-009,2.82906264e-001
,,,-9.73600000e-009,2.75999993e-001
,,,-9.73200000e-009,2.82375008e-001
,,,-9.72800000e-009,2.88531244e-001
,,,-9.72400000e-009,2.91999996e-001
,,,-9.72000000e-009,2.84000009e-001
,,,-9.71600000e-009,2.74593741e-001
,,,-9.71200000e-009,2.82187492e-001
,,,-9.70800000e-009,2.84000009e-001
,,,-9.70400000e-009,2.80437499e-001
,,,-9.70000000e-009,2.88968742e-001
,,,-9.69600000e-009,2.91999996e-001
,,,-9.69200000e-009,2.92656243e-001
,,,-9.68800000e-009,2.89406240e-001
,,,-9.68400000e-009,2.84000009e-001
,,,-9.68000000e-009,2.94312507e-001
,,,-9.67600000e-009,2.94281244e-001
,,,-9.67200000e-009,2.85062492e-001
,,,-9.66800000e-009,2.78593749e-001
,,,-9.66400000e-009,2.72500008e-001
,,,-9.66000000e-009,2.82843769e-001
,,,-9.65600000e-009,2.87187517e-001
,,,-9.65200000e-009,2.84000009e-001
,,,-9.64800000e-009,2.84000009e-001
,,,-9.64400000e-009,2.77375013e-001
,,,-9.64000000e-009,2.89343745e-001
,,,-9.63600000e-009,2.91999996e-001
,,,-9.63200000e-009,2.87499994e-001
,,,-9.62800000e-009,2.84562498e-001
,,,-9.62400000e-009,2.84000009e-001
,,,-9.62000000e-009,2.96750009e-001
,,,-9.61600000e-009,3.05375010e-001
,,,-9.61200000e-009,3.00000012e-001
,,,-9.60800000e-009,2.84000009e-001
,,,-9.60400000e-009,2.76968747e-001
,,,-9.60000000e-009,2.79781252e-001
,,,-9.59600000e-009,2.84000009e-001
,,,-9.59200000e-009,2.84000009e-001
,,,-9.58800000e-009,2.80874997e-001
,,,-9.58400000e-009,2.79843748e-001
,,,-9.58000000e-009,2.84000009e-001
,,,-9.57600000e-009,2.80281246e-001
,,,-9.57200000e-009,2.84000009e-001
,,,-9.56800000e-009,2.88218766e-001
,,,-9.56400000e-009,2.91999996e-001
,,,-9.56000000e-009,2.85625011e-001
,,,-9.55600000e-009,2.82093763e-001
,,,-9.55200000e-009,2.84000009e-001
,,,-9.54800000e-009,2.91999996e-001
,,,-9.54400000e-009,2.89218754e-001
,,,-9.54000000e-009,2.89156258e-001
,,,-9.53600000e-009,2.91999996e-001
,,,-9.53200000e-009,2.84656256e-001
,,,-9.52800000e-009,2.80437499e-001
,,,-9.52400000e-009,2.84000009e-001
,,,-9.52000000e-009,2.77000010e-001
,,,-9.51600000e-009,2.78406262e-001
,,,-9.51200000e-009,2.78406262e-001
,,,-9.50800000e-009,2.75999993e-001
,,,-9.50400000e-009,2.80531257e-001
,,,-9.50000000e-009,2.91468769e-001
,,,-9.49600000e-009,2.91999996e-001
,,,-9.49200000e-009,2.88281262e-001
,,,-9.48800000e-009,2.91999996e-001
,,,-9.48400000e-009,2.91999996e-001
,,,-9.48000000e-009,2.84406245e-001
,,,-9.47600000e-009,2.84000009e-001
,,,-9.47200000e-009,2.88718760e-001
,,,-9.46800000e-009,2.84656256e-001
,,,-9.46400000e-009,2.77156264e-001
,,,-9.46000000e-009,2.78281242e-001
,,,-9.45600000e-009,2.82499999e-001
,,,-9.45200000e-009,2.84000009e-001
,,,-9.44800000e-009,2.81031251e-001
,,,-9.44400000e-009,2.91999996e-001
,,,-9.44000000e-009,2.93687493e-001
,,,-9.43600000e-009,2.86968768e-001
,,,-9.43200000e-009,2.84531265e-001
,,,-9.42800000e-009,2.84000009e-001
,,,-9.42400000e-009,2.80562490e-001
,,,-9.42000000e-009,2.82656252e-001
,,,-9.41600000e-009,2.85937518e-001
,,,-9.41200000e-009,2.88468748e-001
,,,-9.40800000e-009,2.83031255e-001
,,,-9.40400000e-009,2.94499993e-001
,,,-9.40000000e-009,2.91999996e-001
,,,-9.39600000e-009,2.83093750e-001
,,,-9.39200000e-009,2.75999993e-001
,,,-9.38800000e-009,2.81968743e-001
,,,-9.38400000e-009,2.80874997e-001
,,,-9.38000000e-009,2.81937510e-001
,,,-9.37600000e-009,2.86593765e-001
,,,-9.37200000e-009,2.84000009e-001
,,,-9.36800000e-009,2.86375016e-001
,,,-9.36400000e-009,2.89250016e-001
,,,-9.36000000e-009,2.82437503e-001
,,,-9.35600000e-009,2.82687515e-001
,,,-9.35200000e-009,2.76843756e-001
,,,-9.34800000e-009,2.84000009e-001
,,,-9.34400000e-009,2.82468766e-001
,,,-9.34000000e-009,2.91999996e-001
,,,-9.33600000e-009,2.86249995e-001
,,,-9.33200000e-009,2.83093750e-001
,,,-9.32800000e-009,2.82312512e-001
,,,-9.32400000e-009,2.79906243e-001
,,,-9.32000000e-009,2.84000009e-001
,,,-9.31600000e-009,2.78781265e-001
,,,-9.31200000e-009,2.91999996e-001
,,,-9.30800000e-009,2.99187511e-001
,,,-9.30400000e-009,3.04281265e-001
,,,-9.30000000e-009,3.08593750e-001
,,,-9.29600000e-009,3.01499993e-001
,,,-9.29200000e-009,2.84000009e-001
,,,-9.28800000e-009,2.85187513e-001
,,,-9.28400000e-009,2.83593744e-001
,,,-9.28000000e-009,2.87468761e-001
,,,-9.27600000e-009,2.82562494e-001
,,,-9.27200000e-009,2.91999996e-001
,,,-9.26800000e-009,2.89625019e-001
,,,-9.26400000e-009,2.96843767e-001
,,,-9.26000000e-009,2.91999996e-001
,,,-9.25600000e-009,2.89968759e-001
,,,-9.25200000e-009,2.91999996e-001
,,,-9.24800000e-009,2.83656240e-001
,,,-9.24400000e-009,2.86500007e-001
,,,-9.24000000e-009,2.90718764e-001
,,,-9.23600000e-009,2.87156254e-001
,,,-9.23200000e-009,2.83281267e-001
,,,-9.22800000e-009,2.75999993e-001
,,,-9.22400000e-009,2.83500016e-001
,,,-9.22000000e-009,2.93718755e-001
,,,-9.21600000e-009,2.91999996e-001
,,,-9.21200000e-009,2.99093753e-001
,,,-9.20800000e-009,3.00000012e-001
,,,-9.20400000e-009,2.95718759e-001
,,,-9.20000000e-009,2.97343761e-001
,,,-9.19600000e-009,2.92812496e-001
,,,-9.19200000e-009,2.86593765e-001
,,,-9.18800000e-009,2.76343763e-001
,,,-9.18400000e-009,2.79906243e-001
,,,-9.18000000e-009,2.79281259e-001
,,,-9.17600000e-009,2.76343763e-001
,,,-9.17200000e-009,2.76312500e-001
,,,-9.16800000e-009,2.75999993e-001
,,,-9.16400000e-009,2.75375009e-001
,,,-9.16000000e-009,2.75999993e-001
,,,-9.15600000e-009,2.81781256e-001
,,,-9.15200000e-009,2.84843743e-001
,,,-9.14800000e-009,3.00156265e-001
,,,-9.14400000e-009,3.03156257e-001
,,,-9.14000000e-009,2.93843746e-001
,,,-9.13600000e-009,2.77187496e-001
,,,-9.13200000e-009,2.80312508e-001
,,,-9.12800000e-009,2.84999996e-001
,,,-9.12400000e-009,2.86562502e-001
,,,-9.12000000e-009,2.91999996e-001
,,,-9.11600000e-009,2.88593769e-001
,,,-9.11200000e-009,2.73874998e-001
,,,-9.10800000e-009,2.76937515e-001
,,,-9.10400000e-009,2.82718748e-001
,,,-9.10000000e-009,2.82062501e-001
,,,-9.09600000e-009,2.84000009e-001
,,,-9.09200000e-009,2.83374995e-001
,,,-9.08800000e-009,2.82218754e-001
,,,-9.08400000e-009,2.75999993e-001
,,,-9.08000000e-009,2.84406245e-001
,,,-9.07600000e-009,2.84000009e-001
,,,-9.07200000e-009,2.84562498e-001
,,,-9.06800000e-009,2.95843750e-001
,,,-9.06400000e-009,2.99343765e-001
,,,-9.06000000e-009,2.91999996e-001
,,,-9.05600000e-009,2.81374991e-001
,,,-9.05200000e-009,2.76812494e-001
,,,-9.04800000e-009,2.85656244e-001
,,,-9.04400000e-009,2.92781264e-001
,,,-9.04000000e-009,2.91999996e-001
,,,-9.03600000e-009,2.82656252e-001
,,,-9.03200000e-009,2.69843757e-001
,,,-9.02800000e-009,2.79125005e-001
,,,-9.02400000e-009,2.82718748e-001
,,,-9.02000000e-009,2.87625015e-001
,,,-9.01600000e-009,2.87531257e-001
,,,-9.01200000e-009,2.83156246e-001
,,,-9.00800000e-009,2.73375005e-001
,,,-9.00400000e-009,2.77343750e-001
,,,-9.00000000e-009,2.84000009e-001
,,,-8.99600000e-009,2.85499990e-001
,,,-8.99200000e-009,2.79875010e-001
,,,-8.98800000e-009,2.75999993e-001
,,,-8.98400000e-009,2.83718765e-001
,,,-8.98000000e-009,2.84000009e-001
,,,-8.97600000e-009,2.84000009e-001
,,,-8.97200000e-009,2.75656253e-001
,,,-8.96800000e-009,2.75999993e-001
,,,-8.96400000e-009,2.77093768e-001
,,,-8.96000000e-009,2.75999993e-001
,,,-8.95600000e-009,2.81031251e-001
,,,-8.95200000e-009,2.78968751e-001
,,,-8.94800000e-009,2.82718748e-001
,,,-8.94400000e-009,2.83062518e-001
,,,-8.94000000e-009,2.75999993e-001
,,,-8.93600000e-009,2.79187500e-001
,,,-8.93200000e-009,2.83593744e-001
,,,-8.92800000e-009,2.83406258e-001
,,,-8.92400000e-009,2.82812506e-001
,,,-8.92000000e-009,2.79187500e-001
,,,-8.91600000e-009,2.78031260e-001
,,,-8.91200000e-009,2.79000014e-001
,,,-8.90800000e-009,2.76718765e-001
,,,-8.90400000e-009,2.86687493e-001
,,,-8.90000000e-009,2.87656248e-001
,,,-8.89600000e-009,2.75999993e-001
,,,-8.89200000e-009,2.75999993e-001
,,,-8.88800000e-009,2.84000009e-001
,,,-8.88400000e-009,2.93468744e-001
,,,-8.88000000e-009,2.91281253e-001
,,,-8.87600000e-009,2.84218758e-001
,,,-8.87200000e-009,2.77312517e-001
,,,-8.86800000e-009,2.77906269e-001
,,,-8.86400000e-009,2.78937519e-001
,,,-8.86000000e-009,2.75999993e-001
,,,-8.85600000e-009,2.75999993e-001
,,,-8.85200000e-009,2.76062518e-001
,,,-8.84800000e-009,2.79281259e-001
,,,-8.84400000e-009,2.83406258e-001
,,,-8.84000000e-009,2.84000009e-001
,,,-8.83600000e-009,2.76843756e-001
,,,-8.83200000e-009,2.78781265e-001
,,,-8.82800000e-009,2.79375017e-001
,,,-8.82400000e-009,3.00437510e-001
,,,-8.82000000e-009,3.11093748e-001
,,,-8.81600000e-009,3.07999998e-001
,,,-8.81200000e-009,2.90343761e-001
,,,-8.80800000e-009,2.82843769e-001
,,,-8.80400000e-009,2.78312504e-001
,,,-8.80000000e-009,2.84000009e-001
,,,-8.79600000e-009,2.85250008e-001
,,,-8.79200000e-009,2.91000009e-001
,,,-8.78800000e-009,2.94968754e-001
,,,-8.78400000e-009,2.86843747e-001
,,,-8.78000000e-009,2.84593761e-001
,,,-8.77600000e-009,2.84000009e-001
,,,-8.77200000e-009,2.86656260e-001
,,,-8.76800000e-009,2.95031250e-001
,,,-8.76400000e-009,2.92250007e-001
,,,-8.76000000e-009,2.84000009e-001
,,,-8.75600000e-009,2.77281255e-001
,,,-8.75200000e-009,2.79093742e-001
,,,-8.74800000e-009,2.80218750e-001
,,,-8.74400000e-009,2.87406266e-001
,,,-8.74000000e-009,2.87874997e-001
,,,-8.73600000e-009,2.88781255e-001
,,,-8.73200000e-009,2.91999996e-001
,,,-8.72800000e-009,2.84906268e-001
,,,-8.72400000e-009,2.92312503e-001
,,,-8.72000000e-009,2.98562497e-001
,,,-8.71600000e-009,2.91999996e-001
,,,-8.71200000e-009,2.84000009e-001
,,,-8.70800000e-009,2.87781268e-001
,,,-8.70400000e-009,2.90437490e-001
,,,-8.70000000e-009,2.84000009e-001
,,,-8.69600000e-009,2.79437512e-001
,,,-8.69200000e-009,2.84000009e-001
,,,-8.68800000e-009,2.86156267e-001
,,,-8.68400000e-009,2.89250016e-001
,,,-8.68000000e-009,2.86031246e-001
,,,-8.67600000e-009,2.76906252e-001
,,,-8.67200000e-009,2.76656240e-001
,,,-8.66800000e-009,2.82531261e-001
,,,-8.66400000e-009,2.78656244e-001
,,,-8.66000000e-009,2.76656240e-001
,,,-8.65600000e-009,2.84000009e-001
,,,-8.65200000e-009,2.94031262e-001
,,,-8.64800000e-009,3.00000012e-001
,,,-8.64400000e-009,2.92968750e-001
,,,-8.64000000e-009,2.84843743e-001
,,,-8.63600000e-009,2.83718765e-001
,,,-8.63200000e-009,2.97875017e-001
,,,-8.62800000e-009,3.03874999e-001
,,,-8.62400000e-009,3.00000012e-001
,,,-8.62000000e-009,2.92281240e-001
,,,-8.61600000e-009,3.00000012e-001
,,,-8.61200000e-009,2.91906267e-001
,,,-8.60800000e-009,2.77406245e-001
,,,-8.60400000e-009,2.74531245e-001
,,,-8.60000000e-009,2.79968768e-001
,,,-8.59600000e-009,2.83437490e-001
,,,-8.59200000e-009,2.84000009e-001
,,,-8.58800000e-009,2.86562502e-001
,,,-8.58400000e-009,2.86906242e-001
,,,-8.58000000e-009,2.84000009e-001
,,,-8.57600000e-009,2.80124992e-001
,,,-8.57200000e-009,2.87218750e-001
,,,-8.56800000e-009,2.99593747e-001
,,,-8.56400000e-009,3.01499993e-001
,,,-8.56000000e-009,2.91999996e-001
,,,-8.55600000e-009,2.80593753e-001
,,,-8.55200000e-009,2.84000009e-001
,,,-8.54800000e-009,2.85562515e-001
,,,-8.54400000e-009,2.85906255e-001
,,,-8.54000000e-009,2.86218762e-001
,,,-8.53600000e-009,2.75999993e-001
,,,-8.53200000e-009,2.77750015e-001
,,,-8.52800000e-009,2.84000009e-001
,,,-8.52400000e-009,2.80218750e-001
,,,-8.52000000e-009,2.76906252e-001
,,,-8.51600000e-009,2.84000009e-001
,,,-8.51200000e-009,2.83531249e-001
,,,-8.50800000e-009,2.82062501e-001
,,,-8.50400000e-009,2.77437508e-001
,,,-8.50000000e-009,2.84093767e-001
,,,-8.49600000e-009,2.84000009e-001
,,,-8.49200000e-009,2.80000001e-001
,,,-8.48800000e-009,2.85531253e-001
,,,-8.48400000e-009,2.83593744e-001
,,,-8.48000000e-009,2.91875005e-001
,,,-8.47600000e-009,2.90031254e-001
,,,-8.47200000e-009,2.94187516e-001
,,,-8.46800000e-009,2.87718743e-001
,,,-8.46400000e-009,2.96093762e-001
,,,-8.46000000e-009,2.91999996e-001
,,,-8.45600000e-009,2.75843740e-001
,,,-8.45200000e-009,2.74718761e-001
,,,-8.44800000e-009,2.79500008e-001
,,,-8.44400000e-009,2.80937493e-001
,,,-8.44000000e-009,2.88781255e-001
,,,-8.43600000e-009,2.92531252e-001
,,,-8.43200000e-009,2.87968755e-001
,,,-8.42800000e-009,2.89531261e-001
,,,-8.42400000e-009,2.85843760e-001
,,,-8.42000000e-009,2.87843764e-001
,,,-8.41600000e-009,2.87218750e-001
,,,-8.41200000e-009,2.82624990e-001
,,,-8.40800000e-009,2.79187500e-001
,,,-8.40400000e-009,2.82624990e-001
,,,-8.40000000e-009,2.76218742e-001
,,,-8.39600000e-009,2.79093742e-001
,,,-8.39200000e-009,2.77437508e-001
,,,-8.38800000e-009,2.89062500e-001
,,,-8.38400000e-009,3.01499993e-001
,,,-8.38000000e-009,3.00000012e-001
,,,-8.37600000e-009,2.84125000e-001
,,,-8.37200000e-009,2.80156255e-001
,,,-8.36800000e-009,2.81843752e-001
,,,-8.36400000e-009,2.83343762e-001
,,,-8.36000000e-009,2.86343753e-001
,,,-8.35600000e-009,2.91999996e-001
,,,-8.35200000e-009,2.95562506e-001
,,,-8.34800000e-009,2.86593765e-001
,,,-8.34400000e-009,2.83156246e-001
,,,-8.34000000e-009,2.92093754e-001
,,,-8.33600000e-009,3.00000012e-001
,,,-8.33200000e-009,2.95125008e-001
,,,-8.32800000e-009,2.91999996e-001
,,,-8.32400000e-009,2.90156245e-001
,,,-8.32000000e-009,2.78625011e-001
,,,-8.31600000e-009,2.81500012e-001
,,,-8.31200000e-009,2.86812514e-001
,,,-8.30800000e-009,2.91906267e-001
,,,-8.30400000e-009,2.88437515e-001
,,,-8.30000000e-009,2.82843769e-001
,,,-8.29600000e-009,2.84000009e-001
,,,-8.29200000e-009,2.75999993e-001
,,,-8.28800000e-009,2.84468740e-001
,,,-8.28400000e-009,2.83406258e-001
,,,-8.28000000e-009,2.84000009e-001
,,,-8.27600000e-009,2.83875018e-001
,,,-8.27200000e-009,2.81718761e-001
,,,-8.26800000e-009,2.91999996e-001
,,,-8.26400000e-009,3.01218748e-001
,,,-8.26000000e-009,3.01906258e-001
,,,-8.25600000e-009,2.93187499e-001
,,,-8.25200000e-009,2.85499990e-001
,,,-8.24800000e-009,2.78843760e-001
,,,-8.24400000e-009,2.76906252e-001
,,,-8.24000000e-009,2.75999993e-001
,,,-8.23600000e-009,2.75999993e-001
,,,-8.23200000e-009,2.81000018e-001
,,,-8.22800000e-009,2.84000009e-001
,,,-8.22400000e-009,2.87468761e-001
,,,-8.22000000e-009,2.84000009e-001
,,,-8.21600000e-009,3.00000012e-001
,,,-8.21200000e-009,3.04968745e-001
,,,-8.20800000e-009,2.95781255e-001
,,,-8.20400000e-009,2.90437490e-001
,,,-8.20000000e-009,2.86968768e-001
,,,-8.19600000e-009,2.80562490e-001
,,,-8.19200000e-009,2.76906252e-001
,,,-8.18800000e-009,2.84000009e-001
,,,-8.18400000e-009,2.87906259e-001
,,,-8.18000000e-009,2.87656248e-001
,,,-8.17600000e-009,2.80874997e-001
,,,-8.17200000e-009,2.85312504e-001
,,,-8.16800000e-009,2.91999996e-001
,,,-8.16400000e-009,2.93687493e-001
,,,-8.16000000e-009,3.03250015e-001
,,,-8.15600000e-009,3.00000012e-001
,,,-8.15200000e-009,2.83687502e-001
,,,-8.14800000e-009,2.75999993e-001
,,,-8.14400000e-009,2.77718753e-001
,,,-8.14000000e-009,2.79249996e-001
,,,-8.13600000e-009,2.80375004e-001
,,,-8.13200000e-009,2.86875010e-001
,,,-8.12800000e-009,2.85499990e-001
,,,-8.12400000e-009,2.83437490e-001
,,,-8.12000000e-009,2.93437511e-001
,,,-8.11600000e-009,3.00000012e-001
,,,-8.11200000e-009,2.95562506e-001
,,,-8.10800000e-009,2.82531261e-001
,,,-8.10400000e-009,2.76250005e-001
,,,-8.10000000e-009,2.91718751e-001
,,,-8.09600000e-009,2.98093766e-001
,,,-8.09200000e-009,2.91999996e-001
,,,-8.08800000e-009,2.89843768e-001
,,,-8.08400000e-009,2.84125000e-001
,,,-8.08000000e-009,2.84000009e-001
,,,-8.07600000e-009,2.78937519e-001
,,,-8.07200000e-009,2.97937512e-001
,,,-8.06800000e-009,3.07999998e-001
,,,-8.06400000e-009,2.99687505e-001
,,,-8.06000000e-009,2.86812514e-001
,,,-8.05600000e-009,2.86249995e-001
,,,-8.05200000e-009,2.84000009e-001
,,,-8.04800000e-009,2.83656240e-001
,,,-8.04400000e-009,2.84000009e-001
,,,-8.04000000e-009,2.84343749e-001
,,,-8.03600000e-009,2.80937493e-001
,,,-8.03200000e-009,2.84000009e-001
,,,-8.02800000e-009,2.84593761e-001
,,,-8.02400000e-009,2.85937518e-001
,,,-8.02000000e-009,2.86031246e-001
,,,-8.01600000e-009,2.85468757e-001
,,,-8.01200000e-009,2.81374991e-001
,,,-8.00800000e-009,2.77249992e-001
,,,-8.00400000e-009,2.81437516e-001
,,,-8.00000000e-009,2.87187517e-001
,,,-7.99600000e-009,2.84000009e-001
,,,-7.99200000e-009,2.84000009e-001
,,,-7.98800000e-009,2.85468757e-001
,,,-7.98400000e-009,2.84718752e-001
,,,-7.98000000e-009,2.79125005e-001
,,,-7.97600000e-009,2.84000009e-001
,,,-7.97200000e-009,2.83406258e-001
,,,-7.96800000e-009,2.74125010e-001
,,,-7.96400000e-009,2.79093742e-001
,,,-7.96000000e-009,2.84000009e-001
,,,-7.95600000e-009,2.82718748e-001
,,,-7.95200000e-009,2.84000009e-001
,,,-7.94800000e-009,2.79656261e-001
,,,-7.94400000e-009,2.76593745e-001
,,,-7.94000000e-009,2.85937518e-001
,,,-7.93600000e-009,2.85281241e-001
,,,-7.93200000e-009,2.76031256e-001
,,,-7.92800000e-009,2.84000009e-001
,,,-7.92400000e-009,2.88218766e-001
,,,-7.92000000e-009,2.86156267e-001
,,,-7.91600000e-009,2.91999996e-001
,,,-7.91200000e-009,2.88718760e-001
,,,-7.90800000e-009,2.84000009e-001
,,,-7.90400000e-009,2.87843764e-001
,,,-7.90000000e-009,2.80062497e-001
,,,-7.89600000e-009,2.75999993e-001
,,,-7.89200000e-009,2.74625003e-001
,,,-7.88800000e-009,2.82968760e-001
,,,-7.88400000e-009,2.91281253e-001
,,,-7.88000000e-009,2.95218766e-001
,,,-7.87600000e-009,2.88156241e-001
,,,-7.87200000e-009,2.75999993e-001
,,,-7.86800000e-009,2.75999993e-001
,,,-7.86400000e-009,2.76875019e-001
,,,-7.86000000e-009,2.84000009e-001
,,,-7.85600000e-009,2.89906263e-001
,,,-7.85200000e-009,2.85374999e-001
,,,-7.84800000e-009,2.75999993e-001
,,,-7.84400000e-009,2.79343754e-001
,,,-7.84000000e-009,2.84000009e-001
,,,-7.83600000e-009,2.85656244e-001
,,,-7.83200000e-009,2.78218746e-001
,,,-7.82800000e-009,2.78062493e-001
,,,-7.82400000e-009,2.84343749e-001
,,,-7.82000000e-009,2.88031250e-001
,,,-7.81600000e-009,2.84000009e-001
,,,-7.81200000e-009,2.79187500e-001
,,,-7.80800000e-009,2.75999993e-001
,,,-7.80400000e-009,2.75468767e-001
,,,-7.80000000e-009,2.87531257e-001
