Test Data/Switch_1GHz_trig.csv

"Record Length",25000,"Points",-3.76000000e-009,2.70937556e-002
"Sample Interval",4.00000000e-012,s,-3.75600000e-009,2.40000056e-002
"Trigger Point",940,"Samples",-3.75200000e-009,1.19375054e-002
"Trigger Time",1.38040609e-012,s,-3.74800000e-009,-6.09374485e-003
"",,,-3.74400000e-009,-2.54062451e-002
"Horizontal Offset",-3.76000000e-009,s,-3.74000000e-009,-4.07812454e-002
,,,-3.73600000e-009,-4.79999955e-002
,,,-3.73200000e-009,-4.48749954e-002
,,,-3.72800000e-009,-3.27812452e-002
,,,-3.72400000e-009,-1.53749950e-002
,,,-3.72000000e-009,2.46875528e-003
,,,-3.71600000e-009,1.60000055e-002
,,,-3.71200000e-009,2.13437556e-002
,,,-3.70800000e-009,1.78437555e-002
,,,-3.70400000e-009,6.93750535e-003
,,,-3.70000000e-009,-8.24999488e-003
,,,-3.69600000e-009,-2.39999951e-002
,,,-3.69200000e-009,-3.65312453e-002
,,,-3.68800000e-009,-4.31562454e-002
,,,-3.68400000e-009,-4.29062454e-002
,,,-3.68000000e-009,-3.60312453e-002
,,,-3.67600000e-009,-2.39999951e-002
,,,-3.67200000e-009,-9.15624489e-003
,,,-3.66800000e-009,5.43750533e-003
,,,-3.66400000e-009,1.70312555e-002
,,,-3.66000000e-009,2.36250056e-002
,,,-3.65600000e-009,2.40000056e-002
,,,-3.65200000e-009,1.80312555e-002
,,,-3.64800000e-009,7.62500536e-003
,,,-3.64400000e-009,-4.62499482e-003
,,,-3.64000000e-009,-1.59374950e-002
,,,-3.63600000e-009,-2.39999951e-002
,,,-3.63200000e-009,-2.76562452e-002
,,,-3.62800000e-009,-2.69062452e-002
,,,-3.62400000e-009,-2.33124951e-002
,,,-3.62000000e-009,-1.90312450e-002
,,,-3.61600000e-009,-1.59999950e-002
,,,-3.61200000e-009,-1.52499950e-002
,,,-3.60800000e-009,-1.70312450e-002
,,,-3.60400000e-009,-2.01874951e-002
,,,-3.60000000e-009,-2.30624951e-002
,,,-3.59600000e-009,-2.39999951e-002
,,,-3.59200000e-009,-2.20937451e-002
,,,-3.58800000e-009,-1.74999950e-002
,,,-3.58400000e-009,-1.12187449e-002
,,,-3.58000000e-009,-4.84374483e-003
,,,-3.57600000e-009,5.24520882e-009
,,,-3.57200000e-009,1.78125527e-003
,,,-3.56800000e-009,4.37505252e-004
,,,-3.56400000e-009,-3.62499481e-003
,,,-3.56000000e-009,-9.53124490e-003
,,,-3.55600000e-009,-1.59999950e-002
,,,-3.55200000e-009,-2.14687451e-002
,,,-3.54800000e-009,-2.53124951e-002
,,,-3.54400000e-009,-2.70312452e-002
,,,-3.54000000e-009,-2.65312452e-002
,,,-3.53600000e-009,-2.39999951e-002
,,,-3.53200000e-009,-1.99687451e-002
,,,-3.52800000e-009,-1.54374950e-002
,,,-3.52400000e-009,-1.14062449e-002
,,,-3.52000000e-009,-8.74999489e-003
,,,-3.51600000e-009,-7.99999487e-003
,,,-3.51200000e-009,-9.46874490e-003
,,,-3.50800000e-009,-1.26562449e-002
,,,-3.50400000e-009,-1.67499950e-002
,,,-3.50000000e-009,-2.08437451e-002
,,,-3.49600000e-009,-2.39999951e-002
,,,-3.49200000e-009,-2.54687451e-002
,,,-3.48800000e-009,-2.50624951e-002
,,,-3.48400000e-009,-2.30312451e-002
,,,-3.48000000e-009,-1.98124951e-002
,,,-3.47600000e-009,-1.59999950e-002
,,,-3.47200000e-009,-1.20312449e-002
,,,-3.46800000e-009,-8.40624488e-003
,,,-3.46400000e-009,-5.21874483e-003
,,,-3.46000000e-009,-2.43749479e-003
,,,-3.45600000e-009,5.24520882e-009
,,,-3.45200000e-009,1.78125527e-003
,,,-3.44800000e-009,2.93750529e-003
,,,-3.44400000e-009,3.18750529e-003
,,,-3.44000000e-009,2.21875528e-003
,,,-3.43600000e-009,5.24520882e-009
,,,-3.43200000e-009,-3.46874481e-003
,,,-3.42800000e-009,-7.40624487e-003
,,,-3.42400000e-009,-1.11874949e-002
,,,-3.42000000e-009,-1.42187450e-002
,,,-3.41600000e-009,-1.59999950e-002
,,,-3.41200000e-009,-1.61874950e-002
,,,-3.40800000e-009,-1.49999950e-002
,,,-3.40400000e-009,-1.28749949e-002
,,,-3.40000000e-009,-1.03437449e-002
,,,-3.39600000e-009,-7.99999487e-003
,,,-3.39200000e-009,-6.37499485e-003
,,,-3.38800000e-009,-5.62499484e-003
,,,-3.38400000e-009,-5.78124484e-003
,,,-3.38000000e-009,-6.65624485e-003
,,,-3.37600000e-009,-7.99999487e-003
,,,-3.37200000e-009,-9.43749490e-003
,,,-3.36800000e-009,-1.03749949e-002
,,,-3.36400000e-009,-1.05624949e-002
,,,-3.36000000e-009,-9.74999490e-003
,,,-3.35600000e-009,-7.99999487e-003
,,,-3.35200000e-009,-5.65624484e-003
,,,-3.34800000e-009,-3.21874480e-003
,,,-3.34400000e-009,-1.15624477e-003
,,,-3.34000000e-009,5.24520882e-009
,,,-3.33600000e-009,5.24520882e-009
,,,-3.33200000e-009,-9.68744769e-004
,,,-3.32800000e-009,-2.74999480e-003
,,,-3.32400000e-009,-4.84374483e-003
,,,-3.32000000e-009,-6.78124486e-003
,,,-3.31600000e-009,-7.99999487e-003
,,,-3.31200000e-009,-8.46874488e-003
,,,-3.30800000e-009,-7.74999487e-003
,,,-3.30400000e-009,-5.81249484e-003
,,,-3.30000000e-009,-3.06249480e-003
,,,-3.29600000e-009,5.24520882e-009
,,,-3.29200000e-009,2.34375528e-003
,,,-3.28800000e-009,3.21875529e-003
,,,-3.28400000e-009,1.87500527e-003
,,,-3.28000000e-009,-1.96874478e-003
,,,-3.27600000e-009,-7.99999487e-003
,,,-3.27200000e-009,-1.48749950e-002
,,,-3.26800000e-009,-2.07812451e-002
,,,-3.26400000e-009,-2.38437451e-002
,,,-3.26000000e-009,-2.24374951e-002
,,,-3.25600000e-009,-1.59999950e-002
,,,-3.25200000e-009,-5.62499484e-003
,,,-3.24800000e-009,6.46875534e-003
,,,-3.24400000e-009,1.72812555e-002
,,,-3.24000000e-009,2.38750056e-002
,,,-3.23600000e-009,2.40000056e-002
,,,-3.23200000e-009,1.69375055e-002
,,,-3.22800000e-009,4.09375531e-003
,,,-3.22400000e-009,-1.18749949e-002
,,,-3.22000000e-009,-2.76562452e-002
,,,-3.21600000e-009,-3.99999954e-002
,,,-3.21200000e-009,-4.59374954e-002
,,,-3.20800000e-009,-4.46249954e-002
,,,-3.20400000e-009,-3.65937453e-002
,,,-3.20000000e-009,-2.35312451e-002
,,,-3.19600000e-009,-7.99999487e-003
,,,-3.19200000e-009,6.75000535e-003
,,,-3.18800000e-009,1.74062555e-002
,,,-3.18400000e-009,2.16562556e-002
,,,-3.18000000e-009,1.83750055e-002
,,,-3.17600000e-009,8.00000536e-003
,,,-3.17200000e-009,-7.31249486e-003
,,,-3.16800000e-009,-2.35312451e-002
,,,-3.16400000e-009,-3.65937453e-002
,,,-3.16000000e-009,-4.28124954e-002
,,,-3.15600000e-009,-3.99999954e-002
,,,-3.15200000e-009,-2.81249952e-002
,,,-3.14800000e-009,-1.04062449e-002
,,,-3.14400000e-009,8.62500537e-003
,,,-3.14000000e-009,2.40937556e-002
,,,-3.13600000e-009,3.20000057e-002
,,,-3.13200000e-009,3.02500057e-002
,,,-3.12800000e-009,1.99687555e-002
,,,-3.12400000e-009,4.53125531e-003
,,,-3.12000000e-009,-1.15937449e-002
,,,-3.11600000e-009,-2.39999951e-002
,,,-3.11200000e-009,-2.95312452e-002
,,,-3.10800000e-009,-2.71249952e-002
,,,-3.10400000e-009,-1.80937450e-002
,,,-3.10000000e-009,-5.28124483e-003
,,,-3.09600000e-009,8.00000536e-003
,,,-3.09200000e-009,1.83437555e-002
,,,-3.08800000e-009,2.36875056e-002
,,,-3.08400000e-009,2.32500056e-002
,,,-3.08000000e-009,1.75000055e-002
,,,-3.07600000e-009,8.00000536e-003
,,,-3.07200000e-009,-3.09374480e-003
,,,-3.06800000e-009,-1.29062449e-002
,,,-3.06400000e-009,-1.92187450e-002
,,,-3.06000000e-009,-2.04062451e-002
,,,-3.05600000e-009,-1.59999950e-002
,,,-3.05200000e-009,-6.99999486e-003
,,,-3.04800000e-009,4.43750531e-003
,,,-3.04400000e-009,1.52187555e-002
,,,-3.04000000e-009,2.24375056e-002
,,,-3.03600000e-009,2.40000056e-002
,,,-3.03200000e-009,1.94375055e-002
,,,-3.02800000e-009,1.01562554e-002
,,,-3.02400000e-009,-9.68744769e-004
,,,-3.02000000e-009,-1.06249949e-002
,,,-3.01600000e-009,-1.59999950e-002
,,,-3.01200000e-009,-1.56874950e-002
,,,-3.00800000e-009,-9.96874490e-003
,,,-3.00400000e-009,-8.74994768e-004
,,,-3.00000000e-009,8.71875538e-003
,,,-2.99600000e-009,1.60000055e-002
,,,-2.99200000e-009,1.86250055e-002
,,,-2.98800000e-009,1.62500055e-002
,,,-2.98400000e-009,9.68750539e-003
,,,-2.98000000e-009,8.43755258e-004
,,,-2.97600000e-009,-7.99999487e-003
,,,-2.97200000e-009,-1.44374950e-002
,,,-2.96800000e-009,-1.69687450e-002
,,,-2.96400000e-009,-1.50937450e-002
,,,-2.96000000e-009,-9.09374489e-003
,,,-2.95600000e-009,5.24520882e-009
,,,-2.95200000e-009,9.90625539e-003
,,,-2.94800000e-009,1.88437555e-002
,,,-2.94400000e-009,2.50000056e-002
,,,-2.94000000e-009,2.69375056e-002
,,,-2.93600000e-009,2.40000056e-002
,,,-2.93200000e-009,1.63437555e-002
,,,-2.92800000e-009,5.56250533e-003
,,,-2.92400000e-009,-6.21874485e-003
,,,-2.92000000e-009,-1.67499950e-002
,,,-2.91600000e-009,-2.39999951e-002
,,,-2.91200000e-009,-2.65624952e-002
,,,-2.90800000e-009,-2.42187451e-002
,,,-2.90400000e-009,-1.79062450e-002
,,,-2.90000000e-009,-9.18749489e-003
,,,-2.89600000e-009,5.24520882e-009
,,,-2.89200000e-009,7.56250536e-003
,,,-2.88800000e-009,1.17500054e-002
,,,-2.88400000e-009,1.18125054e-002
,,,-2.88000000e-009,7.65625536e-003
,,,-2.87600000e-009,5.24520882e-009
,,,-2.87200000e-009,-9.65624490e-003
,,,-2.86800000e-009,-1.93124950e-002
,,,-2.86400000e-009,-2.71562452e-002
,,,-2.86000000e-009,-3.16562452e-002
,,,-2.85600000e-009,-3.19999952e-002
,,,-2.85200000e-009,-2.79999952e-002
,,,-2.84800000e-009,-2.10624951e-002
,,,-2.84400000e-009,-1.28749949e-002
,,,-2.84000000e-009,-5.28124483e-003
,,,-2.83600000e-009,5.24520882e-009
,,,-2.83200000e-009,1.87500527e-003
,,,-2.82800000e-009,1.25005247e-004
,,,-2.82400000e-009,-4.40624482e-003
,,,-2.82000000e-009,-1.03124949e-002
,,,-2.81600000e-009,-1.59999950e-002
,,,-2.81200000e-009,-1.97812450e-002
,,,-2.80800000e-009,-2.07812451e-002
,,,-2.80400000e-009,-1.87812450e-002
,,,-2.80000000e-009,-1.42187450e-002
,,,-2.79600000e-009,-7.99999487e-003
,,,-2.79200000e-009,-1.21874477e-003
,,,-2.78800000e-009,4.65625531e-003
,,,-2.78400000e-009,8.56250537e-003
,,,-2.78000000e-009,9.78125539e-003
,,,-2.77600000e-009,8.00000536e-003
,,,-2.77200000e-009,3.09375529e-003
,,,-2.76800000e-009,-3.71874481e-003
,,,-2.76400000e-009,-1.13437449e-002
,,,-2.76000000e-009,-1.84999950e-002
,,,-2.75600000e-009,-2.39999951e-002
,,,-2.75200000e-009,-2.70312452e-002
,,,-2.74800000e-009,-2.72499952e-002
,,,-2.74400000e-009,-2.50312451e-002
,,,-2.74000000e-009,-2.10312451e-002
,,,-2.73600000e-009,-1.59999950e-002
,,,-2.73200000e-009,-1.05624949e-002
,,,-2.72800000e-009,-5.34374483e-003
,,,-2.72400000e-009,-5.31244763e-004
,,,-2.72000000e-009,3.93750530e-003
,,,-2.71600000e-009,8.00000536e-003
,,,-2.71200000e-009,1.10937554e-002
,,,-2.70800000e-009,1.30937554e-002
,,,-2.70400000e-009,1.35312554e-002
,,,-2.70000000e-009,1.19062554e-002
,,,-2.69600000e-009,8.00000536e-003
,,,-2.69200000e-009,2.03125528e-003
,,,-2.68800000e-009,-5.09374483e-003
,,,-2.68400000e-009,-1.24687449e-002
,,,-2.68000000e-009,-1.90937450e-002
,,,-2.67600000e-009,-2.39999951e-002
,,,-2.67200000e-009,-2.63124951e-002
,,,-2.66800000e-009,-2.61874951e-002
,,,-2.66400000e-009,-2.39999951e-002
,,,-2.66000000e-009,-2.03437451e-002
,,,-2.65600000e-009,-1.59999950e-002
,,,-2.65200000e-009,-1.18124949e-002
,,,-2.64800000e-009,-8.56249488e-003
,,,-2.64400000e-009,-6.78124486e-003
,,,-2.64000000e-009,-6.65624485e-003
,,,-2.63600000e-009,-7.99999487e-003
,,,-2.63200000e-009,-1.01562449e-002
,,,-2.62800000e-009,-1.21249949e-002
,,,-2.62400000e-009,-1.28749949e-002
,,,-2.62000000e-009,-1.16249949e-002
,,,-2.61600000e-009,-7.99999487e-003
,,,-2.61200000e-009,-2.34374479e-003
,,,-2.60800000e-009,4.21875531e-003
,,,-2.60400000e-009,1.03125054e-002
,,,-2.60000000e-009,1.45937555e-002
,,,-2.59600000e-009,1.60000055e-002
,,,-2.59200000e-009,1.39687555e-002
,,,-2.58800000e-009,9.25000538e-003
,,,-2.58400000e-009,3.03125529e-003
,,,-2.58000000e-009,-3.18749480e-003
,,,-2.57600000e-009,-7.99999487e-003
,,,-2.57200000e-009,-1.04999949e-002
,,,-2.56800000e-009,-1.02499949e-002
,,,-2.56400000e-009,-7.78124487e-003
,,,-2.56000000e-009,-3.96874481e-003
,,,-2.55600000e-009,5.24520882e-009
,,,-2.55200000e-009,3.06250529e-003
,,,-2.54800000e-009,4.62500531e-003
,,,-2.54400000e-009,4.50000531e-003
,,,-2.54000000e-009,2.78125529e-003
,,,-2.53600000e-009,5.24520882e-009
,,,-2.53200000e-009,-3.46874481e-003
,,,-2.52800000e-009,-6.56249485e-003
,,,-2.52400000e-009,-8.59374488e-003
,,,-2.52000000e-009,-9.09374489e-003
,,,-2.51600000e-009,-7.99999487e-003
,,,-2.51200000e-009,-5.71874484e-003
,,,-2.50800000e-009,-2.93749480e-003
,,,-2.50400000e-009,-5.93744764e-004
,,,-2.50000000e-009,5.62505254e-004
,,,-2.49600000e-009,5.24520882e-009
,,,-2.49200000e-009,-1.87499478e-003
,,,-2.48800000e-009,-4.65624482e-003
,,,-2.48400000e-009,-7.24999486e-003
,,,-2.48000000e-009,-8.62499488e-003
,,,-2.47600000e-009,-7.99999487e-003
,,,-2.47200000e-009,-5.24999483e-003
,,,-2.46800000e-009,-1.03124477e-003
,,,-2.46400000e-009,3.50000530e-003
,,,-2.46000000e-009,6.93750535e-003
,,,-2.45600000e-009,8.00000536e-003
,,,-2.45200000e-009,5.78125533e-003
,,,-2.44800000e-009,5.31255253e-004
,,,-2.44400000e-009,-7.09374486e-003
,,,-2.44000000e-009,-1.57812450e-002
,,,-2.43600000e-009,-2.39999951e-002
,,,-2.43200000e-009,-2.96249952e-002
,,,-2.42800000e-009,-3.18749952e-002
,,,-2.42400000e-009,-3.02499952e-002
,,,-2.42000000e-009,-2.47499951e-002
,,,-2.41600000e-009,-1.59999950e-002
,,,-2.41200000e-009,-5.40624484e-003
,,,-2.40800000e-009,5.37500533e-003
,,,-2.40400000e-009,1.47187555e-002
,,,-2.40000000e-009,2.12500056e-002
,,,-2.39600000e-009,2.40000056e-002
,,,-2.39200000e-009,2.23437556e-002
,,,-2.38800000e-009,1.70625055e-002
,,,-2.38400000e-009,9.21875538e-003
,,,-2.38000000e-009,3.12505250e-004
,,,-2.37600000e-009,-7.99999487e-003
,,,-2.37200000e-009,-1.39374950e-002
,,,-2.36800000e-009,-1.63124950e-002
,,,-2.36400000e-009,-1.45624950e-002
,,,-2.36000000e-009,-8.81249489e-003
,,,-2.35600000e-009,5.24520882e-009
,,,-2.35200000e-009,9.93750539e-003
,,,-2.34800000e-009,1.89687555e-002
,,,-2.34400000e-009,2.52187556e-002
,,,-2.34000000e-009,2.71250056e-002
,,,-2.33600000e-009,2.40000056e-002
,,,-2.33200000e-009,1.58750055e-002
,,,-2.32800000e-009,4.81250532e-003
,,,-2.32400000e-009,-7.03124486e-003
,,,-2.32000000e-009,-1.73124950e-002
,,,-2.31600000e-009,-2.39999951e-002
,,,-2.31200000e-009,-2.56249951e-002
,,,-2.30800000e-009,-2.19687451e-002
,,,-2.30400000e-009,-1.39999950e-002
,,,-2.30000000e-009,-3.28124480e-003
,,,-2.29600000e-009,8.00000536e-003
,,,-2.29200000e-009,1.75312555e-002
,,,-2.28800000e-009,2.30937556e-002
,,,-2.28400000e-009,2.34062556e-002
,,,-2.28000000e-009,1.81250055e-002
,,,-2.27600000e-009,8.00000536e-003
,,,-2.27200000e-009,-4.99999483e-003
,,,-2.26800000e-009,-1.79687450e-002
,,,-2.26400000e-009,-2.81562452e-002
,,,-2.26000000e-009,-3.32499953e-002
,,,-2.25600000e-009,-3.19999952e-002
,,,-2.25200000e-009,-2.43437451e-002
,,,-2.24800000e-009,-1.26562449e-002
,,,-2.24400000e-009,-3.12447553e-005
,,,-2.24000000e-009,1.03750054e-002
,,,-2.23600000e-009,1.60000055e-002
,,,-2.23200000e-009,1.52500055e-002
,,,-2.22800000e-009,9.09375538e-003
,,,-2.22400000e-009,-2.18744758e-004
,,,-2.22000000e-009,-9.56249490e-003
,,,-2.21600000e-009,-1.59999950e-002
,,,-2.21200000e-009,-1.74374950e-002
,,,-2.20800000e-009,-1.34374950e-002
,,,-2.20400000e-009,-5.12499483e-003
,,,-2.20000000e-009,5.46875533e-003
,,,-2.19600000e-009,1.60000055e-002
,,,-2.19200000e-009,2.42812556e-002
,,,-2.18800000e-009,2.91562557e-002
,,,-2.18400000e-009,3.03437557e-002
,,,-2.18000000e-009,2.83437557e-002
,,,-2.17600000e-009,2.40000056e-002
,,,-2.17200000e-009,1.78750055e-002
,,,-2.16800000e-009,1.11875054e-002
,,,-2.16400000e-009,4.46875531e-003
,,,-2.16000000e-009,-1.96874478e-003
,,,-2.15600000e-009,-7.99999487e-003
,,,-2.15200000e-009,-1.32499950e-002
,,,-2.14800000e-009,-1.75312450e-002
,,,-2.14400000e-009,-2.08124951e-002
,,,-2.14000000e-009,-2.30312451e-002
,,,-2.13600000e-009,-2.39999951e-002
,,,-2.13200000e-009,-2.31249951e-002
,,,-2.12800000e-009,-2.04687451e-002
,,,-2.12400000e-009,-1.57499950e-002
,,,-2.12000000e-009,-8.81249489e-003
,,,-2.11600000e-009,5.24520882e-009
,,,-2.11200000e-009,9.56250539e-003
,,,-2.10800000e-009,1.83125055e-002
,,,-2.10400000e-009,2.44687556e-002
,,,-2.10000000e-009,2.65937556e-002
,,,-2.09600000e-009,2.40000056e-002
,,,-2.09200000e-009,1.73437555e-002
,,,-2.08800000e-009,8.43750537e-003
,,,-2.08400000e-009,-2.81244759e-004
,,,-2.08000000e-009,-6.37499485e-003
,,,-2.07600000e-009,-7.99999487e-003
,,,-2.07200000e-009,-4.53124482e-003
,,,-2.06800000e-009,2.75000529e-003
,,,-2.06400000e-009,1.15937554e-002
,,,-2.06000000e-009,1.94687555e-002
,,,-2.05600000e-009,2.40000056e-002
,,,-2.05200000e-009,2.35625056e-002
,,,-2.04800000e-009,1.85312555e-002
,,,-2.04400000e-009,1.01250054e-002
,,,-2.04000000e-009,4.68755252e-004
,,,-2.03600000e-009,-7.99999487e-003
,,,-2.03200000e-009,-1.28437449e-002
,,,-2.02800000e-009,-1.26562449e-002
,,,-2.02400000e-009,-7.21874486e-003
,,,-2.02000000e-009,2.84375529e-003
,,,-2.01600000e-009,1.60000055e-002
,,,-2.01200000e-009,2.95937557e-002
,,,-2.00800000e-009,4.13750059e-002
,,,-2.00400000e-009,4.92187560e-002
,,,-2.00000000e-009,5.16250060e-002
,,,-1.99600000e-009,4.80000060e-002
,,,-1.99200000e-009,3.85312558e-002
,,,-1.98800000e-009,2.55937556e-002
,,,-1.98400000e-009,1.17812554e-002
,,,-1.98000000e-009,-2.18744758e-004
,,,-1.97600000e-009,-7.99999487e-003
,,,-1.97200000e-009,-9.78124490e-003
,,,-1.96800000e-009,-5.84374484e-003
,,,-1.96400000e-009,2.53125528e-003
,,,-1.96000000e-009,1.32500054e-002
,,,-1.95600000e-009,2.40000056e-002
,,,-1.95200000e-009,3.25312557e-002
,,,-1.94800000e-009,3.75625058e-002
,,,-1.94400000e-009,3.88125058e-002
,,,-1.94000000e-009,3.66875058e-002
,,,-1.93600000e-009,3.20000057e-002
,,,-1.93200000e-009,2.54375056e-002
,,,-1.92800000e-009,1.83750055e-002
,,,-1.92400000e-009,1.15000054e-002
,,,-1.92000000e-009,5.21875532e-003
,,,-1.91600000e-009,5.24520882e-009
,,,-1.91200000e-009,-3.21874480e-003
,,,-1.90800000e-009,-4.24999482e-003
,,,-1.90400000e-009,-2.78124480e-003
,,,-1.90000000e-009,1.40625527e-003
,,,-1.89600000e-009,8.00000536e-003
,,,-1.89200000e-009,1.63750055e-002
,,,-1.88800000e-009,2.50000056e-002
,,,-1.88400000e-009,3.25000057e-002
,,,-1.88000000e-009,3.77500058e-002
,,,-1.87600000e-009,4.00000058e-002
,,,-1.87200000e-009,3.85000058e-002
,,,-1.86800000e-009,3.43125058e-002
,,,-1.86400000e-009,2.83125057e-002
,,,-1.86000000e-009,2.17812556e-002
,,,-1.85600000e-009,1.60000055e-002
,,,-1.85200000e-009,1.22187554e-002
,,,-1.84800000e-009,1.11562554e-002
,,,-1.84400000e-009,1.30312554e-002
,,,-1.84000000e-009,1.75625055e-002
,,,-1.83600000e-009,2.40000056e-002
,,,-1.83200000e-009,3.10937557e-002
,,,-1.82800000e-009,3.73125058e-002
,,,-1.82400000e-009,4.14062559e-002
,,,-1.82000000e-009,4.24375059e-002
,,,-1.81600000e-009,4.00000058e-002
,,,-1.81200000e-009,3.42500058e-002
,,,-1.80800000e-009,2.67187556e-002
,,,-1.80400000e-009,1.88437555e-002
,,,-1.80000000e-009,1.21875054e-002
,,,-1.79600000e-009,8.00000536e-003
,,,-1.79200000e-009,7.06250535e-003
,,,-1.78800000e-009,9.18750538e-003
,,,-1.78400000e-009,1.35625054e-002
,,,-1.78000000e-009,1.89375055e-002
,,,-1.77600000e-009,2.40000056e-002
,,,-1.77200000e-009,2.74687557e-002
,,,-1.76800000e-009,2.88437557e-002
,,,-1.76400000e-009,2.82812557e-002
,,,-1.76000000e-009,2.64062556e-002
,,,-1.75600000e-009,2.40000056e-002
,,,-1.75200000e-009,2.16250056e-002
,,,-1.74800000e-009,2.02187555e-002
,,,-1.74400000e-009,2.01562555e-002
,,,-1.74000000e-009,2.14375056e-002
,,,-1.73600000e-009,2.40000056e-002
,,,-1.73200000e-009,2.74687557e-002
,,,-1.72800000e-009,3.13125057e-002
,,,-1.72400000e-009,3.50312558e-002
,,,-1.72000000e-009,3.80937558e-002
,,,-1.71600000e-009,4.00000058e-002
,,,-1.71200000e-009,4.03750058e-002
,,,-1.70800000e-009,3.89375058e-002
,,,-1.70400000e-009,3.56250058e-002
,,,-1.70000000e-009,3.05312557e-002
,,,-1.69600000e-009,2.40000056e-002
,,,-1.69200000e-009,1.64375055e-002
,,,-1.68800000e-009,8.81250538e-003
,,,-1.68400000e-009,1.81250527e-003
,,,-1.68000000e-009,-3.93749481e-003
,,,-1.67600000e-009,-7.99999487e-003
,,,-1.67200000e-009,-9.65624490e-003
,,,-1.66800000e-009,-9.34374489e-003
,,,-1.66400000e-009,-7.43749487e-003
,,,-1.66000000e-009,-4.21874482e-003
,,,-1.65600000e-009,5.24520882e-009
,,,-1.65200000e-009,5.25000532e-003
,,,-1.64800000e-009,1.10937554e-002
,,,-1.64400000e-009,1.75312555e-002
,,,-1.64000000e-009,2.45625056e-002
,,,-1.63600000e-009,3.20000057e-002
,,,-1.63200000e-009,3.90312558e-002
,,,-1.62800000e-009,4.49687559e-002
,,,-1.62400000e-009,4.88750060e-002
,,,-1.62000000e-009,5.00000060e-002
,,,-1.61600000e-009,4.80000060e-002
,,,-1.61200000e-009,4.28750059e-002
,,,-1.60800000e-009,3.57500058e-002
,,,-1.60400000e-009,2.80000057e-002
,,,-1.60000000e-009,2.10000056e-002
,,,-1.59600000e-009,1.60000055e-002
,,,-1.59200000e-009,1.38125055e-002
