Test Data/Switch_100MHz_trig.csv

"Record Length",25000,"Points",-1.00000000e-008,-1.94218753e-002
"Sample Interval",4.00000000e-012,s,-9.99600000e-009,-1.92968753e-002
"Trigger Point",2500,"Samples",-9.99200000e-009,-1.52031252e-002
"Trigger Time",3.00019802e-012,s,-9.98800000e-009,-8.00000012e-003
"",,,-9.98400000e-009,8.75000013e-004
"Horizontal Offset",-1.00000000e-008,s,-9.98000000e-009,9.29687514e-003
,,,-9.97600000e-009,1.54375002e-002
,,,-9.97200000e-009,1.78750003e-002
,,,-9.96800000e-009,1.60000002e-002
,,,-9.96400000e-009,1.02656252e-002
,,,-9.96000000e-009,2.39062504e-003
,,,-9.95600000e-009,-5.35937508e-003
,,,-9.95200000e-009,-1.06875002e-002
,,,-9.94800000e-009,-1.20000002e-002
,,,-9.94400000e-009,-8.82812513e-003
,,,-9.94000000e-009,-2.26562503e-003
,,,-9.93600000e-009,5.62500008e-003
,,,-9.93200000e-009,1.24375002e-002
,,,-9.92800000e-009,1.60000002e-002
,,,-9.92400000e-009,1.53437502e-002
,,,-9.92000000e-009,1.05156252e-002
,,,-9.91600000e-009,2.95312504e-003
,,,-9.91200000e-009,-5.26562508e-003
,,,-9.90800000e-009,-1.20000002e-002
,,,-9.90400000e-009,-1.53437502e-002
,,,-9.90000000e-009,-1.47031252e-002
,,,-9.89600000e-009,-1.04218752e-002
,,,-9.89200000e-009,-3.64062505e-003
,,,-9.88800000e-009,4.00000006e-003
,,,-9.88400000e-009,1.05781252e-002
,,,-9.88000000e-009,1.45156252e-002
,,,-9.87600000e-009,1.47968752e-002
,,,-9.87200000e-009,1.11406252e-002
,,,-9.86800000e-009,4.00000006e-003
,,,-9.86400000e-009,-5.09375008e-003
,,,-9.86000000e-009,-1.40781252e-002
,,,-9.85600000e-009,-2.06875003e-002
,,,-9.85200000e-009,-2.30156253e-002
,,,-9.84800000e-009,-2.00000003e-002
,,,-9.84400000e-009,-1.17031252e-002
,,,-9.84000000e-009,-1.25000002e-004
,,,-9.83600000e-009,1.21406252e-002
,,,-9.83200000e-009,2.22812503e-002
,,,-9.82800000e-009,2.80000004e-002
,,,-9.82400000e-009,2.80312504e-002
,,,-9.82000000e-009,2.30937503e-002
,,,-9.81600000e-009,1.51406252e-002
,,,-9.81200000e-009,6.65625010e-003
,,,-9.80800000e-009,-1.38777878e-017
,,,-9.80400000e-009,-3.40625005e-003
,,,-9.80000000e-009,-3.09375005e-003
,,,-9.79600000e-009,3.12500005e-005
,,,-9.79200000e-009,4.32812506e-003
,,,-9.78800000e-009,8.00000012e-003
,,,-9.78400000e-009,9.65625014e-003
,,,-9.78000000e-009,8.70312513e-003
,,,-9.77600000e-009,5.45312508e-003
,,,-9.77200000e-009,8.12500012e-004
,,,-9.76800000e-009,-4.00000006e-003
,,,-9.76400000e-009,-7.65625011e-003
,,,-9.76000000e-009,-9.26562514e-003
,,,-9.75600000e-009,-8.39062513e-003
,,,-9.75200000e-009,-5.10937508e-003
,,,-9.74800000e-009,-1.38777878e-017
,,,-9.74400000e-009,5.82812509e-003
,,,-9.74000000e-009,1.10937502e-002
,,,-9.73600000e-009,1.44687502e-002
,,,-9.73200000e-009,1.49218752e-002
,,,-9.72800000e-009,1.20000002e-002
,,,-9.72400000e-009,6.18750009e-003
,,,-9.72000000e-009,-1.29687502e-003
,,,-9.71600000e-009,-8.62500013e-003
,,,-9.71200000e-009,-1.40000002e-002
,,,-9.70800000e-009,-1.60000002e-002
,,,-9.70400000e-009,-1.39843752e-002
,,,-9.70000000e-009,-8.89062513e-003
,,,-9.69600000e-009,-2.29687503e-003
,,,-9.69200000e-009,3.89062506e-003
,,,-9.68800000e-009,8.00000012e-003
,,,-9.68400000e-009,9.04687513e-003
,,,-9.68000000e-009,7.14062511e-003
,,,-9.67600000e-009,3.31250005e-003
,,,-9.67200000e-009,-8.90625013e-004
,,,-9.66800000e-009,-4.00000006e-003
,,,-9.66400000e-009,-4.93750007e-003
,,,-9.66000000e-009,-3.46875005e-003
,,,-9.65600000e-009,-1.25000002e-004
,,,-9.65200000e-009,4.07812506e-003
,,,-9.64800000e-009,8.00000012e-003
,,,-9.64400000e-009,1.05781252e-002
,,,-9.64000000e-009,1.13125002e-002
,,,-9.63600000e-009,1.01718752e-002
,,,-9.63200000e-009,7.53125011e-003
,,,-9.62800000e-009,4.00000006e-003
,,,-9.62400000e-009,4.37500007e-004
,,,-9.62000000e-009,-2.51562504e-003
,,,-9.61600000e-009,-4.37500007e-003
,,,-9.61200000e-009,-4.85937507e-003
,,,-9.60800000e-009,-4.00000006e-003
,,,-9.60400000e-009,-2.07812503e-003
,,,-9.60000000e-009,3.43750005e-004
,,,-9.59600000e-009,2.54687504e-003
,,,-9.59200000e-009,3.92187506e-003
,,,-9.58800000e-009,4.00000006e-003
,,,-9.58400000e-009,2.71875004e-003
,,,-9.58000000e-009,5.00000007e-004
,,,-9.57600000e-009,-1.87500003e-003
,,,-9.57200000e-009,-3.59375005e-003
,,,-9.56800000e-009,-4.00000006e-003
,,,-9.56400000e-009,-2.76562504e-003
,,,-9.56000000e-009,-2.18750003e-004
,,,-9.55600000e-009,2.95312504e-003
,,,-9.55200000e-009,5.95312509e-003
,,,-9.54800000e-009,8.00000012e-003
,,,-9.54400000e-009,8.67187513e-003
,,,-9.54000000e-009,8.04687512e-003
,,,-9.53600000e-009,6.64062510e-003
,,,-9.53200000e-009,5.09375008e-003
,,,-9.52800000e-009,4.00000006e-003
,,,-9.52400000e-009,3.67187505e-003
,,,-9.52000000e-009,3.98437506e-003
,,,-9.51600000e-009,4.53125007e-003
,,,-9.51200000e-009,4.70312507e-003
,,,-9.50800000e-009,4.00000006e-003
,,,-9.50400000e-009,2.23437503e-003
,,,-9.50000000e-009,-3.75000006e-004
,,,-9.49600000e-009,-3.35937505e-003
,,,-9.49200000e-009,-6.09375009e-003
,,,-9.48800000e-009,-8.00000012e-003
,,,-9.48400000e-009,-8.51562513e-003
,,,-9.48000000e-009,-7.67187511e-003
,,,-9.47600000e-009,-5.68750008e-003
,,,-9.47200000e-009,-2.95312504e-003
,,,-9.46800000e-009,-1.38777878e-017
,,,-9.46400000e-009,2.62500004e-003
,,,-9.46000000e-009,4.48437507e-003
,,,-9.45600000e-009,5.32812508e-003
,,,-9.45200000e-009,5.10937508e-003
,,,-9.44800000e-009,4.00000006e-003
,,,-9.44400000e-009,2.42187504e-003
,,,-9.44000000e-009,7.96875012e-004
,,,-9.43600000e-009,-3.75000006e-004
,,,-9.43200000e-009,-7.03125010e-004
,,,-9.42800000e-009,-1.38777878e-017
,,,-9.42400000e-009,1.71875003e-003
,,,-9.42000000e-009,3.95312506e-003
,,,-9.41600000e-009,6.14062509e-003
,,,-9.41200000e-009,7.65625011e-003
,,,-9.40800000e-009,8.00000012e-003
,,,-9.40400000e-009,6.90625010e-003
,,,-9.40000000e-009,4.62500007e-003
,,,-9.39600000e-009,1.62500002e-003
,,,-9.39200000e-009,-1.46875002e-003
,,,-9.38800000e-009,-4.00000006e-003
,,,-9.38400000e-009,-5.37500008e-003
,,,-9.38000000e-009,-5.45312508e-003
,,,-9.37600000e-009,-4.34375006e-003
,,,-9.37200000e-009,-2.39062504e-003
,,,-9.36800000e-009,-1.38777878e-017
,,,-9.36400000e-009,2.37500004e-003
,,,-9.36000000e-009,4.43750007e-003
,,,-9.35600000e-009,6.06250009e-003
,,,-9.35200000e-009,7.25000011e-003
,,,-9.34800000e-009,8.00000012e-003
,,,-9.34400000e-009,8.18750012e-003
,,,-9.34000000e-009,7.89062512e-003
,,,-9.33600000e-009,7.06250011e-003
,,,-9.33200000e-009,5.75000009e-003
,,,-9.32800000e-009,4.00000006e-003
,,,-9.32400000e-009,2.07812503e-003
,,,-9.32000000e-009,3.75000006e-004
,,,-9.31600000e-009,-7.18750011e-004
,,,-9.31200000e-009,-8.75000013e-004
,,,-9.30800000e-009,-1.38777878e-017
,,,-9.30400000e-009,1.85937503e-003
,,,-9.30000000e-009,4.15625006e-003
,,,-9.29600000e-009,6.31250009e-003
,,,-9.29200000e-009,7.75000012e-003
,,,-9.28800000e-009,8.00000012e-003
,,,-9.28400000e-009,6.84375010e-003
,,,-9.28000000e-009,4.56250007e-003
,,,-9.27600000e-009,1.62500002e-003
,,,-9.27200000e-009,-1.40625002e-003
,,,-9.26800000e-009,-4.00000006e-003
,,,-9.26400000e-009,-5.60937508e-003
,,,-9.26000000e-009,-6.20312509e-003
,,,-9.25600000e-009,-5.92187509e-003
,,,-9.25200000e-009,-5.07812508e-003
,,,-9.24800000e-009,-4.00000006e-003
,,,-9.24400000e-009,-2.67187504e-003
,,,-9.24000000e-009,-1.59375002e-003
,,,-9.23600000e-009,-8.28125012e-004
,,,-9.23200000e-009,-3.43750005e-004
,,,-9.22800000e-009,-1.38777878e-017
,,,-9.22400000e-009,2.96875004e-004
,,,-9.22000000e-009,7.34375011e-004
,,,-9.21600000e-009,1.48437502e-003
,,,-9.21200000e-009,2.59375004e-003
,,,-9.20800000e-009,4.00000006e-003
,,,-9.20400000e-009,5.48437508e-003
,,,-9.20000000e-009,6.56250010e-003
,,,-9.19600000e-009,6.82812510e-003
,,,-9.19200000e-009,5.96875009e-003
,,,-9.18800000e-009,4.00000006e-003
,,,-9.18400000e-009,1.54687502e-003
,,,-9.18000000e-009,-5.78125009e-004
,,,-9.17600000e-009,-1.37500002e-003
,,,-9.17200000e-009,4.68750007e-005
,,,-9.16800000e-009,4.00000006e-003
,,,-9.16400000e-009,9.79687515e-003
,,,-9.16000000e-009,1.62812502e-002
,,,-9.15600000e-009,2.18437503e-002
,,,-9.15200000e-009,2.47968754e-002
,,,-9.14800000e-009,2.40000004e-002
,,,-9.14400000e-009,1.91718753e-002
,,,-9.14000000e-009,1.13750002e-002
,,,-9.13600000e-009,2.28125003e-003
,,,-9.13200000e-009,-6.12500009e-003
,,,-9.12800000e-009,-1.20000002e-002
,,,-9.12400000e-009,-1.38125002e-002
,,,-9.12000000e-009,-1.13750002e-002
,,,-9.11600000e-009,-5.32812508e-003
,,,-9.11200000e-009,3.04687505e-003
,,,-9.10800000e-009,1.20000002e-002
,,,-9.10400000e-009,1.94375003e-002
,,,-9.10000000e-009,2.37656254e-002
,,,-9.09600000e-009,2.40156254e-002
,,,-9.09200000e-009,1.98906253e-002
,,,-9.08800000e-009,1.20000002e-002
,,,-9.08400000e-009,1.96875003e-003
,,,-9.08000000e-009,-7.92187512e-003
,,,-9.07600000e-009,-1.53437502e-002
,,,-9.07200000e-009,-1.83906253e-002
,,,-9.06800000e-009,-1.60000002e-002
,,,-9.06400000e-009,-8.18750012e-003
,,,-9.06000000e-009,3.07812505e-003
,,,-9.05600000e-009,1.53125002e-002
,,,-9.05200000e-009,2.57343754e-002
,,,-9.04800000e-009,3.20000005e-002
,,,-9.04400000e-009,3.25312505e-002
,,,-9.04000000e-009,2.77500004e-002
,,,-9.03600000e-009,1.92031253e-002
,,,-9.03200000e-009,9.15625014e-003
,,,-9.02800000e-009,-1.38777878e-017
,,,-9.02400000e-009,-6.28125009e-003
,,,-9.02000000e-009,-8.54687513e-003
,,,-9.01600000e-009,-6.89062510e-003
,,,-9.01200000e-009,-2.25000003e-003
,,,-9.00800000e-009,4.00000006e-003
,,,-9.00400000e-009,1.03906252e-002
,,,-9.00000000e-009,1.53750002e-002
,,,-8.99600000e-009,1.81250003e-002
,,,-8.99200000e-009,1.82968753e-002
,,,-8.98800000e-009,1.60000002e-002
,,,-8.98400000e-009,1.18281252e-002
,,,-8.98000000e-009,6.78125010e-003
,,,-8.97600000e-009,1.89062503e-003
,,,-8.97200000e-009,-1.90625003e-003
,,,-8.96800000e-009,-4.00000006e-003
,,,-8.96400000e-009,-4.09375006e-003
,,,-8.96000000e-009,-2.51562504e-003
,,,-8.95600000e-009,-4.68750007e-005
,,,-8.95200000e-009,2.39062504e-003
,,,-8.94800000e-009,4.00000006e-003
,,,-8.94400000e-009,4.48437507e-003
,,,-8.94000000e-009,3.67187505e-003
,,,-8.93600000e-009,2.10937503e-003
,,,-8.93200000e-009,6.40625010e-004
,,,-8.92800000e-009,-1.38777878e-017
,,,-8.92400000e-009,7.50000011e-004
,,,-8.92000000e-009,2.84375004e-003
,,,-8.91600000e-009,5.84375009e-003
,,,-8.91200000e-009,9.14062514e-003
,,,-8.90800000e-009,1.20000002e-002
,,,-8.90400000e-009,1.37812502e-002
,,,-8.90000000e-009,1.44218752e-002
,,,-8.89600000e-009,1.40937502e-002
,,,-8.89200000e-009,1.31562502e-002
,,,-8.88800000e-009,1.20000002e-002
,,,-8.88400000e-009,1.08906252e-002
,,,-8.88000000e-009,1.00000001e-002
,,,-8.87600000e-009,9.29687514e-003
,,,-8.87200000e-009,8.68750013e-003
,,,-8.86800000e-009,8.00000012e-003
,,,-8.86400000e-009,7.20312511e-003
,,,-8.86000000e-009,6.32812509e-003
,,,-8.85600000e-009,5.45312508e-003
,,,-8.85200000e-009,4.64062507e-003
,,,-8.84800000e-009,4.00000006e-003
,,,-8.84400000e-009,3.48437505e-003
,,,-8.84000000e-009,3.25000005e-003
,,,-8.83600000e-009,3.28125005e-003
,,,-8.83200000e-009,3.57812505e-003
,,,-8.82800000e-009,4.00000006e-003
,,,-8.82400000e-009,4.21875006e-003
,,,-8.82000000e-009,4.06250006e-003
,,,-8.81600000e-009,3.34375005e-003
,,,-8.81200000e-009,1.95312503e-003
,,,-8.80800000e-009,-1.38777878e-017
,,,-8.80400000e-009,-1.92187503e-003
,,,-8.80000000e-009,-3.43750005e-003
,,,-8.79600000e-009,-3.89062506e-003
,,,-8.79200000e-009,-2.79687504e-003
,,,-8.78800000e-009,-1.38777878e-017
,,,-8.78400000e-009,4.32812506e-003
,,,-8.78000000e-009,9.14062514e-003
,,,-8.77600000e-009,1.33750002e-002
,,,-8.77200000e-009,1.59531252e-002
,,,-8.76800000e-009,1.60000002e-002
,,,-8.76400000e-009,1.30937502e-002
,,,-8.76000000e-009,7.78125012e-003
,,,-8.75600000e-009,1.01562502e-003
,,,-8.75200000e-009,-5.98437509e-003
,,,-8.74800000e-009,-1.20000002e-002
,,,-8.74400000e-009,-1.57343752e-002
,,,-8.74000000e-009,-1.69531253e-002
,,,-8.73600000e-009,-1.57187502e-002
,,,-8.73200000e-009,-1.25156252e-002
,,,-8.72800000e-009,-8.00000012e-003
,,,-8.72400000e-009,-2.85937504e-003
,,,-8.72000000e-009,2.04687503e-003
,,,-8.71600000e-009,6.31250009e-003
,,,-8.71200000e-009,9.67187514e-003
,,,-8.70800000e-009,1.20000002e-002
,,,-8.70400000e-009,1.30156252e-002
,,,-8.70000000e-009,1.29687502e-002
,,,-8.69600000e-009,1.19843752e-002
,,,-8.69200000e-009,1.02500002e-002
,,,-8.68800000e-009,8.00000012e-003
,,,-8.68400000e-009,5.50000008e-003
,,,-8.68000000e-009,3.20312505e-003
,,,-8.67600000e-009,1.39062502e-003
,,,-8.67200000e-009,3.12500005e-004
,,,-8.66800000e-009,-1.38777878e-017
,,,-8.66400000e-009,5.15625008e-004
,,,-8.66000000e-009,1.48437502e-003
,,,-8.65600000e-009,2.59375004e-003
,,,-8.65200000e-009,3.53125005e-003
,,,-8.64800000e-009,4.00000006e-003
,,,-8.64400000e-009,3.76562506e-003
,,,-8.64000000e-009,2.79687504e-003
,,,-8.63600000e-009,1.07812502e-003
,,,-8.63200000e-009,-1.26562502e-003
,,,-8.62800000e-009,-4.00000006e-003
,,,-8.62400000e-009,-6.68750010e-003
,,,-8.62000000e-009,-8.79687513e-003
,,,-8.61600000e-009,-9.87500015e-003
,,,-8.61200000e-009,-9.62500014e-003
,,,-8.60800000e-009,-8.00000012e-003
,,,-8.60400000e-009,-5.07812508e-003
,,,-8.60000000e-009,-1.75000003e-003
,,,-8.59600000e-009,1.26562502e-003
,,,-8.59200000e-009,3.31250005e-003
,,,-8.58800000e-009,4.00000006e-003
,,,-8.58400000e-009,3.37500005e-003
,,,-8.58000000e-009,1.87500003e-003
,,,-8.57600000e-009,2.81250004e-004
,,,-8.57200000e-009,-5.46875008e-004
,,,-8.56800000e-009,-1.38777878e-017
,,,-8.56400000e-009,2.03125003e-003
,,,-8.56000000e-009,5.09375008e-003
,,,-8.55600000e-009,8.42187513e-003
,,,-8.55200000e-009,1.10000002e-002
,,,-8.54800000e-009,1.20000002e-002
,,,-8.54400000e-009,1.09843752e-002
,,,-8.54000000e-009,8.12500012e-003
,,,-8.53600000e-009,4.09375006e-003
,,,-8.53200000e-009,-2.65625004e-004
,,,-8.52800000e-009,-4.00000006e-003
,,,-8.52400000e-009,-6.35937509e-003
,,,-8.52000000e-009,-6.93750010e-003
,,,-8.51600000e-009,-5.76562509e-003
,,,-8.51200000e-009,-3.25000005e-003
,,,-8.50800000e-009,-1.38777878e-017
,,,-8.50400000e-009,3.25000005e-003
,,,-8.50000000e-009,5.71875009e-003
,,,-8.49600000e-009,6.79687510e-003
,,,-8.49200000e-009,6.20312509e-003
,,,-8.48800000e-009,4.00000006e-003
,,,-8.48400000e-009,8.59375013e-004
,,,-8.48000000e-009,-2.40625004e-003
,,,-8.47600000e-009,-4.79687507e-003
,,,-8.47200000e-009,-5.48437508e-003
,,,-8.46800000e-009,-4.00000006e-003
,,,-8.46400000e-009,-5.78125009e-004
,,,-8.46000000e-009,3.90625006e-003
,,,-8.45600000e-009,8.29687512e-003
,,,-8.45200000e-009,1.13125002e-002
,,,-8.44800000e-009,1.20000002e-002
,,,-8.44400000e-009,1.00937502e-002
,,,-8.44000000e-009,5.98437509e-003
,,,-8.43600000e-009,7.03125010e-004
,,,-8.43200000e-009,-4.40625007e-003
,,,-8.42800000e-009,-8.00000012e-003
,,,-8.42400000e-009,-8.84375013e-003
,,,-8.42000000e-009,-6.73437510e-003
,,,-8.41600000e-009,-1.93750003e-003
,,,-8.41200000e-009,4.71875007e-003
,,,-8.40800000e-009,1.20000002e-002
,,,-8.40400000e-009,1.83125003e-002
,,,-8.40000000e-009,2.24687503e-002
,,,-8.39600000e-009,2.36250004e-002
,,,-8.39200000e-009,2.13906253e-002
,,,-8.38800000e-009,1.60000002e-002
,,,-8.38400000e-009,8.37500012e-003
,,,-8.38000000e-009,1.87500003e-004
,,,-8.37600000e-009,-6.85937510e-003
,,,-8.37200000e-009,-1.12656252e-002
,,,-8.36800000e-009,-1.20000002e-002
,,,-8.36400000e-009,-8.68750013e-003
,,,-8.36000000e-009,-2.26562503e-003
,,,-8.35600000e-009,5.82812509e-003
,,,-8.35200000e-009,1.37968752e-002
,,,-8.34800000e-009,2.00000003e-002
,,,-8.34400000e-009,2.30781253e-002
,,,-8.34000000e-009,2.27343753e-002
,,,-8.33600000e-009,1.94062503e-002
,,,-8.33200000e-009,1.40781252e-002
,,,-8.32800000e-009,8.00000012e-003
,,,-8.32400000e-009,2.40625004e-003
,,,-8.32000000e-009,-1.50000002e-003
,,,-8.31600000e-009,-3.15625005e-003
,,,-8.31200000e-009,-2.53125004e-003
,,,-8.30800000e-009,-1.38777878e-017
,,,-8.30400000e-009,3.82812506e-003
,,,-8.30000000e-009,7.76562512e-003
,,,-8.29600000e-009,1.08750002e-002
,,,-8.29200000e-009,1.24062502e-002
,,,-8.28800000e-009,1.20000002e-002
,,,-8.28400000e-009,9.79687515e-003
,,,-8.28000000e-009,6.48437510e-003
,,,-8.27600000e-009,3.09375005e-003
,,,-8.27200000e-009,6.71875010e-004
,,,-8.26800000e-009,-1.38777878e-017
,,,-8.26400000e-009,1.17187502e-003
,,,-8.26000000e-009,3.92187506e-003
,,,-8.25600000e-009,7.34375011e-003
,,,-8.25200000e-009,1.03750002e-002
,,,-8.24800000e-009,1.20000002e-002
,,,-8.24400000e-009,1.18281252e-002
,,,-8.24000000e-009,9.78125015e-003
,,,-8.23600000e-009,6.50000010e-003
,,,-8.23200000e-009,2.92187504e-003
,,,-8.22800000e-009,-1.38777878e-017
,,,-8.22400000e-009,-1.40625002e-003
,,,-8.22000000e-009,-1.03125002e-003
,,,-8.21600000e-009,1.04687502e-003
,,,-8.21200000e-009,4.32812506e-003
,,,-8.20800000e-009,8.00000012e-003
,,,-8.20400000e-009,1.09843752e-002
,,,-8.20000000e-009,1.24843752e-002
,,,-8.19600000e-009,1.19062502e-002
,,,-8.19200000e-009,9.00000013e-003
,,,-8.18800000e-009,4.00000006e-003
,,,-8.18400000e-009,-2.04687503e-003
,,,-8.18000000e-009,-7.95312512e-003
,,,-8.17600000e-009,-1.22968752e-002
,,,-8.17200000e-009,-1.38750002e-002
,,,-8.16800000e-009,-1.20000002e-002
,,,-8.16400000e-009,-6.64062510e-003
,,,-8.16000000e-009,9.21875014e-004
,,,-8.15600000e-009,9.04687513e-003
,,,-8.15200000e-009,1.59375002e-002
,,,-8.14800000e-009,2.00000003e-002
,,,-8.14400000e-009,2.01718753e-002
,,,-8.14000000e-009,1.66875002e-002
,,,-8.13600000e-009,1.05000002e-002
,,,-8.13200000e-009,3.07812505e-003
,,,-8.12800000e-009,-4.00000006e-003
,,,-8.12400000e-009,-9.15625014e-003
,,,-8.12000000e-009,-1.16093752e-002
,,,-8.11600000e-009,-1.12500002e-002
,,,-8.11200000e-009,-8.45312513e-003
,,,-8.10800000e-009,-4.00000006e-003
,,,-8.10400000e-009,1.26562502e-003
,,,-8.10000000e-009,6.12500009e-003
,,,-8.09600000e-009,9.79687515e-003
,,,-8.09200000e-009,1.18125002e-002
,,,-8.08800000e-009,1.20000002e-002
,,,-8.08400000e-009,1.04687502e-002
,,,-8.08000000e-009,7.82812512e-003
,,,-8.07600000e-009,4.76562507e-003
,,,-8.07200000e-009,1.95312503e-003
,,,-8.06800000e-009,-1.38777878e-017
,,,-8.06400000e-009,-8.12500012e-004
,,,-8.06000000e-009,-4.37500007e-004
,,,-8.05600000e-009,8.43750013e-004
,,,-8.05200000e-009,2.50000004e-003
,,,-8.04800000e-009,4.00000006e-003
,,,-8.04400000e-009,5.00000007e-003
,,,-8.04000000e-009,5.26562508e-003
,,,-8.03600000e-009,4.96875007e-003
,,,-8.03200000e-009,4.42187507e-003
,,,-8.02800000e-009,4.00000006e-003
,,,-8.02400000e-009,3.98437506e-003
,,,-8.02000000e-009,4.51562507e-003
,,,-8.01600000e-009,5.53125008e-003
,,,-8.01200000e-009,6.78125010e-003
,,,-8.00800000e-009,8.00000012e-003
,,,-8.00400000e-009,8.81250013e-003
,,,-8.00000000e-009,9.21875014e-003
,,,-7.99600000e-009,9.18750014e-003
,,,-7.99200000e-009,8.76562513e-003
,,,-7.98800000e-009,8.00000012e-003
,,,-7.98400000e-009,6.92187510e-003
,,,-7.98000000e-009,5.53125008e-003
,,,-7.97600000e-009,3.89062506e-003
,,,-7.97200000e-009,2.01562503e-003
,,,-7.96800000e-009,-1.38777878e-017
,,,-7.96400000e-009,-1.90625003e-003
,,,-7.96000000e-009,-3.48437505e-003
,,,-7.95600000e-009,-4.45312507e-003
,,,-7.95200000e-009,-4.65625007e-003
,,,-7.94800000e-009,-4.00000006e-003
,,,-7.94400000e-009,-2.56250004e-003
,,,-7.94000000e-009,-7.03125010e-004
,,,-7.93600000e-009,1.25000002e-003
,,,-7.93200000e-009,2.92187504e-003
,,,-7.92800000e-009,4.00000006e-003
,,,-7.92400000e-009,4.39062507e-003
,,,-7.92000000e-009,4.00000006e-003
,,,-7.91600000e-009,2.95312504e-003
,,,-7.91200000e-009,1.53125002e-003
,,,-7.90800000e-009,-1.38777878e-017
,,,-7.90400000e-009,-1.26562502e-003
,,,-7.90000000e-009,-2.03125003e-003
,,,-7.89600000e-009,-2.06250003e-003
,,,-7.89200000e-009,-1.34375002e-003
,,,-7.88800000e-009,-1.38777878e-017
,,,-7.88400000e-009,1.68750003e-003
,,,-7.88000000e-009,3.00000004e-003
,,,-7.87600000e-009,3.37500005e-003
,,,-7.87200000e-009,2.40625004e-003
,,,-7.86800000e-009,-1.38777878e-017
,,,-7.86400000e-009,-3.25000005e-003
,,,-7.86000000e-009,-6.60937510e-003
,,,-7.85600000e-009,-9.06250014e-003
,,,-7.85200000e-009,-9.70312514e-003
,,,-7.84800000e-009,-8.00000012e-003
,,,-7.84400000e-009,-4.07812506e-003
,,,-7.84000000e-009,1.17187502e-003
,,,-7.83600000e-009,6.45312510e-003
,,,-7.83200000e-009,1.04375002e-002
,,,-7.82800000e-009,1.20000002e-002
,,,-7.82400000e-009,1.07343752e-002
