Test Data/Switch_500MHz_trig.csv

"Record Length",25000,"Points",-1.00000000e-008,4.00000006e-003
"Sample Interval",4.00000000e-012,s,-9.99600000e-009,4.40625007e-003
"Trigger Point",2500,"Samples",-9.99200000e-009,4.70312507e-003
"Trigger Time",2.00000000e-014,s,-9.98800000e-009,4.78125007e-003
"",,,-9.98400000e-009,4.56250007e-003
"Horizontal Offset",-1.00000000e-008,s,-9.98000000e-009,4.00000006e-003
,,,-9.97600000e-009,3.15625005e-003
,,,-9.97200000e-009,2.20312503e-003
,,,-9.96800000e-009,1.26562502e-003
,,,-9.96400000e-009,5.15625008e-004
,,,-9.96000000e-009,-1.38777878e-017
,,,-9.95600000e-009,-2.96875004e-004
,,,-9.95200000e-009,-3.59375005e-004
,,,-9.94800000e-009,-2.65625004e-004
,,,-9.94400000e-009,-1.40625002e-004
,,,-9.94000000e-009,-1.38777878e-017
,,,-9.93600000e-009,2.96875004e-004
,,,-9.93200000e-009,7.18750011e-004
,,,-9.92800000e-009,1.39062502e-003
,,,-9.92400000e-009,2.45312504e-003
,,,-9.92000000e-009,4.00000006e-003
,,,-9.91600000e-009,6.03125009e-003
,,,-9.91200000e-009,8.45312513e-003
,,,-9.90800000e-009,1.11093752e-002
,,,-9.90400000e-009,1.37500002e-002
,,,-9.90000000e-009,1.60000002e-002
,,,-9.89600000e-009,1.72656253e-002
,,,-9.89200000e-009,1.72656253e-002
,,,-9.88800000e-009,1.57343752e-002
,,,-9.88400000e-009,1.25781252e-002
,,,-9.88000000e-009,8.00000012e-003
,,,-9.87600000e-009,2.65625004e-003
,,,-9.87200000e-009,-2.51562504e-003
,,,-9.86800000e-009,-6.50000010e-003
,,,-9.86400000e-009,-8.48437513e-003
,,,-9.86000000e-009,-8.00000012e-003
,,,-9.85600000e-009,-5.00000007e-003
,,,-9.85200000e-009,-3.75000006e-004
,,,-9.84800000e-009,4.78125007e-003
,,,-9.84400000e-009,9.25000014e-003
,,,-9.84000000e-009,1.20000002e-002
,,,-9.83600000e-009,1.24375002e-002
,,,-9.83200000e-009,1.06875002e-002
,,,-9.82800000e-009,7.40625011e-003
,,,-9.82400000e-009,3.51562505e-003
,,,-9.82000000e-009,-1.38777878e-017
,,,-9.81600000e-009,-2.26562503e-003
,,,-9.81200000e-009,-2.82812504e-003
,,,-9.80800000e-009,-1.70312503e-003
,,,-9.80400000e-009,7.81250012e-004
,,,-9.80000000e-009,4.00000006e-003
,,,-9.79600000e-009,7.26562511e-003
,,,-9.79200000e-009,9.67187514e-003
,,,-9.78800000e-009,1.07031252e-002
,,,-9.78400000e-009,1.01093752e-002
,,,-9.78000000e-009,8.00000012e-003
,,,-9.77600000e-009,4.96875007e-003
,,,-9.77200000e-009,1.82812503e-003
,,,-9.76800000e-009,-5.15625008e-004
,,,-9.76400000e-009,-1.26562502e-003
,,,-9.76000000e-009,-1.38777878e-017
,,,-9.75600000e-009,2.98437504e-003
,,,-9.75200000e-009,7.12500011e-003
,,,-9.74800000e-009,1.14062502e-002
,,,-9.74400000e-009,1.46875002e-002
,,,-9.74000000e-009,1.60000002e-002
,,,-9.73600000e-009,1.47968752e-002
,,,-9.73200000e-009,1.13281252e-002
,,,-9.72800000e-009,6.29687509e-003
,,,-9.72400000e-009,8.12500012e-004
,,,-9.72000000e-009,-4.00000006e-003
,,,-9.71600000e-009,-6.93750010e-003
,,,-9.71200000e-009,-7.48437511e-003
,,,-9.70800000e-009,-5.51562508e-003
,,,-9.70400000e-009,-1.42187502e-003
,,,-9.70000000e-009,4.00000006e-003
,,,-9.69600000e-009,9.46875014e-003
,,,-9.69200000e-009,1.38125002e-002
,,,-9.68800000e-009,1.60312502e-002
,,,-9.68400000e-009,1.54843752e-002
,,,-9.68000000e-009,1.20000002e-002
,,,-9.67600000e-009,6.15625009e-003
,,,-9.67200000e-009,-9.21875014e-004
,,,-9.66800000e-009,-7.85937512e-003
,,,-9.66400000e-009,-1.32656252e-002
,,,-9.66000000e-009,-1.60000002e-002
,,,-9.65600000e-009,-1.52812502e-002
,,,-9.65200000e-009,-1.15156252e-002
,,,-9.64800000e-009,-5.53125008e-003
,,,-9.64400000e-009,1.43750002e-003
,,,-9.64000000e-009,8.00000012e-003
,,,-9.63600000e-009,1.27500002e-002
,,,-9.63200000e-009,1.47500002e-002
,,,-9.62800000e-009,1.37031252e-002
,,,-9.62400000e-009,9.87500015e-003
,,,-9.62000000e-009,4.00000006e-003
,,,-9.61600000e-009,-2.59375004e-003
,,,-9.61200000e-009,-8.53125013e-003
,,,-9.60800000e-009,-1.25625002e-002
,,,-9.60400000e-009,-1.38437502e-002
,,,-9.60000000e-009,-1.20000002e-002
,,,-9.59600000e-009,-7.17187511e-003
,,,-9.59200000e-009,-5.93750009e-004
,,,-9.58800000e-009,6.40625010e-003
,,,-9.58400000e-009,1.23437502e-002
,,,-9.58000000e-009,1.60000002e-002
,,,-9.57600000e-009,1.64218752e-002
,,,-9.57200000e-009,1.37500002e-002
,,,-9.56800000e-009,8.67187513e-003
,,,-9.56400000e-009,2.31250003e-003
,,,-9.56000000e-009,-4.00000006e-003
,,,-9.55600000e-009,-8.84375013e-003
,,,-9.55200000e-009,-1.13281252e-002
,,,-9.54800000e-009,-1.11718752e-002
,,,-9.54400000e-009,-8.54687513e-003
,,,-9.54000000e-009,-4.00000006e-003
,,,-9.53600000e-009,1.71875003e-003
,,,-9.53200000e-009,7.39062511e-003
,,,-9.52800000e-009,1.20781252e-002
,,,-9.52400000e-009,1.51093752e-002
,,,-9.52000000e-009,1.60000002e-002
,,,-9.51600000e-009,1.44687502e-002
,,,-9.51200000e-009,1.10000002e-002
,,,-9.50800000e-009,6.23437509e-003
,,,-9.50400000e-009,9.53125014e-004
,,,-9.50000000e-009,-4.00000006e-003
,,,-9.49600000e-009,-7.73437512e-003
,,,-9.49200000e-009,-9.65625014e-003
,,,-9.48800000e-009,-9.57812514e-003
,,,-9.48400000e-009,-7.57812511e-003
,,,-9.48000000e-009,-4.00000006e-003
,,,-9.47600000e-009,7.50000011e-004
,,,-9.47200000e-009,5.68750008e-003
,,,-9.46800000e-009,1.01875002e-002
,,,-9.46400000e-009,1.37500002e-002
,,,-9.46000000e-009,1.60000002e-002
,,,-9.45600000e-009,1.65156252e-002
,,,-9.45200000e-009,1.56406252e-002
,,,-9.44800000e-009,1.36562502e-002
,,,-9.44400000e-009,1.09687502e-002
,,,-9.44000000e-009,8.00000012e-003
,,,-9.43600000e-009,5.06250008e-003
,,,-9.43200000e-009,2.65625004e-003
,,,-9.42800000e-009,1.00000001e-003
,,,-9.42400000e-009,1.40625002e-004
,,,-9.42000000e-009,-1.38777878e-017
,,,-9.41600000e-009,5.46875008e-004
,,,-9.41200000e-009,1.39062502e-003
,,,-9.40800000e-009,2.35937504e-003
,,,-9.40400000e-009,3.26562505e-003
,,,-9.40000000e-009,4.00000006e-003
,,,-9.39600000e-009,4.45312507e-003
,,,-9.39200000e-009,4.65625007e-003
,,,-9.38800000e-009,4.64062507e-003
,,,-9.38400000e-009,4.40625007e-003
,,,-9.38000000e-009,4.00000006e-003
,,,-9.37600000e-009,3.39062505e-003
,,,-9.37200000e-009,2.68750004e-003
,,,-9.36800000e-009,1.89062503e-003
,,,-9.36400000e-009,1.00000001e-003
,,,-9.36000000e-009,-1.38777878e-017
,,,-9.35600000e-009,-9.06250014e-004
,,,-9.35200000e-009,-1.85937503e-003
,,,-9.34800000e-009,-2.78125004e-003
,,,-9.34400000e-009,-3.51562505e-003
,,,-9.34000000e-009,-4.00000006e-003
,,,-9.33600000e-009,-3.90625006e-003
,,,-9.33200000e-009,-3.42187505e-003
,,,-9.32800000e-009,-2.54687504e-003
,,,-9.32400000e-009,-1.37500002e-003
,,,-9.32000000e-009,-1.38777878e-017
,,,-9.31600000e-009,1.40625002e-003
,,,-9.31200000e-009,2.64062504e-003
,,,-9.30800000e-009,3.54687505e-003
,,,-9.30400000e-009,4.01562506e-003
,,,-9.30000000e-009,4.00000006e-003
,,,-9.29600000e-009,3.53125005e-003
,,,-9.29200000e-009,2.71875004e-003
,,,-9.28800000e-009,1.71875003e-003
,,,-9.28400000e-009,7.50000011e-004
,,,-9.28000000e-009,-1.38777878e-017
,,,-9.27600000e-009,-2.50000004e-004
,,,-9.27200000e-009,3.12500005e-005
,,,-9.26800000e-009,9.06250014e-004
,,,-9.26400000e-009,2.28125003e-003
,,,-9.26000000e-009,4.00000006e-003
,,,-9.25600000e-009,5.76562509e-003
,,,-9.25200000e-009,7.28125011e-003
,,,-9.24800000e-009,8.29687512e-003
,,,-9.24400000e-009,8.56250013e-003
,,,-9.24000000e-009,8.00000012e-003
,,,-9.23600000e-009,6.70312510e-003
,,,-9.23200000e-009,4.93750007e-003
,,,-9.22800000e-009,3.01562504e-003
,,,-9.22400000e-009,1.26562502e-003
,,,-9.22000000e-009,-1.38777878e-017
,,,-9.21600000e-009,-5.15625008e-004
,,,-9.21200000e-009,-2.34375003e-004
,,,-9.20800000e-009,7.65625011e-004
,,,-9.20400000e-009,2.28125003e-003
,,,-9.20000000e-009,4.00000006e-003
,,,-9.19600000e-009,5.51562508e-003
,,,-9.19200000e-009,6.45312510e-003
,,,-9.18800000e-009,6.54687510e-003
,,,-9.18400000e-009,5.68750008e-003
,,,-9.18000000e-009,4.00000006e-003
,,,-9.17600000e-009,1.84375003e-003
,,,-9.17200000e-009,-1.71875003e-004
,,,-9.16800000e-009,-1.46875002e-003
,,,-9.16400000e-009,-1.50000002e-003
,,,-9.16000000e-009,-1.38777878e-017
,,,-9.15600000e-009,3.01562504e-003
,,,-9.15200000e-009,6.89062510e-003
,,,-9.14800000e-009,1.08906252e-002
,,,-9.14400000e-009,1.41562502e-002
,,,-9.14000000e-009,1.60000002e-002
,,,-9.13600000e-009,1.59375002e-002
,,,-9.13200000e-009,1.41250002e-002
,,,-9.12800000e-009,1.10781252e-002
,,,-9.12400000e-009,7.46875011e-003
,,,-9.12000000e-009,4.00000006e-003
,,,-9.11600000e-009,1.18750002e-003
,,,-9.11200000e-009,-5.46875008e-004
,,,-9.10800000e-009,-1.15625002e-003
,,,-9.10400000e-009,-8.75000013e-004
,,,-9.10000000e-009,-1.38777878e-017
,,,-9.09600000e-009,1.14062502e-003
,,,-9.09200000e-009,2.20312503e-003
,,,-9.08800000e-009,3.04687505e-003
,,,-9.08400000e-009,3.62500005e-003
,,,-9.08000000e-009,4.00000006e-003
,,,-9.07600000e-009,4.37500007e-003
,,,-9.07200000e-009,4.87500007e-003
,,,-9.06800000e-009,5.60937508e-003
,,,-9.06400000e-009,6.68750010e-003
,,,-9.06000000e-009,8.00000012e-003
,,,-9.05600000e-009,9.25000014e-003
,,,-9.05200000e-009,1.02031252e-002
,,,-9.04800000e-009,1.04843752e-002
,,,-9.04400000e-009,9.81250015e-003
,,,-9.04000000e-009,8.00000012e-003
,,,-9.03600000e-009,5.12500008e-003
,,,-9.03200000e-009,1.53125002e-003
,,,-9.02800000e-009,-2.26562503e-003
,,,-9.02400000e-009,-5.62500008e-003
,,,-9.02000000e-009,-8.00000012e-003
,,,-9.01600000e-009,-8.73437513e-003
,,,-9.01200000e-009,-7.98437512e-003
,,,-9.00800000e-009,-5.98437509e-003
,,,-9.00400000e-009,-3.15625005e-003
,,,-9.00000000e-009,-1.38777878e-017
,,,-8.99600000e-009,3.00000004e-003
,,,-8.99200000e-009,5.42187508e-003
,,,-8.98800000e-009,7.07812511e-003
,,,-8.98400000e-009,7.93750012e-003
,,,-8.98000000e-009,8.00000012e-003
,,,-8.97600000e-009,7.28125011e-003
,,,-8.97200000e-009,5.95312509e-003
,,,-8.96800000e-009,4.18750006e-003
,,,-8.96400000e-009,2.12500003e-003
,,,-8.96000000e-009,-1.38777878e-017
,,,-8.95600000e-009,-1.67187502e-003
,,,-8.95200000e-009,-2.73437504e-003
,,,-8.94800000e-009,-2.89062504e-003
,,,-8.94400000e-009,-1.96875003e-003
,,,-8.94000000e-009,-1.38777878e-017
,,,-8.93600000e-009,2.71875004e-003
,,,-8.93200000e-009,5.73437509e-003
,,,-8.92800000e-009,8.60937513e-003
,,,-8.92400000e-009,1.08281252e-002
,,,-8.92000000e-009,1.20000002e-002
,,,-8.91600000e-009,1.17812502e-002
,,,-8.91200000e-009,1.02187502e-002
,,,-8.90800000e-009,7.50000011e-003
,,,-8.90400000e-009,3.92187506e-003
,,,-8.90000000e-009,-1.38777878e-017
,,,-8.89600000e-009,-3.39062505e-003
,,,-8.89200000e-009,-5.54687508e-003
,,,-8.88800000e-009,-5.81250009e-003
,,,-8.88400000e-009,-3.92187506e-003
,,,-8.88000000e-009,-1.38777878e-017
,,,-8.87600000e-009,5.09375008e-003
,,,-8.87200000e-009,1.00625001e-002
,,,-8.86800000e-009,1.35625002e-002
,,,-8.86400000e-009,1.44218752e-002
,,,-8.86000000e-009,1.20000002e-002
,,,-8.85600000e-009,6.65625010e-003
,,,-8.85200000e-009,-4.84375007e-004
,,,-8.84800000e-009,-7.76562512e-003
,,,-8.84400000e-009,-1.34375002e-002
,,,-8.84000000e-009,-1.60000002e-002
,,,-8.83600000e-009,-1.45625002e-002
,,,-8.83200000e-009,-9.43750014e-003
,,,-8.82800000e-009,-1.57812502e-003
,,,-8.82400000e-009,7.50000011e-003
,,,-8.82000000e-009,1.60000002e-002
,,,-8.81600000e-009,2.20937503e-002
,,,-8.81200000e-009,2.45000004e-002
,,,-8.80800000e-009,2.26718753e-002
,,,-8.80400000e-009,1.68437503e-002
,,,-8.80000000e-009,8.00000012e-003
,,,-8.79600000e-009,-2.01562503e-003
,,,-8.79200000e-009,-1.08125002e-002
,,,-8.78800000e-009,-1.62812502e-002
,,,-8.78400000e-009,-1.68437503e-002
,,,-8.78000000e-009,-1.20000002e-002
,,,-8.77600000e-009,-2.65625004e-003
,,,-8.77200000e-009,8.81250013e-003
,,,-8.76800000e-009,1.95312503e-002
,,,-8.76400000e-009,2.66250004e-002
,,,-8.76000000e-009,2.80000004e-002
,,,-8.75600000e-009,2.28906253e-002
,,,-8.75200000e-009,1.27500002e-002
,,,-8.74800000e-009,1.56250002e-004
,,,-8.74400000e-009,-1.17343752e-002
,,,-8.74000000e-009,-2.00000003e-002
,,,-8.73600000e-009,-2.25468753e-002
,,,-8.73200000e-009,-1.90468753e-002
,,,-8.72800000e-009,-1.05937502e-002
,,,-8.72400000e-009,6.25000009e-004
,,,-8.72000000e-009,1.20000002e-002
,,,-8.71600000e-009,2.09687503e-002
,,,-8.71200000e-009,2.54218754e-002
,,,-8.70800000e-009,2.44687504e-002
,,,-8.70400000e-009,1.82968753e-002
,,,-8.70000000e-009,8.00000012e-003
,,,-8.69600000e-009,-4.21875006e-003
,,,-8.69200000e-009,-1.56718752e-002
,,,-8.68800000e-009,-2.38437504e-002
,,,-8.68400000e-009,-2.68906254e-002
,,,-8.68000000e-009,-2.40000004e-002
,,,-8.67600000e-009,-1.56875002e-002
,,,-8.67200000e-009,-4.53125007e-003
,,,-8.66800000e-009,6.37500009e-003
,,,-8.66400000e-009,1.39687502e-002
,,,-8.66000000e-009,1.60000002e-002
,,,-8.65600000e-009,1.20156252e-002
,,,-8.65200000e-009,3.34375005e-003
,,,-8.64800000e-009,-7.09375011e-003
,,,-8.64400000e-009,-1.58593752e-002
,,,-8.64000000e-009,-2.00000003e-002
,,,-8.63600000e-009,-1.78906253e-002
,,,-8.63200000e-009,-9.96875015e-003
,,,-8.62800000e-009,1.67187502e-003
,,,-8.62400000e-009,1.40156252e-002
,,,-8.62000000e-009,2.40000004e-002
,,,-8.61600000e-009,2.90625004e-002
,,,-8.61200000e-009,2.84687504e-002
,,,-8.60800000e-009,2.28906253e-002
,,,-8.60400000e-009,1.40000002e-002
,,,-8.60000000e-009,4.00000006e-003
,,,-8.59600000e-009,-4.85937507e-003
,,,-8.59200000e-009,-1.06250002e-002
,,,-8.58800000e-009,-1.23437502e-002
,,,-8.58400000e-009,-9.90625015e-003
,,,-8.58000000e-009,-4.00000006e-003
,,,-8.57600000e-009,3.84375006e-003
,,,-8.57200000e-009,1.15937502e-002
,,,-8.56800000e-009,1.71718753e-002
,,,-8.56400000e-009,1.89218753e-002
,,,-8.56000000e-009,1.60000002e-002
,,,-8.55600000e-009,8.78125013e-003
,,,-8.55200000e-009,-8.90625013e-004
,,,-8.54800000e-009,-1.05156252e-002
,,,-8.54400000e-009,-1.75000003e-002
,,,-8.54000000e-009,-2.00000003e-002
,,,-8.53600000e-009,-1.73593753e-002
,,,-8.53200000e-009,-1.07812502e-002
,,,-8.52800000e-009,-2.60937504e-003
,,,-8.52400000e-009,4.43750007e-003
,,,-8.52000000e-009,8.00000012e-003
,,,-8.51600000e-009,7.20312511e-003
,,,-8.51200000e-009,2.31250003e-003
,,,-8.50800000e-009,-4.82812507e-003
,,,-8.50400000e-009,-1.17187502e-002
,,,-8.50000000e-009,-1.60000002e-002
,,,-8.49600000e-009,-1.59062502e-002
,,,-8.49200000e-009,-1.15937502e-002
,,,-8.48800000e-009,-4.20312506e-003
,,,-8.48400000e-009,4.37500007e-003
,,,-8.48000000e-009,1.20000002e-002
,,,-8.47600000e-009,1.67031252e-002
,,,-8.47200000e-009,1.75468753e-002
,,,-8.46800000e-009,1.44531252e-002
,,,-8.46400000e-009,8.17187512e-003
,,,-8.46000000e-009,-1.38777878e-017
,,,-8.45600000e-009,-8.12500012e-003
,,,-8.45200000e-009,-1.45312502e-002
,,,-8.44800000e-009,-1.77656253e-002
,,,-8.44400000e-009,-1.69687503e-002
,,,-8.44000000e-009,-1.20000002e-002
,,,-8.43600000e-009,-3.71875006e-003
,,,-8.43200000e-009,6.06250009e-003
,,,-8.42800000e-009,1.52187502e-002
,,,-8.42400000e-009,2.16875003e-002
,,,-8.42000000e-009,2.40000004e-002
,,,-8.41600000e-009,2.15468753e-002
,,,-8.41200000e-009,1.55156252e-002
,,,-8.40800000e-009,7.81250012e-003
,,,-8.40400000e-009,6.56250010e-004
,,,-8.40000000e-009,-4.00000006e-003
,,,-8.39600000e-009,-5.03125007e-003
,,,-8.39200000e-009,-2.51562504e-003
,,,-8.38800000e-009,2.35937504e-003
,,,-8.38400000e-009,7.78125012e-003
,,,-8.38000000e-009,1.20000002e-002
,,,-8.37600000e-009,1.37343752e-002
,,,-8.37200000e-009,1.25937502e-002
,,,-8.36800000e-009,9.15625014e-003
,,,-8.36400000e-009,4.53125007e-003
,,,-8.36000000e-009,-1.38777878e-017
,,,-8.35600000e-009,-3.23437505e-003
,,,-8.35200000e-009,-4.62500007e-003
,,,-8.34800000e-009,-4.21875006e-003
,,,-8.34400000e-009,-2.45312504e-003
,,,-8.34000000e-009,-1.38777878e-017
,,,-8.33600000e-009,2.39062504e-003
,,,-8.33200000e-009,4.18750006e-003
,,,-8.32800000e-009,5.07812508e-003
,,,-8.32400000e-009,4.98437507e-003
,,,-8.32000000e-009,4.00000006e-003
,,,-8.31600000e-009,2.60937504e-003
,,,-8.31200000e-009,1.04687502e-003
,,,-8.30800000e-009,-1.71875003e-004
,,,-8.30400000e-009,-6.09375009e-004
,,,-8.30000000e-009,-1.38777878e-017
,,,-8.29600000e-009,1.75000003e-003
,,,-8.29200000e-009,4.34375006e-003
,,,-8.28800000e-009,7.28125011e-003
,,,-8.28400000e-009,1.00000001e-002
,,,-8.28000000e-009,1.20000002e-002
,,,-8.27600000e-009,1.28281252e-002
,,,-8.27200000e-009,1.25312502e-002
,,,-8.26800000e-009,1.13437502e-002
,,,-8.26400000e-009,9.70312514e-003
,,,-8.26000000e-009,8.00000012e-003
,,,-8.25600000e-009,6.53125010e-003
,,,-8.25200000e-009,5.50000008e-003
,,,-8.24800000e-009,4.84375007e-003
,,,-8.24400000e-009,4.40625007e-003
,,,-8.24000000e-009,4.00000006e-003
,,,-8.23600000e-009,3.53125005e-003
,,,-8.23200000e-009,3.10937505e-003
,,,-8.22800000e-009,2.93750004e-003
,,,-8.22400000e-009,3.20312505e-003
,,,-8.22000000e-009,4.00000006e-003
,,,-8.21600000e-009,5.26562508e-003
,,,-8.21200000e-009,6.67187510e-003
,,,-8.20800000e-009,7.82812512e-003
,,,-8.20400000e-009,8.37500012e-003
,,,-8.20000000e-009,8.00000012e-003
,,,-8.19600000e-009,6.75000010e-003
,,,-8.19200000e-009,4.89062507e-003
,,,-8.18800000e-009,2.85937504e-003
,,,-8.18400000e-009,1.09375002e-003
,,,-8.18000000e-009,-1.38777878e-017
,,,-8.17600000e-009,-1.87500003e-004
,,,-8.17200000e-009,4.06250006e-004
,,,-8.16800000e-009,1.56250002e-003
,,,-8.16400000e-009,2.89062504e-003
,,,-8.16000000e-009,4.00000006e-003
,,,-8.15600000e-009,4.62500007e-003
,,,-8.15200000e-009,4.46875007e-003
,,,-8.14800000e-009,3.50000005e-003
,,,-8.14400000e-009,1.89062503e-003
,,,-8.14000000e-009,-1.38777878e-017
,,,-8.13600000e-009,-1.57812502e-003
,,,-8.13200000e-009,-2.32812503e-003
,,,-8.12800000e-009,-1.76562503e-003
,,,-8.12400000e-009,3.75000006e-004
,,,-8.12000000e-009,4.00000006e-003
,,,-8.11600000e-009,8.51562513e-003
,,,-8.11200000e-009,1.29375002e-002
,,,-8.10800000e-009,1.62343752e-002
,,,-8.10400000e-009,1.74375003e-002
,,,-8.10000000e-009,1.60000002e-002
,,,-8.09600000e-009,1.19843752e-002
,,,-8.09200000e-009,6.28125009e-003
,,,-8.08800000e-009,1.71875003e-004
,,,-8.08400000e-009,-4.98437507e-003
,,,-8.08000000e-009,-8.00000012e-003
,,,-8.07600000e-009,-8.15625012e-003
,,,-8.07200000e-009,-5.70312508e-003
,,,-8.06800000e-009,-1.40625002e-003
,,,-8.06400000e-009,3.56250005e-003
,,,-8.06000000e-009,8.00000012e-003
,,,-8.05600000e-009,1.08750002e-002
,,,-8.05200000e-009,1.16718752e-002
,,,-8.04800000e-009,1.04375002e-002
,,,-8.04400000e-009,7.64062511e-003
,,,-8.04000000e-009,4.00000006e-003
,,,-8.03600000e-009,4.53125007e-004
,,,-8.03200000e-009,-2.12500003e-003
,,,-8.02800000e-009,-3.17187505e-003
,,,-8.02400000e-009,-2.42187504e-003
,,,-8.02000000e-009,-1.38777878e-017
,,,-8.01600000e-009,3.59375005e-003
,,,-8.01200000e-009,7.43750011e-003
,,,-8.00800000e-009,1.06093752e-002
,,,-8.00400000e-009,1.23125002e-002
,,,-8.00000000e-009,1.20000002e-002
,,,-7.99600000e-009,9.71875014e-003
,,,-7.99200000e-009,5.98437509e-003
,,,-7.98800000e-009,1.76562503e-003
,,,-7.98400000e-009,-1.85937503e-003
,,,-7.98000000e-009,-4.00000006e-003
,,,-7.97600000e-009,-4.12500006e-003
,,,-7.97200000e-009,-2.26562503e-003
,,,-7.96800000e-009,9.68750014e-004
,,,-7.96400000e-009,4.70312507e-003
,,,-7.96000000e-009,8.00000012e-003
,,,-7.95600000e-009,1.00000001e-002
,,,-7.95200000e-009,1.03593752e-002
,,,-7.94800000e-009,9.17187514e-003
,,,-7.94400000e-009,6.85937510e-003
,,,-7.94000000e-009,4.00000006e-003
,,,-7.93600000e-009,1.29687502e-003
,,,-7.93200000e-009,-6.71875010e-004
,,,-7.92800000e-009,-1.59375002e-003
,,,-7.92400000e-009,-1.32812502e-003
,,,-7.92000000e-009,-1.38777878e-017
,,,-7.91600000e-009,2.07812503e-003
,,,-7.91200000e-009,4.40625007e-003
,,,-7.90800000e-009,6.45312510e-003
,,,-7.90400000e-009,7.76562512e-003
,,,-7.90000000e-009,8.00000012e-003
,,,-7.89600000e-009,7.04687511e-003
,,,-7.89200000e-009,4.96875007e-003
,,,-7.88800000e-009,2.12500003e-003
,,,-7.88400000e-009,-1.03125002e-003
,,,-7.88000000e-009,-4.00000006e-003
,,,-7.87600000e-009,-6.12500009e-003
,,,-7.87200000e-009,-7.18750011e-003
,,,-7.86800000e-009,-7.09375011e-003
,,,-7.86400000e-009,-5.93750009e-003
,,,-7.86000000e-009,-4.00000006e-003
,,,-7.85600000e-009,-1.60937502e-003
,,,-7.85200000e-009,6.71875010e-004
,,,-7.84800000e-009,2.50000004e-003
,,,-7.84400000e-009,3.64062505e-003
,,,-7.84000000e-009,4.00000006e-003
,,,-7.83600000e-009,3.68750005e-003
,,,-7.83200000e-009,2.84375004e-003
,,,-7.82800000e-009,1.71875003e-003
,,,-7.82400000e-009,6.71875010e-004
