Test Data/Switch_50MHz_raw.csv

"Record Length",25000,"Points",-1.00000000e-008,3.16000005e-001
"Sample Interval",4.00000000e-012,s,-9.99600000e-009,3.18218755e-001
"Trigger Point",2500,"Samples",-9.99200000e-009,3.21375005e-001
"Trigger Time",2.00000000e-014,s,-9.98800000e-009,3.24968755e-001
"",,,-9.98400000e-009,3.28593755e-001
"Horizontal Offset",-1.00000000e-008,s,-9.98000000e-009,3.32000005e-001
,,,-9.97600000e-009,3.34750005e-001
,,,-9.97200000e-009,3.36812505e-001
,,,-9.96800000e-009,3.38281255e-001
,,,-9.96400000e-009,3.39281255e-001
,,,-9.96000000e-009,3.40000005e-001
,,,-9.95600000e-009,3.40375005e-001
,,,-9.95200000e-009,3.40562505e-001
,,,-9.94800000e-009,3.40500005e-001
,,,-9.94400000e-009,3.40250005e-001
,,,-9.94000000e-009,3.40000005e-001
,,,-9.93600000e-009,3.40218755e-001
,,,-9.93200000e-009,3.41437505e-001
,,,-9.92800000e-009,3.44281255e-001
,,,-9.92400000e-009,3.49187505e-001
,,,-9.92000000e-009,3.56000005e-001
,,,-9.91600000e-009,3.63406256e-001
,,,-9.91200000e-009,3.70281256e-001
,,,-9.90800000e-009,3.74937506e-001
,,,-9.90400000e-009,3.75843756e-001
,,,-9.90000000e-009,3.72000006e-001
,,,-9.89600000e-009,3.63093755e-001
,,,-9.89200000e-009,3.51031255e-001
,,,-9.88800000e-009,3.37718755e-001
,,,-9.88400000e-009,3.25343755e-001
,,,-9.88000000e-009,3.16000005e-001
,,,-9.87600000e-009,3.11218755e-001
,,,-9.87200000e-009,3.11343755e-001
,,,-9.86800000e-009,3.15781255e-001
,,,-9.86400000e-009,3.23250005e-001
,,,-9.86000000e-009,3.32000005e-001
,,,-9.85600000e-009,3.40062505e-001
,,,-9.85200000e-009,3.45625005e-001
,,,-9.84800000e-009,3.47531255e-001
,,,-9.84400000e-009,3.45500005e-001
,,,-9.84000000e-009,3.40000005e-001
,,,-9.83600000e-009,3.32312505e-001
,,,-9.83200000e-009,3.24875005e-001
,,,-9.82800000e-009,3.19906255e-001
,,,-9.82400000e-009,3.19312505e-001
,,,-9.82000000e-009,3.24000005e-001
,,,-9.81600000e-009,3.33375005e-001
,,,-9.81200000e-009,3.45000005e-001
,,,-9.80800000e-009,3.55812505e-001
,,,-9.80400000e-009,3.62875005e-001
,,,-9.80000000e-009,3.64000006e-001
,,,-9.79600000e-009,3.58687505e-001
,,,-9.79200000e-009,3.48250005e-001
,,,-9.78800000e-009,3.35500005e-001
,,,-9.78400000e-009,3.23750005e-001
,,,-9.78000000e-009,3.16000005e-001
,,,-9.77600000e-009,3.13843755e-001
,,,-9.77200000e-009,3.17312505e-001
,,,-9.76800000e-009,3.24593755e-001
,,,-9.76400000e-009,3.33062505e-001
,,,-9.76000000e-009,3.40000005e-001
,,,-9.75600000e-009,3.43156255e-001
,,,-9.75200000e-009,3.41531255e-001
,,,-9.74800000e-009,3.35406255e-001
,,,-9.74400000e-009,3.26187505e-001
,,,-9.74000000e-009,3.16000005e-001
,,,-9.73600000e-009,3.07562505e-001
,,,-9.73200000e-009,3.03093755e-001
,,,-9.72800000e-009,3.04093755e-001
,,,-9.72400000e-009,3.11281255e-001
,,,-9.72000000e-009,3.24000005e-001
,,,-9.71600000e-009,3.40031255e-001
,,,-9.71200000e-009,3.56031255e-001
,,,-9.70800000e-009,3.68500006e-001
,,,-9.70400000e-009,3.74375006e-001
,,,-9.70000000e-009,3.72000006e-001
,,,-9.69600000e-009,3.61625005e-001
,,,-9.69200000e-009,3.46031255e-001
,,,-9.68800000e-009,3.29156255e-001
,,,-9.68400000e-009,3.15312505e-001
,,,-9.68000000e-009,3.08000005e-001
,,,-9.67600000e-009,3.09000005e-001
,,,-9.67200000e-009,3.17500005e-001
,,,-9.66800000e-009,3.30718755e-001
,,,-9.66400000e-009,3.44843755e-001
,,,-9.66000000e-009,3.56000005e-001
,,,-9.65600000e-009,3.61062505e-001
,,,-9.65200000e-009,3.59031255e-001
,,,-9.64800000e-009,3.50625005e-001
,,,-9.64400000e-009,3.37937505e-001
,,,-9.64000000e-009,3.24000005e-001
,,,-9.63600000e-009,3.12093755e-001
,,,-9.63200000e-009,3.05156255e-001
,,,-9.62800000e-009,3.04781255e-001
,,,-9.62400000e-009,3.11375005e-001
,,,-9.62000000e-009,3.24000005e-001
,,,-9.61600000e-009,3.40062505e-001
,,,-9.61200000e-009,3.56062505e-001
,,,-9.60800000e-009,3.68468756e-001
,,,-9.60400000e-009,3.74312506e-001
,,,-9.60000000e-009,3.72000006e-001
,,,-9.59600000e-009,3.61750005e-001
,,,-9.59200000e-009,3.46281255e-001
,,,-9.58800000e-009,3.29468755e-001
,,,-9.58400000e-009,3.15531255e-001
,,,-9.58000000e-009,3.08000005e-001
,,,-9.57600000e-009,3.08656255e-001
,,,-9.57200000e-009,3.16875005e-001
,,,-9.56800000e-009,3.29968755e-001
,,,-9.56400000e-009,3.44250005e-001
,,,-9.56000000e-009,3.56000005e-001
,,,-9.55600000e-009,3.62062505e-001
,,,-9.55200000e-009,3.61406255e-001
,,,-9.54800000e-009,3.54718755e-001
,,,-9.54400000e-009,3.44031255e-001
,,,-9.54000000e-009,3.32000005e-001
,,,-9.53600000e-009,3.21437505e-001
,,,-9.53200000e-009,3.14718755e-001
,,,-9.52800000e-009,3.12968755e-001
,,,-9.52400000e-009,3.16343755e-001
,,,-9.52000000e-009,3.24000005e-001
,,,-9.51600000e-009,3.33968755e-001
,,,-9.51200000e-009,3.44125005e-001
,,,-9.50800000e-009,3.52218755e-001
,,,-9.50400000e-009,3.56531255e-001
,,,-9.50000000e-009,3.56000005e-001
,,,-9.49600000e-009,3.50593755e-001
,,,-9.49200000e-009,3.41656255e-001
,,,-9.48800000e-009,3.31343755e-001
,,,-9.48400000e-009,3.22093755e-001
,,,-9.48000000e-009,3.16000005e-001
,,,-9.47600000e-009,3.14343755e-001
,,,-9.47200000e-009,3.17343755e-001
,,,-9.46800000e-009,3.23843755e-001
,,,-9.46400000e-009,3.32093755e-001
,,,-9.46000000e-009,3.40000005e-001
,,,-9.45600000e-009,3.45468755e-001
,,,-9.45200000e-009,3.47281255e-001
,,,-9.44800000e-009,3.45218755e-001
,,,-9.44400000e-009,3.39750005e-001
,,,-9.44000000e-009,3.32000005e-001
,,,-9.43600000e-009,3.23437505e-001
,,,-9.43200000e-009,3.15781255e-001
,,,-9.42800000e-009,3.10156255e-001
,,,-9.42400000e-009,3.07468755e-001
,,,-9.42000000e-009,3.08000005e-001
,,,-9.41600000e-009,3.11312505e-001
,,,-9.41200000e-009,3.16562505e-001
,,,-9.40800000e-009,3.22562505e-001
,,,-9.40400000e-009,3.28093755e-001
,,,-9.40000000e-009,3.32000005e-001
,,,-9.39600000e-009,3.33406255e-001
,,,-9.39200000e-009,3.31968755e-001
,,,-9.38800000e-009,3.27968755e-001
,,,-9.38400000e-009,3.22250005e-001
,,,-9.38000000e-009,3.16000005e-001
,,,-9.37600000e-009,3.10562505e-001
,,,-9.37200000e-009,3.07312505e-001
,,,-9.36800000e-009,3.07062505e-001
,,,-9.36400000e-009,3.10093755e-001
,,,-9.36000000e-009,3.16000005e-001
,,,-9.35600000e-009,3.23437505e-001
,,,-9.35200000e-009,3.30500005e-001
,,,-9.34800000e-009,3.35187505e-001
,,,-9.34400000e-009,3.35968755e-001
,,,-9.34000000e-009,3.32000005e-001
,,,-9.33600000e-009,3.23687505e-001
,,,-9.33200000e-009,3.12500005e-001
,,,-9.32800000e-009,3.00593755e-001
,,,-9.32400000e-009,2.90375004e-001
,,,-9.32000000e-009,2.84000004e-001
,,,-9.31600000e-009,2.83093754e-001
,,,-9.31200000e-009,2.87343754e-001
,,,-9.30800000e-009,2.95531254e-001
,,,-9.30400000e-009,3.05812505e-001
,,,-9.30000000e-009,3.16000005e-001
,,,-9.29600000e-009,3.23781255e-001
,,,-9.29200000e-009,3.27750005e-001
,,,-9.28800000e-009,3.27375005e-001
,,,-9.28400000e-009,3.23093755e-001
,,,-9.28000000e-009,3.16000005e-001
,,,-9.27600000e-009,3.07906255e-001
,,,-9.27200000e-009,3.00812505e-001
,,,-9.26800000e-009,2.96406255e-001
,,,-9.26400000e-009,2.95937504e-001
,,,-9.26000000e-009,3.00000005e-001
,,,-9.25600000e-009,3.08437505e-001
,,,-9.25200000e-009,3.19500005e-001
,,,-9.24800000e-009,3.31187505e-001
,,,-9.24400000e-009,3.41312505e-001
,,,-9.24000000e-009,3.48000005e-001
,,,-9.23600000e-009,3.49406255e-001
,,,-9.23200000e-009,3.45812505e-001
,,,-9.22800000e-009,3.38000005e-001
,,,-9.22400000e-009,3.27468755e-001
,,,-9.22000000e-009,3.16000005e-001
,,,-9.21600000e-009,3.05500005e-001
,,,-9.21200000e-009,2.97500005e-001
,,,-9.20800000e-009,2.92625004e-001
,,,-9.20400000e-009,2.90875004e-001
,,,-9.20000000e-009,2.92000004e-001
,,,-9.19600000e-009,2.95906254e-001
,,,-9.19200000e-009,3.01625005e-001
,,,-9.18800000e-009,3.08593755e-001
,,,-9.18400000e-009,3.16281255e-001
,,,-9.18000000e-009,3.24000005e-001
,,,-9.17600000e-009,3.30593755e-001
,,,-9.17200000e-009,3.35250005e-001
,,,-9.16800000e-009,3.37218755e-001
,,,-9.16400000e-009,3.36125005e-001
,,,-9.16000000e-009,3.32000005e-001
,,,-9.15600000e-009,3.25468755e-001
,,,-9.15200000e-009,3.18343755e-001
,,,-9.14800000e-009,3.12125005e-001
,,,-9.14400000e-009,3.08343755e-001
,,,-9.14000000e-009,3.08000005e-001
,,,-9.13600000e-009,3.11437505e-001
,,,-9.13200000e-009,3.17781255e-001
,,,-9.12800000e-009,3.25687505e-001
,,,-9.12400000e-009,3.33625005e-001
,,,-9.12000000e-009,3.40000005e-001
,,,-9.11600000e-009,3.43250005e-001
,,,-9.11200000e-009,3.42937505e-001
,,,-9.10800000e-009,3.39125005e-001
,,,-9.10400000e-009,3.32437505e-001
,,,-9.10000000e-009,3.24000005e-001
,,,-9.09600000e-009,3.15093755e-001
,,,-9.09200000e-009,3.07937505e-001
,,,-9.08800000e-009,3.03968755e-001
,,,-9.08400000e-009,3.03968755e-001
,,,-9.08000000e-009,3.08000005e-001
,,,-9.07600000e-009,3.14968755e-001
,,,-9.07200000e-009,3.22906255e-001
,,,-9.06800000e-009,3.29593755e-001
,,,-9.06400000e-009,3.33031255e-001
,,,-9.06000000e-009,3.32000005e-001
,,,-9.05600000e-009,3.26375005e-001
,,,-9.05200000e-009,3.17875005e-001
,,,-9.04800000e-009,3.09000005e-001
,,,-9.04400000e-009,3.02312505e-001
,,,-9.04000000e-009,3.00000005e-001
,,,-9.03600000e-009,3.02781255e-001
,,,-9.03200000e-009,3.09750005e-001
,,,-9.02800000e-009,3.18750005e-001
,,,-9.02400000e-009,3.26968755e-001
,,,-9.02000000e-009,3.32000005e-001
,,,-9.01600000e-009,3.32343755e-001
,,,-9.01200000e-009,3.27781255e-001
,,,-9.00800000e-009,3.19468755e-001
,,,-9.00400000e-009,3.09468755e-001
,,,-9.00000000e-009,3.00000005e-001
,,,-8.99600000e-009,2.93312504e-001
,,,-8.99200000e-009,2.90250004e-001
,,,-8.98800000e-009,2.90906254e-001
,,,-8.98400000e-009,2.94562504e-001
,,,-8.98000000e-009,3.00000005e-001
,,,-8.97600000e-009,3.05781255e-001
,,,-8.97200000e-009,3.10250005e-001
,,,-8.96800000e-009,3.12343755e-001
,,,-8.96400000e-009,3.11531255e-001
,,,-8.96000000e-009,3.08000005e-001
,,,-8.95600000e-009,3.03062505e-001
,,,-8.95200000e-009,2.98093755e-001
,,,-8.94800000e-009,2.94968754e-001
,,,-8.94400000e-009,2.95281254e-001
,,,-8.94000000e-009,3.00000005e-001
,,,-8.93600000e-009,3.08750005e-001
,,,-8.93200000e-009,3.20156255e-001
,,,-8.92800000e-009,3.32062505e-001
,,,-8.92400000e-009,3.42000005e-001
,,,-8.92000000e-009,3.48000005e-001
,,,-8.91600000e-009,3.48531255e-001
,,,-8.91200000e-009,3.44000005e-001
,,,-8.90800000e-009,3.35687505e-001
,,,-8.90400000e-009,3.25625005e-001
,,,-8.90000000e-009,3.16000005e-001
,,,-8.89600000e-009,3.08625005e-001
,,,-8.89200000e-009,3.05062505e-001
,,,-8.88800000e-009,3.05593755e-001
,,,-8.88400000e-009,3.09625005e-001
,,,-8.88000000e-009,3.16000005e-001
,,,-8.87600000e-009,3.22656255e-001
,,,-8.87200000e-009,3.27968755e-001
,,,-8.86800000e-009,3.30468755e-001
,,,-8.86400000e-009,3.29187505e-001
,,,-8.86000000e-009,3.24000005e-001
,,,-8.85600000e-009,3.15562505e-001
,,,-8.85200000e-009,3.06031255e-001
,,,-8.84800000e-009,2.97625005e-001
,,,-8.84400000e-009,2.92437504e-001
,,,-8.84000000e-009,2.92000004e-001
,,,-8.83600000e-009,2.96531255e-001
,,,-8.83200000e-009,3.04968755e-001
,,,-8.82800000e-009,3.15281255e-001
,,,-8.82400000e-009,3.25031255e-001
,,,-8.82000000e-009,3.32000005e-001
,,,-8.81600000e-009,3.34406255e-001
,,,-8.81200000e-009,3.31968755e-001
,,,-8.80800000e-009,3.25625005e-001
,,,-8.80400000e-009,3.16968755e-001
,,,-8.80000000e-009,3.08000005e-001
,,,-8.79600000e-009,3.00593755e-001
,,,-8.79200000e-009,2.96062505e-001
,,,-8.78800000e-009,2.94718754e-001
,,,-8.78400000e-009,2.96312505e-001
,,,-8.78000000e-009,3.00000005e-001
,,,-8.77600000e-009,3.04656255e-001
,,,-8.77200000e-009,3.08718755e-001
,,,-8.76800000e-009,3.11062505e-001
,,,-8.76400000e-009,3.10906255e-001
,,,-8.76000000e-009,3.08000005e-001
,,,-8.75600000e-009,3.02875005e-001
,,,-8.75200000e-009,2.96562505e-001
,,,-8.74800000e-009,2.90406254e-001
,,,-8.74400000e-009,2.85843754e-001
,,,-8.74000000e-009,2.84000004e-001
,,,-8.73600000e-009,2.85312504e-001
,,,-8.73200000e-009,2.89468754e-001
,,,-8.72800000e-009,2.95500004e-001
,,,-8.72400000e-009,3.02125005e-001
,,,-8.72000000e-009,3.08000005e-001
,,,-8.71600000e-009,3.12218755e-001
,,,-8.71200000e-009,3.13968755e-001
,,,-8.70800000e-009,3.13406255e-001
,,,-8.70400000e-009,3.11125005e-001
,,,-8.70000000e-009,3.08000005e-001
,,,-8.69600000e-009,3.05187505e-001
,,,-8.69200000e-009,3.03500005e-001
,,,-8.68800000e-009,3.03437505e-001
,,,-8.68400000e-009,3.05062505e-001
,,,-8.68000000e-009,3.08000005e-001
,,,-8.67600000e-009,3.11250005e-001
,,,-8.67200000e-009,3.13843755e-001
,,,-8.66800000e-009,3.14656255e-001
,,,-8.66400000e-009,3.12812505e-001
,,,-8.66000000e-009,3.08000005e-001
,,,-8.65600000e-009,3.00781255e-001
,,,-8.65200000e-009,2.92375004e-001
,,,-8.64800000e-009,2.84343754e-001
,,,-8.64400000e-009,2.78406254e-001
,,,-8.64000000e-009,2.76000004e-001
,,,-8.63600000e-009,2.78000004e-001
,,,-8.63200000e-009,2.84187504e-001
,,,-8.62800000e-009,2.93625004e-001
,,,-8.62400000e-009,3.04812505e-001
,,,-8.62000000e-009,3.16000005e-001
,,,-8.61600000e-009,3.24968755e-001
,,,-8.61200000e-009,3.30531255e-001
,,,-8.60800000e-009,3.32093755e-001
,,,-8.60400000e-009,3.29687505e-001
,,,-8.60000000e-009,3.24000005e-001
,,,-8.59600000e-009,3.16312505e-001
,,,-8.59200000e-009,3.08593755e-001
,,,-8.58800000e-009,3.02531255e-001
,,,-8.58400000e-009,2.99437505e-001
,,,-8.58000000e-009,3.00000005e-001
,,,-8.57600000e-009,3.03781255e-001
,,,-8.57200000e-009,3.09812505e-001
,,,-8.56800000e-009,3.16375005e-001
,,,-8.56400000e-009,3.21656255e-001
,,,-8.56000000e-009,3.24000005e-001
,,,-8.55600000e-009,3.22093755e-001
,,,-8.55200000e-009,3.16093755e-001
,,,-8.54800000e-009,3.06718755e-001
,,,-8.54400000e-009,2.95406254e-001
,,,-8.54000000e-009,2.84000004e-001
,,,-8.53600000e-009,2.74718754e-001
,,,-8.53200000e-009,2.69437504e-001
,,,-8.52800000e-009,2.69187504e-001
,,,-8.52400000e-009,2.74281254e-001
,,,-8.52000000e-009,2.84000004e-001
,,,-8.51600000e-009,2.96562505e-001
,,,-8.51200000e-009,3.09218755e-001
,,,-8.50800000e-009,3.19281255e-001
,,,-8.50400000e-009,3.24625005e-001
,,,-8.50000000e-009,3.24000005e-001
,,,-8.49600000e-009,3.17468755e-001
,,,-8.49200000e-009,3.06687505e-001
,,,-8.48800000e-009,2.94312504e-001
,,,-8.48400000e-009,2.83218754e-001
,,,-8.48000000e-009,2.76000004e-001
,,,-8.47600000e-009,2.74593754e-001
,,,-8.47200000e-009,2.78781254e-001
,,,-8.46800000e-009,2.87250004e-001
,,,-8.46400000e-009,2.97812505e-001
,,,-8.46000000e-009,3.08000005e-001
,,,-8.45600000e-009,3.15343755e-001
,,,-8.45200000e-009,3.18218755e-001
,,,-8.44800000e-009,3.16156255e-001
,,,-8.44400000e-009,3.09625005e-001
,,,-8.44000000e-009,3.00000005e-001
,,,-8.43600000e-009,2.89093754e-001
,,,-8.43200000e-009,2.79562504e-001
,,,-8.42800000e-009,2.73406254e-001
,,,-8.42400000e-009,2.72031254e-001
,,,-8.42000000e-009,2.76000004e-001
,,,-8.41600000e-009,2.84750004e-001
,,,-8.41200000e-009,2.96343755e-001
,,,-8.40800000e-009,3.08312505e-001
,,,-8.40400000e-009,3.18187505e-001
,,,-8.40000000e-009,3.24000005e-001
,,,-8.39600000e-009,3.24531255e-001
,,,-8.39200000e-009,3.20531255e-001
,,,-8.38800000e-009,3.13656255e-001
,,,-8.38400000e-009,3.06125005e-001
,,,-8.38000000e-009,3.00000005e-001
,,,-8.37600000e-009,2.96375005e-001
,,,-8.37200000e-009,2.95718754e-001
,,,-8.36800000e-009,2.97125005e-001
,,,-8.36400000e-009,2.99031255e-001
,,,-8.36000000e-009,3.00000005e-001
,,,-8.35600000e-009,2.99000005e-001
,,,-8.35200000e-009,2.95968754e-001
,,,-8.34800000e-009,2.91656254e-001
,,,-8.34400000e-009,2.87250004e-001
,,,-8.34000000e-009,2.84000004e-001
,,,-8.33600000e-009,2.82500004e-001
,,,-8.33200000e-009,2.83093754e-001
,,,-8.32800000e-009,2.85406254e-001
,,,-8.32400000e-009,2.88656254e-001
,,,-8.32000000e-009,2.92000004e-001
,,,-8.31600000e-009,2.94531254e-001
,,,-8.31200000e-009,2.95843754e-001
,,,-8.30800000e-009,2.95718754e-001
,,,-8.30400000e-009,2.94281254e-001
,,,-8.30000000e-009,2.92000004e-001
,,,-8.29600000e-009,2.89531254e-001
,,,-8.29200000e-009,2.87656254e-001
,,,-8.28800000e-009,2.87187504e-001
,,,-8.28400000e-009,2.88656254e-001
,,,-8.28000000e-009,2.92000004e-001
,,,-8.27600000e-009,2.96093755e-001
,,,-8.27200000e-009,2.99625005e-001
,,,-8.26800000e-009,3.00875005e-001
,,,-8.26400000e-009,2.98531255e-001
,,,-8.26000000e-009,2.92000004e-001
,,,-8.25600000e-009,2.82031254e-001
,,,-8.25200000e-009,2.70562504e-001
,,,-8.24800000e-009,2.60125004e-001
,,,-8.24400000e-009,2.53281254e-001
,,,-8.24000000e-009,2.52000004e-001
,,,-8.23600000e-009,2.56843754e-001
,,,-8.23200000e-009,2.66593754e-001
,,,-8.22800000e-009,2.78937504e-001
,,,-8.22400000e-009,2.91000004e-001
,,,-8.22000000e-009,3.00000005e-001
,,,-8.21600000e-009,3.03500005e-001
,,,-8.21200000e-009,3.00906255e-001
,,,-8.20800000e-009,2.92906254e-001
,,,-8.20400000e-009,2.81156254e-001
,,,-8.20000000e-009,2.68000004e-001
,,,-8.19600000e-009,2.56187504e-001
,,,-8.19200000e-009,2.48312504e-001
,,,-8.18800000e-009,2.46062504e-001
,,,-8.18400000e-009,2.50125004e-001
,,,-8.18000000e-009,2.60000004e-001
,,,-8.17600000e-009,2.73500004e-001
,,,-8.17200000e-009,2.87281254e-001
,,,-8.16800000e-009,2.98031255e-001
,,,-8.16400000e-009,3.02812505e-001
,,,-8.16000000e-009,3.00000005e-001
,,,-8.15600000e-009,2.89531254e-001
,,,-8.15200000e-009,2.74156254e-001
,,,-8.14800000e-009,2.57562504e-001
,,,-8.14400000e-009,2.43718754e-001
,,,-8.14000000e-009,2.36000004e-001
,,,-8.13600000e-009,2.35968754e-001
,,,-8.13200000e-009,2.42937504e-001
,,,-8.12800000e-009,2.54312504e-001
,,,-8.12400000e-009,2.66500004e-001
,,,-8.12000000e-009,2.76000004e-001
,,,-8.11600000e-009,2.79937504e-001
,,,-8.11200000e-009,2.77312504e-001
,,,-8.10800000e-009,2.68937504e-001
,,,-8.10400000e-009,2.56937504e-001
,,,-8.10000000e-009,2.44000004e-001
,,,-8.09600000e-009,2.33062504e-001
,,,-8.09200000e-009,2.26218753e-001
,,,-8.08800000e-009,2.24562503e-001
,,,-8.08400000e-009,2.28093753e-001
,,,-8.08000000e-009,2.36000004e-001
,,,-8.07600000e-009,2.46468754e-001
,,,-8.07200000e-009,2.56937504e-001
,,,-8.06800000e-009,2.65093754e-001
,,,-8.06400000e-009,2.69093754e-001
,,,-8.06000000e-009,2.68000004e-001
,,,-8.05600000e-009,2.61968754e-001
,,,-8.05200000e-009,2.52500004e-001
,,,-8.04800000e-009,2.42031254e-001
,,,-8.04400000e-009,2.33125004e-001
,,,-8.04000000e-009,2.28000003e-001
,,,-8.03600000e-009,2.27718753e-001
,,,-8.03200000e-009,2.31875004e-001
,,,-8.02800000e-009,2.38812504e-001
,,,-8.02400000e-009,2.46250004e-001
,,,-8.02000000e-009,2.52000004e-001
,,,-8.01600000e-009,2.54250004e-001
,,,-8.01200000e-009,2.52625004e-001
,,,-8.00800000e-009,2.48000004e-001
,,,-8.00400000e-009,2.41875004e-001
,,,-8.00000000e-009,2.36000004e-001
,,,-7.99600000e-009,2.31687504e-001
,,,-7.99200000e-009,2.29812504e-001
,,,-7.98800000e-009,2.30312504e-001
,,,-7.98400000e-009,2.32656254e-001
,,,-7.98000000e-009,2.36000004e-001
,,,-7.97600000e-009,2.39375004e-001
,,,-7.97200000e-009,2.42156254e-001
,,,-7.96800000e-009,2.43937504e-001
,,,-7.96400000e-009,2.44531254e-001
,,,-7.96000000e-009,2.44000004e-001
,,,-7.95600000e-009,2.42062504e-001
,,,-7.95200000e-009,2.39156254e-001
,,,-7.94800000e-009,2.35593754e-001
,,,-7.94400000e-009,2.31781254e-001
,,,-7.94000000e-009,2.28000003e-001
,,,-7.93600000e-009,2.24500003e-001
,,,-7.93200000e-009,2.21281253e-001
,,,-7.92800000e-009,2.18156253e-001
,,,-7.92400000e-009,2.15031253e-001
,,,-7.92000000e-009,2.12000003e-001
,,,-7.91600000e-009,2.09687503e-001
,,,-7.91200000e-009,2.08625003e-001
,,,-7.90800000e-009,2.09687503e-001
,,,-7.90400000e-009,2.13468753e-001
,,,-7.90000000e-009,2.20000003e-001
,,,-7.89600000e-009,2.27843753e-001
,,,-7.89200000e-009,2.35281254e-001
,,,-7.88800000e-009,2.40187504e-001
,,,-7.88400000e-009,2.40750004e-001
,,,-7.88000000e-009,2.36000004e-001
,,,-7.87600000e-009,2.26406253e-001
,,,-7.87200000e-009,2.14000003e-001
,,,-7.86800000e-009,2.01562503e-001
,,,-7.86400000e-009,1.92062503e-001
,,,-7.86000000e-009,1.88000003e-001
,,,-7.85600000e-009,1.90625003e-001
,,,-7.85200000e-009,1.99062503e-001
,,,-7.84800000e-009,2.11312503e-001
,,,-7.84400000e-009,2.24656253e-001
,,,-7.84000000e-009,2.36000004e-001
,,,-7.83600000e-009,2.42156254e-001
,,,-7.83200000e-009,2.41718754e-001
,,,-7.82800000e-009,2.34406254e-001
,,,-7.82400000e-009,2.21125003e-001
,,,-7.82000000e-009,2.04000003e-001
,,,-7.81600000e-009,1.86281253e-001
,,,-7.81200000e-009,1.71687503e-001
,,,-7.80800000e-009,1.63312503e-001
,,,-7.80400000e-009,1.63218753e-001
,,,-7.80000000e-009,1.72000003e-001
