Test Data/Switch_1GHz_envl-.csv

"Record Length",25000,"Points",-1.00000000e-008,-3.24000001e-001
"Sample Interval",4.00000000e-012,s,-9.99600000e-009,-3.16312492e-001
"Trigger Point",2500,"Samples",-9.99200000e-009,-3.10531259e-001
"Trigger Time",1.17348837e-012,s,-9.98800000e-009,-3.11843753e-001
"",,,-9.98400000e-009,-3.19468766e-001
"Horizontal Offset",-1.00000000e-008,s,-9.98000000e-009,-3.16000015e-001
,,,-9.97600000e-009,-3.14500004e-001
,,,-9.97200000e-009,-3.17093760e-001
,,,-9.96800000e-009,-3.22656244e-001
,,,-9.96400000e-009,-3.18062514e-001
,,,-9.96000000e-009,-3.16000015e-001
,,,-9.95600000e-009,-3.20781261e-001
,,,-9.95200000e-009,-3.16000015e-001
,,,-9.94800000e-009,-3.16031247e-001
,,,-9.94400000e-009,-3.16312492e-001
,,,-9.94000000e-009,-3.16000015e-001
,,,-9.93600000e-009,-3.13343763e-001
,,,-9.93200000e-009,-3.18187505e-001
,,,-9.92800000e-009,-3.18468750e-001
,,,-9.92400000e-009,-3.20625007e-001
,,,-9.92000000e-009,-3.24000001e-001
,,,-9.91600000e-009,-3.24000001e-001
,,,-9.91200000e-009,-3.19750011e-001
,,,-9.90800000e-009,-3.13406259e-001
,,,-9.90400000e-009,-3.14125001e-001
,,,-9.90000000e-009,-3.16000015e-001
,,,-9.89600000e-009,-3.20156246e-001
,,,-9.89200000e-009,-3.26499999e-001
,,,-9.88800000e-009,-3.25500011e-001
,,,-9.88400000e-009,-3.25093746e-001
,,,-9.88000000e-009,-3.21687520e-001
,,,-9.87600000e-009,-3.32687497e-001
,,,-9.87200000e-009,-3.32000017e-001
,,,-9.86800000e-009,-3.18781257e-001
,,,-9.86400000e-009,-3.16000015e-001
,,,-9.86000000e-009,-3.18906248e-001
,,,-9.85600000e-009,-3.19124997e-001
,,,-9.85200000e-009,-3.17499995e-001
,,,-9.84800000e-009,-3.32000017e-001
,,,-9.84400000e-009,-3.32749993e-001
,,,-9.84000000e-009,-3.24000001e-001
,,,-9.83600000e-009,-3.20906252e-001
,,,-9.83200000e-009,-3.24000001e-001
,,,-9.82800000e-009,-3.18031251e-001
,,,-9.82400000e-009,-3.21125001e-001
,,,-9.82000000e-009,-3.24000001e-001
,,,-9.81600000e-009,-3.25406253e-001
,,,-9.81200000e-009,-3.32000017e-001
,,,-9.80800000e-009,-3.24812502e-001
,,,-9.80400000e-009,-3.18656266e-001
,,,-9.80000000e-009,-3.16000015e-001
,,,-9.79600000e-009,-3.16000015e-001
,,,-9.79200000e-009,-3.13749999e-001
,,,-9.78800000e-009,-3.19750011e-001
,,,-9.78400000e-009,-3.24000001e-001
,,,-9.78000000e-009,-3.17250013e-001
,,,-9.77600000e-009,-3.23843747e-001
,,,-9.77200000e-009,-3.24000001e-001
,,,-9.76800000e-009,-3.15281242e-001
,,,-9.76400000e-009,-3.19281250e-001
,,,-9.76000000e-009,-3.17187518e-001
,,,-9.75600000e-009,-3.10281247e-001
,,,-9.75200000e-009,-3.16656262e-001
,,,-9.74800000e-009,-3.16718757e-001
,,,-9.74400000e-009,-3.25625002e-001
,,,-9.74000000e-009,-3.23031247e-001
,,,-9.73600000e-009,-3.16000015e-001
,,,-9.73200000e-009,-3.26531261e-001
,,,-9.72800000e-009,-3.31343740e-001
,,,-9.72400000e-009,-3.25062513e-001
,,,-9.72000000e-009,-3.21562499e-001
,,,-9.71600000e-009,-3.24000001e-001
,,,-9.71200000e-009,-3.19531262e-001
,,,-9.70800000e-009,-3.11218768e-001
,,,-9.70400000e-009,-3.15281242e-001
,,,-9.70000000e-009,-3.16468745e-001
,,,-9.69600000e-009,-3.19937497e-001
,,,-9.69200000e-009,-3.17531258e-001
,,,-9.68800000e-009,-3.09531242e-001
,,,-9.68400000e-009,-3.14031243e-001
,,,-9.68000000e-009,-3.24000001e-001
,,,-9.67600000e-009,-3.23718756e-001
,,,-9.67200000e-009,-3.21750015e-001
,,,-9.66800000e-009,-3.18718761e-001
,,,-9.66400000e-009,-3.24000001e-001
,,,-9.66000000e-009,-3.21437508e-001
,,,-9.65600000e-009,-3.22281241e-001
,,,-9.65200000e-009,-3.18281263e-001
,,,-9.64800000e-009,-3.10781240e-001
,,,-9.64400000e-009,-3.16000015e-001
,,,-9.64000000e-009,-3.16000015e-001
,,,-9.63600000e-009,-3.19718748e-001
,,,-9.63200000e-009,-3.15218747e-001
,,,-9.62800000e-009,-3.16531241e-001
,,,-9.62400000e-009,-3.18531245e-001
,,,-9.62000000e-009,-3.20843756e-001
,,,-9.61600000e-009,-3.18531245e-001
,,,-9.61200000e-009,-3.23593765e-001
,,,-9.60800000e-009,-3.20218742e-001
,,,-9.60400000e-009,-3.17281246e-001
,,,-9.60000000e-009,-3.15718740e-001
,,,-9.59600000e-009,-3.24000001e-001
,,,-9.59200000e-009,-3.21062505e-001
,,,-9.58800000e-009,-3.19093764e-001
,,,-9.58400000e-009,-3.20531249e-001
,,,-9.58000000e-009,-3.28687519e-001
,,,-9.57600000e-009,-3.32000017e-001
,,,-9.57200000e-009,-3.22874993e-001
,,,-9.56800000e-009,-3.21781248e-001
,,,-9.56400000e-009,-3.19156259e-001
,,,-9.56000000e-009,-3.16000015e-001
,,,-9.55600000e-009,-3.21750015e-001
,,,-9.55200000e-009,-3.24000001e-001
,,,-9.54800000e-009,-3.19375008e-001
,,,-9.54400000e-009,-3.26281250e-001
,,,-9.54000000e-009,-3.24000001e-001
,,,-9.53600000e-009,-3.33468765e-001
,,,-9.53200000e-009,-3.29937518e-001
,,,-9.52800000e-009,-3.17812502e-001
,,,-9.52400000e-009,-3.16500008e-001
,,,-9.52000000e-009,-3.24000001e-001
,,,-9.51600000e-009,-3.23125005e-001
,,,-9.51200000e-009,-3.26156259e-001
,,,-9.50800000e-009,-3.19875002e-001
,,,-9.50400000e-009,-3.24000001e-001
,,,-9.50000000e-009,-3.26000005e-001
,,,-9.49600000e-009,-3.24000001e-001
,,,-9.49200000e-009,-3.31312507e-001
,,,-9.48800000e-009,-3.31375003e-001
,,,-9.48400000e-009,-3.24937493e-001
,,,-9.48000000e-009,-3.13781261e-001
,,,-9.47600000e-009,-3.19124997e-001
,,,-9.47200000e-009,-3.21343750e-001
,,,-9.46800000e-009,-3.13968748e-001
,,,-9.46400000e-009,-3.20500016e-001
,,,-9.46000000e-009,-3.22968751e-001
,,,-9.45600000e-009,-3.17062497e-001
,,,-9.45200000e-009,-3.12500000e-001
,,,-9.44800000e-009,-3.16000015e-001
,,,-9.44400000e-009,-3.14999998e-001
,,,-9.44000000e-009,-3.16343755e-001
,,,-9.43600000e-009,-3.16906244e-001
,,,-9.43200000e-009,-3.19562495e-001
,,,-9.42800000e-009,-3.18250000e-001
,,,-9.42400000e-009,-3.14468741e-001
,,,-9.42000000e-009,-3.24250013e-001
,,,-9.41600000e-009,-3.32000017e-001
,,,-9.41200000e-009,-3.26281250e-001
,,,-9.40800000e-009,-3.15218747e-001
,,,-9.40400000e-009,-3.12750012e-001
,,,-9.40000000e-009,-3.17937493e-001
,,,-9.39600000e-009,-3.24000001e-001
,,,-9.39200000e-009,-3.28656256e-001
,,,-9.38800000e-009,-3.37156266e-001
,,,-9.38400000e-009,-3.32531244e-001
,,,-9.38000000e-009,-3.22187513e-001
,,,-9.37600000e-009,-3.16000015e-001
,,,-9.37200000e-009,-3.08968753e-001
,,,-9.36800000e-009,-3.16468745e-001
,,,-9.36400000e-009,-3.21718752e-001
,,,-9.36000000e-009,-3.27749997e-001
,,,-9.35600000e-009,-3.29656243e-001
,,,-9.35200000e-009,-3.21593761e-001
,,,-9.34800000e-009,-3.18781257e-001
,,,-9.34400000e-009,-3.16000015e-001
,,,-9.34000000e-009,-3.15406263e-001
,,,-9.33600000e-009,-3.25749993e-001
,,,-9.33200000e-009,-3.34062517e-001
,,,-9.32800000e-009,-3.32000017e-001
,,,-9.32400000e-009,-3.19218755e-001
,,,-9.32000000e-009,-3.28375012e-001
,,,-9.31600000e-009,-3.24000001e-001
,,,-9.31200000e-009,-3.12031269e-001
,,,-9.30800000e-009,-3.22593749e-001
,,,-9.30400000e-009,-3.26906264e-001
,,,-9.30000000e-009,-3.21937501e-001
,,,-9.29600000e-009,-3.17906260e-001
,,,-9.29200000e-009,-3.25187504e-001
,,,-9.28800000e-009,-3.20906252e-001
,,,-9.28400000e-009,-3.16875011e-001
,,,-9.28000000e-009,-3.24000001e-001
,,,-9.27600000e-009,-3.16406250e-001
,,,-9.27200000e-009,-3.24000001e-001
,,,-9.26800000e-009,-3.24000001e-001
,,,-9.26400000e-009,-3.18749994e-001
,,,-9.26000000e-009,-3.17437500e-001
,,,-9.25600000e-009,-3.19656253e-001
,,,-9.25200000e-009,-3.33906263e-001
,,,-9.24800000e-009,-3.40000004e-001
,,,-9.24400000e-009,-3.34968746e-001
,,,-9.24000000e-009,-3.20906252e-001
,,,-9.23600000e-009,-3.18749994e-001
,,,-9.23200000e-009,-3.16062510e-001
,,,-9.22800000e-009,-3.16187501e-001
,,,-9.22400000e-009,-3.16000015e-001
,,,-9.22000000e-009,-3.19156259e-001
,,,-9.21600000e-009,-3.32000017e-001
,,,-9.21200000e-009,-3.30125004e-001
,,,-9.20800000e-009,-3.16000015e-001
,,,-9.20400000e-009,-3.22906256e-001
,,,-9.20000000e-009,-3.25593770e-001
,,,-9.19600000e-009,-3.16593766e-001
,,,-9.19200000e-009,-3.14937502e-001
,,,-9.18800000e-009,-3.16000015e-001
,,,-9.18400000e-009,-3.16000015e-001
,,,-9.18000000e-009,-3.15874994e-001
,,,-9.17600000e-009,-3.07999998e-001
,,,-9.17200000e-009,-3.23812515e-001
,,,-9.16800000e-009,-3.28156263e-001
,,,-9.16400000e-009,-3.29281241e-001
,,,-9.16000000e-009,-3.30375016e-001
,,,-9.15600000e-009,-3.16000015e-001
,,,-9.15200000e-009,-3.24000001e-001
,,,-9.14800000e-009,-3.20562512e-001
,,,-9.14400000e-009,-3.23500007e-001
,,,-9.14000000e-009,-3.24000001e-001
,,,-9.13600000e-009,-3.23343754e-001
,,,-9.13200000e-009,-3.24000001e-001
,,,-9.12800000e-009,-3.13250005e-001
,,,-9.12400000e-009,-3.27968746e-001
,,,-9.12000000e-009,-3.40000004e-001
,,,-9.11600000e-009,-3.34093750e-001
,,,-9.11200000e-009,-3.16000015e-001
,,,-9.10800000e-009,-3.21062505e-001
,,,-9.10400000e-009,-3.23218763e-001
,,,-9.10000000e-009,-3.32000017e-001
,,,-9.09600000e-009,-3.41968745e-001
,,,-9.09200000e-009,-3.40468764e-001
,,,-9.08800000e-009,-3.34125012e-001
,,,-9.08400000e-009,-3.30437511e-001
,,,-9.08000000e-009,-3.16000015e-001
,,,-9.07600000e-009,-3.20531249e-001
,,,-9.07200000e-009,-3.24000001e-001
,,,-9.06800000e-009,-3.18093747e-001
,,,-9.06400000e-009,-3.17937493e-001
,,,-9.06000000e-009,-3.16000015e-001
,,,-9.05600000e-009,-3.19375008e-001
,,,-9.05200000e-009,-3.20812494e-001
,,,-9.04800000e-009,-3.24406266e-001
,,,-9.04400000e-009,-3.20468754e-001
,,,-9.04000000e-009,-3.21437508e-001
,,,-9.03600000e-009,-3.28375012e-001
,,,-9.03200000e-009,-3.40625018e-001
,,,-9.02800000e-009,-3.40000004e-001
,,,-9.02400000e-009,-3.25093746e-001
,,,-9.02000000e-009,-3.24000001e-001
,,,-9.01600000e-009,-3.26062500e-001
,,,-9.01200000e-009,-3.33875000e-001
,,,-9.00800000e-009,-3.30312490e-001
,,,-9.00400000e-009,-3.16000015e-001
,,,-9.00000000e-009,-3.09093744e-001
,,,-8.99600000e-009,-3.07999998e-001
,,,-8.99200000e-009,-3.20218742e-001
,,,-8.98800000e-009,-3.24000001e-001
,,,-8.98400000e-009,-3.18718761e-001
,,,-8.98000000e-009,-3.18968743e-001
,,,-8.97600000e-009,-3.24468762e-001
,,,-8.97200000e-009,-3.24000001e-001
,,,-8.96800000e-009,-3.24000001e-001
,,,-8.96400000e-009,-3.30624998e-001
,,,-8.96000000e-009,-3.27437490e-001
,,,-8.95600000e-009,-3.16000015e-001
,,,-8.95200000e-009,-3.23531240e-001
,,,-8.94800000e-009,-3.21187496e-001
,,,-8.94400000e-009,-3.18218768e-001
,,,-8.94000000e-009,-3.25656265e-001
,,,-8.93600000e-009,-3.32031250e-001
,,,-8.93200000e-009,-3.35906267e-001
,,,-8.92800000e-009,-3.27562511e-001
,,,-8.92400000e-009,-3.17437500e-001
,,,-8.92000000e-009,-3.16000015e-001
,,,-8.91600000e-009,-3.19031268e-001
,,,-8.91200000e-009,-3.16000015e-001
,,,-8.90800000e-009,-3.21750015e-001
,,,-8.90400000e-009,-3.26437503e-001
,,,-8.90000000e-009,-3.32000017e-001
,,,-8.89600000e-009,-3.35750014e-001
,,,-8.89200000e-009,-3.28718752e-001
,,,-8.88800000e-009,-3.24468762e-001
,,,-8.88400000e-009,-3.16000015e-001
,,,-8.88000000e-009,-3.24718744e-001
,,,-8.87600000e-009,-3.26468766e-001
,,,-8.87200000e-009,-3.24000001e-001
,,,-8.86800000e-009,-3.20500016e-001
,,,-8.86400000e-009,-3.14218760e-001
,,,-8.86000000e-009,-3.16000015e-001
,,,-8.85600000e-009,-3.24000001e-001
,,,-8.85200000e-009,-3.24000001e-001
,,,-8.84800000e-009,-3.14437509e-001
,,,-8.84400000e-009,-3.13937515e-001
,,,-8.84000000e-009,-3.24000001e-001
,,,-8.83600000e-009,-3.29125017e-001
,,,-8.83200000e-009,-3.24000001e-001
,,,-8.82800000e-009,-3.25093746e-001
,,,-8.82400000e-009,-3.20562512e-001
,,,-8.82000000e-009,-3.21656257e-001
,,,-8.81600000e-009,-3.24000001e-001
,,,-8.81200000e-009,-3.27374995e-001
,,,-8.80800000e-009,-3.30000013e-001
,,,-8.80400000e-009,-3.32000017e-001
,,,-8.80000000e-009,-3.20625007e-001
,,,-8.79600000e-009,-3.15843761e-001
,,,-8.79200000e-009,-3.15062493e-001
,,,-8.78800000e-009,-3.16000015e-001
,,,-8.78400000e-009,-3.15125018e-001
,,,-8.78000000e-009,-3.16000015e-001
,,,-8.77600000e-009,-3.22843760e-001
,,,-8.77200000e-009,-3.20468754e-001
,,,-8.76800000e-009,-3.21562499e-001
,,,-8.76400000e-009,-3.24625015e-001
,,,-8.76000000e-009,-3.24000001e-001
,,,-8.75600000e-009,-3.20406258e-001
,,,-8.75200000e-009,-3.24000001e-001
,,,-8.74800000e-009,-3.25687498e-001
,,,-8.74400000e-009,-3.16281259e-001
,,,-8.74000000e-009,-3.13093752e-001
,,,-8.73600000e-009,-3.15406263e-001
,,,-8.73200000e-009,-3.34468752e-001
,,,-8.72800000e-009,-3.46031249e-001
,,,-8.72400000e-009,-3.48031253e-001
,,,-8.72000000e-009,-3.40000004e-001
,,,-8.71600000e-009,-3.21875006e-001
,,,-8.71200000e-009,-3.16000015e-001
,,,-8.70800000e-009,-3.16000015e-001
,,,-8.70400000e-009,-3.22468758e-001
,,,-8.70000000e-009,-3.24218750e-001
,,,-8.69600000e-009,-3.16187501e-001
,,,-8.69200000e-009,-3.14249992e-001
,,,-8.68800000e-009,-3.16000015e-001
,,,-8.68400000e-009,-3.18875015e-001
,,,-8.68000000e-009,-3.17687511e-001
,,,-8.67600000e-009,-3.24000001e-001
,,,-8.67200000e-009,-3.17343742e-001
,,,-8.66800000e-009,-3.19875002e-001
,,,-8.66400000e-009,-3.27062517e-001
,,,-8.66000000e-009,-3.24000001e-001
,,,-8.65600000e-009,-3.24000001e-001
,,,-8.65200000e-009,-3.34812492e-001
,,,-8.64800000e-009,-3.35687518e-001
,,,-8.64400000e-009,-3.26312512e-001
,,,-8.64000000e-009,-3.16000015e-001
,,,-8.63600000e-009,-3.16000015e-001
,,,-8.63200000e-009,-3.25343758e-001
,,,-8.62800000e-009,-3.32000017e-001
,,,-8.62400000e-009,-3.27187508e-001
,,,-8.62000000e-009,-3.21875006e-001
,,,-8.61600000e-009,-3.16000015e-001
,,,-8.61200000e-009,-3.16875011e-001
,,,-8.60800000e-009,-3.21343750e-001
,,,-8.60400000e-009,-3.24625015e-001
,,,-8.60000000e-009,-3.25062513e-001
,,,-8.59600000e-009,-3.29031259e-001
,,,-8.59200000e-009,-3.31406265e-001
,,,-8.58800000e-009,-3.23156267e-001
,,,-8.58400000e-009,-3.24656248e-001
,,,-8.58000000e-009,-3.26781243e-001
,,,-8.57600000e-009,-3.24000001e-001
,,,-8.57200000e-009,-3.24593753e-001
,,,-8.56800000e-009,-3.16000015e-001
,,,-8.56400000e-009,-3.12812507e-001
,,,-8.56000000e-009,-3.24000001e-001
,,,-8.55600000e-009,-3.23593765e-001
,,,-8.55200000e-009,-3.16000015e-001
,,,-8.54800000e-009,-3.20718765e-001
,,,-8.54400000e-009,-3.17718744e-001
,,,-8.54000000e-009,-3.24000001e-001
,,,-8.53600000e-009,-3.17812502e-001
,,,-8.53200000e-009,-3.12500000e-001
,,,-8.52800000e-009,-3.16000015e-001
,,,-8.52400000e-009,-3.15499991e-001
,,,-8.52000000e-009,-3.21750015e-001
,,,-8.51600000e-009,-3.24000001e-001
,,,-8.51200000e-009,-3.16000015e-001
,,,-8.50800000e-009,-3.19875002e-001
,,,-8.50400000e-009,-3.23062509e-001
,,,-8.50000000e-009,-3.19624990e-001
,,,-8.49600000e-009,-3.20875019e-001
,,,-8.49200000e-009,-3.16000015e-001
,,,-8.48800000e-009,-3.13093752e-001
,,,-8.48400000e-009,-3.16406250e-001
,,,-8.48000000e-009,-3.22156250e-001
,,,-8.47600000e-009,-3.24000001e-001
,,,-8.47200000e-009,-3.20374995e-001
,,,-8.46800000e-009,-3.26781243e-001
,,,-8.46400000e-009,-3.22437495e-001
,,,-8.46000000e-009,-3.24750006e-001
,,,-8.45600000e-009,-3.25843751e-001
,,,-8.45200000e-009,-3.16031247e-001
,,,-8.44800000e-009,-3.16000015e-001
,,,-8.44400000e-009,-3.16249996e-001
,,,-8.44000000e-009,-3.18156242e-001
,,,-8.43600000e-009,-3.16624999e-001
,,,-8.43200000e-009,-3.23937505e-001
,,,-8.42800000e-009,-3.27312499e-001
,,,-8.42400000e-009,-3.34187508e-001
,,,-8.42000000e-009,-3.32000017e-001
,,,-8.41600000e-009,-3.19656253e-001
,,,-8.41200000e-009,-3.10250014e-001
,,,-8.40800000e-009,-3.12375009e-001
,,,-8.40400000e-009,-3.14656258e-001
,,,-8.40000000e-009,-3.14125001e-001
,,,-8.39600000e-009,-3.15468758e-001
,,,-8.39200000e-009,-3.16781253e-001
,,,-8.38800000e-009,-3.22406262e-001
,,,-8.38400000e-009,-3.19281250e-001
,,,-8.38000000e-009,-3.08125019e-001
,,,-8.37600000e-009,-3.08937490e-001
,,,-8.37200000e-009,-3.14031243e-001
,,,-8.36800000e-009,-3.24218750e-001
,,,-8.36400000e-009,-3.25093746e-001
,,,-8.36000000e-009,-3.16000015e-001
,,,-8.35600000e-009,-3.17968756e-001
,,,-8.35200000e-009,-3.22656244e-001
,,,-8.34800000e-009,-3.27406257e-001
,,,-8.34400000e-009,-3.32749993e-001
,,,-8.34000000e-009,-3.31062496e-001
,,,-8.33600000e-009,-3.22375000e-001
,,,-8.33200000e-009,-3.15499991e-001
,,,-8.32800000e-009,-3.15562516e-001
,,,-8.32400000e-009,-3.22312504e-001
,,,-8.32000000e-009,-3.26437503e-001
,,,-8.31600000e-009,-3.24000001e-001
,,,-8.31200000e-009,-3.28624994e-001
,,,-8.30800000e-009,-3.26750010e-001
,,,-8.30400000e-009,-3.17593753e-001
,,,-8.30000000e-009,-3.16000015e-001
,,,-8.29600000e-009,-3.16000015e-001
,,,-8.29200000e-009,-3.19656253e-001
,,,-8.28800000e-009,-3.20062518e-001
,,,-8.28400000e-009,-3.23031247e-001
,,,-8.28000000e-009,-3.16000015e-001
,,,-8.27600000e-009,-3.18156242e-001
,,,-8.27200000e-009,-3.25374991e-001
,,,-8.26800000e-009,-3.20781261e-001
,,,-8.26400000e-009,-3.16000015e-001
,,,-8.26000000e-009,-3.24000001e-001
,,,-8.25600000e-009,-3.19375008e-001
,,,-8.25200000e-009,-3.21500003e-001
,,,-8.24800000e-009,-3.20093751e-001
,,,-8.24400000e-009,-3.22812498e-001
,,,-8.24000000e-009,-3.16000015e-001
,,,-8.23600000e-009,-3.24031264e-001
,,,-8.23200000e-009,-3.19656253e-001
,,,-8.22800000e-009,-3.16000015e-001
,,,-8.22400000e-009,-3.21687520e-001
,,,-8.22000000e-009,-3.24000001e-001
,,,-8.21600000e-009,-3.18156242e-001
,,,-8.21200000e-009,-3.26562494e-001
,,,-8.20800000e-009,-3.24000001e-001
,,,-8.20400000e-009,-3.14187497e-001
,,,-8.20000000e-009,-3.16468745e-001
,,,-8.19600000e-009,-3.18625003e-001
,,,-8.19200000e-009,-3.18531245e-001
,,,-8.18800000e-009,-3.16156268e-001
,,,-8.18400000e-009,-3.15531254e-001
,,,-8.18000000e-009,-3.15531254e-001
,,,-8.17600000e-009,-3.15499991e-001
,,,-8.17200000e-009,-3.23937505e-001
,,,-8.16800000e-009,-3.24750006e-001
,,,-8.16400000e-009,-3.16500008e-001
,,,-8.16000000e-009,-3.16000015e-001
,,,-8.15600000e-009,-3.13156247e-001
,,,-8.15200000e-009,-3.16000015e-001
,,,-8.14800000e-009,-3.14062506e-001
,,,-8.14400000e-009,-3.19624990e-001
,,,-8.14000000e-009,-3.32000017e-001
,,,-8.13600000e-009,-3.31062496e-001
,,,-8.13200000e-009,-3.25625002e-001
,,,-8.12800000e-009,-3.24062496e-001
,,,-8.12400000e-009,-3.21593761e-001
,,,-8.12000000e-009,-3.27031255e-001
,,,-8.11600000e-009,-3.23375016e-001
,,,-8.11200000e-009,-3.22093755e-001
,,,-8.10800000e-009,-3.16000015e-001
,,,-8.10400000e-009,-3.20312500e-001
,,,-8.10000000e-009,-3.24000001e-001
,,,-8.09600000e-009,-3.22499990e-001
,,,-8.09200000e-009,-3.17156255e-001
,,,-8.08800000e-009,-3.10468763e-001
,,,-8.08400000e-009,-3.16000015e-001
,,,-8.08000000e-009,-3.16000015e-001
,,,-8.07600000e-009,-3.24000001e-001
,,,-8.07200000e-009,-3.23656261e-001
,,,-8.06800000e-009,-3.16000015e-001
,,,-8.06400000e-009,-3.23750019e-001
,,,-8.06000000e-009,-3.24000001e-001
,,,-8.05600000e-009,-3.18374991e-001
,,,-8.05200000e-009,-3.17437500e-001
,,,-8.04800000e-009,-3.16000015e-001
,,,-8.04400000e-009,-3.13593745e-001
,,,-8.04000000e-009,-3.11625004e-001
,,,-8.03600000e-009,-3.16000015e-001
,,,-8.03200000e-009,-3.28375012e-001
,,,-8.02800000e-009,-3.32000017e-001
,,,-8.02400000e-009,-3.25031251e-001
,,,-8.02000000e-009,-3.22125018e-001
,,,-8.01600000e-009,-3.10312510e-001
,,,-8.01200000e-009,-3.18250000e-001
,,,-8.00800000e-009,-3.21312517e-001
,,,-8.00400000e-009,-3.16000015e-001
,,,-8.00000000e-009,-3.16812515e-001
,,,-7.99600000e-009,-3.19750011e-001
,,,-7.99200000e-009,-3.18187505e-001
,,,-7.98800000e-009,-3.16000015e-001
,,,-7.98400000e-009,-3.18656266e-001
,,,-7.98000000e-009,-3.16000015e-001
,,,-7.97600000e-009,-3.16000015e-001
,,,-7.97200000e-009,-3.17906260e-001
,,,-7.96800000e-009,-3.24000001e-001
,,,-7.96400000e-009,-3.18437517e-001
,,,-7.96000000e-009,-3.24000001e-001
,,,-7.95600000e-009,-3.27500015e-001
,,,-7.95200000e-009,-3.18281263e-001
,,,-7.94800000e-009,-3.14781249e-001
,,,-7.94400000e-009,-3.16000015e-001
,,,-7.94000000e-009,-3.16000015e-001
,,,-7.93600000e-009,-3.14312518e-001
,,,-7.93200000e-009,-3.16000015e-001
,,,-7.92800000e-009,-3.25281262e-001
,,,-7.92400000e-009,-3.26625019e-001
,,,-7.92000000e-009,-3.22125018e-001
,,,-7.91600000e-009,-3.26656252e-001
,,,-7.91200000e-009,-3.32000017e-001
,,,-7.90800000e-009,-3.32000017e-001
,,,-7.90400000e-009,-3.24968755e-001
,,,-7.90000000e-009,-3.17187518e-001
,,,-7.89600000e-009,-3.22031260e-001
,,,-7.89200000e-009,-3.24000001e-001
,,,-7.88800000e-009,-3.14906269e-001
,,,-7.88400000e-009,-3.16624999e-001
,,,-7.88000000e-009,-3.16000015e-001
,,,-7.87600000e-009,-3.16000015e-001
,,,-7.87200000e-009,-3.16812515e-001
,,,-7.86800000e-009,-3.18812519e-001
,,,-7.86400000e-009,-3.28343749e-001
,,,-7.86000000e-009,-3.24000001e-001
