Test Data/Switch_50MHz_trig.csv

"Record Length",25000,"Points",-3.76000000e-009,-2.76249952e-002
"Sample Interval",4.00000000e-012,s,-3.75600000e-009,-1.91874950e-002
"Trigger Point",940,"Samples",-3.75200000e-009,-9.21874489e-003
"Trigger Time",1.91247312e-012,s,-3.74800000e-009,5.24520882e-009
"",,,-3.74400000e-009,6.50000534e-003
"Horizontal Offset",-3.76000000e-009,s,-3.74000000e-009,9.34375538e-003
,,,-3.73600000e-009,8.59375537e-003
,,,-3.73200000e-009,5.09375532e-003
,,,-3.72800000e-009,5.24520882e-009
,,,-3.72400000e-009,-5.56249484e-003
,,,-3.72000000e-009,-1.02812449e-002
,,,-3.71600000e-009,-1.35937450e-002
,,,-3.71200000e-009,-1.54062450e-002
,,,-3.70800000e-009,-1.59999950e-002
,,,-3.70400000e-009,-1.59062450e-002
,,,-3.70000000e-009,-1.54374950e-002
,,,-3.69600000e-009,-1.50937450e-002
,,,-3.69200000e-009,-1.52499950e-002
,,,-3.68800000e-009,-1.59999950e-002
,,,-3.68400000e-009,-1.69999950e-002
,,,-3.68000000e-009,-1.80937450e-002
,,,-3.67600000e-009,-1.86562450e-002
,,,-3.67200000e-009,-1.80937450e-002
,,,-3.66800000e-009,-1.59999950e-002
,,,-3.66400000e-009,-1.21562449e-002
,,,-3.66000000e-009,-6.96874486e-003
,,,-3.65600000e-009,-1.28124477e-003
,,,-3.65200000e-009,4.03125531e-003
,,,-3.64800000e-009,8.00000536e-003
,,,-3.64400000e-009,9.75000539e-003
,,,-3.64000000e-009,9.34375538e-003
,,,-3.63600000e-009,7.18750535e-003
,,,-3.63200000e-009,3.84375530e-003
,,,-3.62800000e-009,5.24520882e-009
,,,-3.62400000e-009,-3.84374481e-003
,,,-3.62000000e-009,-7.34374486e-003
,,,-3.61600000e-009,-1.05312449e-002
,,,-3.61200000e-009,-1.34374950e-002
,,,-3.60800000e-009,-1.59999950e-002
,,,-3.60400000e-009,-1.77812450e-002
,,,-3.60000000e-009,-1.82812450e-002
,,,-3.59600000e-009,-1.70624950e-002
,,,-3.59200000e-009,-1.36249950e-002
,,,-3.58800000e-009,-7.99999487e-003
,,,-3.58400000e-009,-1.18749477e-003
,,,-3.58000000e-009,5.87500533e-003
,,,-3.57600000e-009,1.19062554e-002
,,,-3.57200000e-009,1.55937555e-002
,,,-3.56800000e-009,1.60000055e-002
,,,-3.56400000e-009,1.25312554e-002
,,,-3.56000000e-009,6.28125534e-003
,,,-3.55600000e-009,-1.62499478e-003
,,,-3.55200000e-009,-9.56249490e-003
,,,-3.54800000e-009,-1.59999950e-002
,,,-3.54400000e-009,-1.91874950e-002
,,,-3.54000000e-009,-1.87812450e-002
,,,-3.53600000e-009,-1.49062450e-002
,,,-3.53200000e-009,-8.24999488e-003
,,,-3.52800000e-009,5.24520882e-009
,,,-3.52400000e-009,7.75000536e-003
,,,-3.52000000e-009,1.35000054e-002
,,,-3.51600000e-009,1.58750055e-002
,,,-3.51200000e-009,1.40937555e-002
,,,-3.50800000e-009,8.00000536e-003
,,,-3.50400000e-009,-1.74999478e-003
,,,-3.50000000e-009,-1.33437450e-002
,,,-3.49600000e-009,-2.48437451e-002
,,,-3.49200000e-009,-3.43124953e-002
,,,-3.48800000e-009,-3.99999954e-002
,,,-3.48400000e-009,-4.03124954e-002
,,,-3.48000000e-009,-3.54374953e-002
,,,-3.47600000e-009,-2.60937451e-002
,,,-3.47200000e-009,-1.36562450e-002
,,,-3.46800000e-009,5.24520882e-009
,,,-3.46400000e-009,1.24375054e-002
,,,-3.46000000e-009,2.13750056e-002
,,,-3.45600000e-009,2.52500056e-002
,,,-3.45200000e-009,2.33750056e-002
,,,-3.44800000e-009,1.60000055e-002
,,,-3.44400000e-009,4.18750531e-003
,,,-3.44000000e-009,-9.09374489e-003
,,,-3.43600000e-009,-2.10624951e-002
,,,-3.43200000e-009,-2.92812452e-002
,,,-3.42800000e-009,-3.19999952e-002
,,,-3.42400000e-009,-2.85937452e-002
,,,-3.42000000e-009,-2.05312451e-002
,,,-3.41600000e-009,-9.99999490e-003
,,,-3.41200000e-009,3.12505250e-004
,,,-3.40800000e-009,8.00000536e-003
,,,-3.40400000e-009,1.12187554e-002
,,,-3.40000000e-009,9.87500539e-003
,,,-3.39600000e-009,5.00000532e-003
,,,-3.39200000e-009,-1.59374478e-003
,,,-3.38800000e-009,-7.99999487e-003
,,,-3.38400000e-009,-1.28124949e-002
,,,-3.38000000e-009,-1.48124950e-002
,,,-3.37600000e-009,-1.40937450e-002
,,,-3.37200000e-009,-1.14687449e-002
,,,-3.36800000e-009,-7.99999487e-003
,,,-3.36400000e-009,-4.90624483e-003
,,,-3.36000000e-009,-3.12499480e-003
,,,-3.35600000e-009,-3.06249480e-003
,,,-3.35200000e-009,-4.81249483e-003
,,,-3.34800000e-009,-7.99999487e-003
,,,-3.34400000e-009,-1.20312449e-002
,,,-3.34000000e-009,-1.63124950e-002
,,,-3.33600000e-009,-2.00937451e-002
,,,-3.33200000e-009,-2.27812451e-002
,,,-3.32800000e-009,-2.39999951e-002
,,,-3.32400000e-009,-2.36249951e-002
,,,-3.32000000e-009,-2.19687451e-002
,,,-3.31600000e-009,-1.96874950e-002
,,,-3.31200000e-009,-1.75312450e-002
,,,-3.30800000e-009,-1.59999950e-002
,,,-3.30400000e-009,-1.53437450e-002
,,,-3.30000000e-009,-1.55624950e-002
,,,-3.29600000e-009,-1.61562450e-002
,,,-3.29200000e-009,-1.64687450e-002
,,,-3.28800000e-009,-1.59999950e-002
,,,-3.28400000e-009,-1.44687450e-002
,,,-3.28000000e-009,-1.22499949e-002
,,,-3.27600000e-009,-9.99999490e-003
,,,-3.27200000e-009,-8.40624488e-003
,,,-3.26800000e-009,-7.99999487e-003
,,,-3.26400000e-009,-8.93749489e-003
,,,-3.26000000e-009,-1.09062449e-002
,,,-3.25600000e-009,-1.32499950e-002
,,,-3.25200000e-009,-1.51874950e-002
,,,-3.24800000e-009,-1.59999950e-002
,,,-3.24400000e-009,-1.53124950e-002
,,,-3.24000000e-009,-1.34687450e-002
,,,-3.23600000e-009,-1.11249949e-002
,,,-3.23200000e-009,-9.09374489e-003
,,,-3.22800000e-009,-7.99999487e-003
,,,-3.22400000e-009,-8.37499488e-003
,,,-3.22000000e-009,-9.93749490e-003
,,,-3.21600000e-009,-1.21874949e-002
,,,-3.21200000e-009,-1.44374950e-002
,,,-3.20800000e-009,-1.59999950e-002
,,,-3.20400000e-009,-1.62499950e-002
,,,-3.20000000e-009,-1.51874950e-002
,,,-3.19600000e-009,-1.31562450e-002
,,,-3.19200000e-009,-1.05937449e-002
,,,-3.18800000e-009,-7.99999487e-003
,,,-3.18400000e-009,-5.59374484e-003
,,,-3.18000000e-009,-3.62499481e-003
,,,-3.17600000e-009,-2.12499479e-003
,,,-3.17200000e-009,-9.68744769e-004
,,,-3.16800000e-009,5.24520882e-009
,,,-3.16400000e-009,6.25005255e-004
,,,-3.16000000e-009,1.06250526e-003
,,,-3.15600000e-009,1.18750526e-003
,,,-3.15200000e-009,8.75005258e-004
,,,-3.14800000e-009,5.24520882e-009
,,,-3.14400000e-009,-1.34374477e-003
,,,-3.14000000e-009,-2.99999480e-003
,,,-3.13600000e-009,-4.84374483e-003
,,,-3.13200000e-009,-6.65624485e-003
,,,-3.12800000e-009,-7.99999487e-003
,,,-3.12400000e-009,-8.46874488e-003
,,,-3.12000000e-009,-7.40624487e-003
,,,-3.11600000e-009,-4.31249482e-003
,,,-3.11200000e-009,9.06255259e-004
,,,-3.10800000e-009,8.00000536e-003
,,,-3.10400000e-009,1.55000055e-002
,,,-3.10000000e-009,2.22500056e-002
,,,-3.09600000e-009,2.66562556e-002
,,,-3.09200000e-009,2.74375057e-002
,,,-3.08800000e-009,2.40000056e-002
,,,-3.08400000e-009,1.68125055e-002
,,,-3.08000000e-009,7.81250536e-003
,,,-3.07600000e-009,-7.18744766e-004
,,,-3.07200000e-009,-6.53124485e-003
,,,-3.06800000e-009,-7.99999487e-003
,,,-3.06400000e-009,-4.81249483e-003
,,,-3.06000000e-009,2.18750528e-003
,,,-3.05600000e-009,1.09375054e-002
,,,-3.05200000e-009,1.90000055e-002
,,,-3.04800000e-009,2.40000056e-002
,,,-3.04400000e-009,2.38750056e-002
,,,-3.04000000e-009,1.86250055e-002
,,,-3.03600000e-009,9.00000538e-003
,,,-3.03200000e-009,-3.28124480e-003
,,,-3.02800000e-009,-1.59999950e-002
,,,-3.02400000e-009,-2.62499951e-002
,,,-3.02000000e-009,-3.21249952e-002
,,,-3.01600000e-009,-3.24062452e-002
,,,-3.01200000e-009,-2.67812452e-002
,,,-3.00800000e-009,-1.59999950e-002
,,,-3.00400000e-009,-1.93749478e-003
,,,-3.00000000e-009,1.24375054e-002
,,,-2.99600000e-009,2.43437556e-002
,,,-2.99200000e-009,3.13750057e-002
,,,-2.98800000e-009,3.20000057e-002
,,,-2.98400000e-009,2.57812556e-002
,,,-2.98000000e-009,1.43750055e-002
,,,-2.97600000e-009,3.12505250e-004
,,,-2.97200000e-009,-1.34062450e-002
,,,-2.96800000e-009,-2.39999951e-002
,,,-2.96400000e-009,-2.91562452e-002
,,,-2.96000000e-009,-2.82187452e-002
,,,-2.95600000e-009,-2.19062451e-002
,,,-2.95200000e-009,-1.17812449e-002
,,,-2.94800000e-009,5.24520882e-009
,,,-2.94400000e-009,1.10000054e-002
,,,-2.94000000e-009,1.89062555e-002
,,,-2.93600000e-009,2.25000056e-002
,,,-2.93200000e-009,2.13750056e-002
,,,-2.92800000e-009,1.60000055e-002
,,,-2.92400000e-009,7.50000536e-003
,,,-2.92000000e-009,-1.78124478e-003
,,,-2.91600000e-009,-9.81249490e-003
,,,-2.91200000e-009,-1.48749950e-002
,,,-2.90800000e-009,-1.59999950e-002
,,,-2.90400000e-009,-1.32812450e-002
,,,-2.90000000e-009,-7.68749487e-003
,,,-2.89600000e-009,-9.99994770e-004
,,,-2.89200000e-009,4.81250532e-003
,,,-2.88800000e-009,8.00000536e-003
,,,-2.88400000e-009,7.62500536e-003
,,,-2.88000000e-009,3.65625530e-003
,,,-2.87600000e-009,-2.74999480e-003
,,,-2.87200000e-009,-9.93749490e-003
,,,-2.86800000e-009,-1.59999950e-002
,,,-2.86400000e-009,-1.94062450e-002
,,,-2.86000000e-009,-1.91249950e-002
,,,-2.85600000e-009,-1.51874950e-002
,,,-2.85200000e-009,-8.37499488e-003
,,,-2.84800000e-009,5.24520882e-009
,,,-2.84400000e-009,7.93750536e-003
,,,-2.84000000e-009,1.37500055e-002
,,,-2.83600000e-009,1.60937555e-002
,,,-2.83200000e-009,1.41562555e-002
,,,-2.82800000e-009,8.00000536e-003
,,,-2.82400000e-009,-1.49999478e-003
,,,-2.82000000e-009,-1.23437449e-002
,,,-2.81600000e-009,-2.23437451e-002
,,,-2.81200000e-009,-2.94062452e-002
,,,-2.80800000e-009,-3.19999952e-002
,,,-2.80400000e-009,-2.97187452e-002
,,,-2.80000000e-009,-2.34374951e-002
,,,-2.79600000e-009,-1.49374950e-002
,,,-2.79200000e-009,-6.43749485e-003
,,,-2.78800000e-009,5.24520882e-009
,,,-2.78400000e-009,2.96875529e-003
,,,-2.78000000e-009,1.93750527e-003
,,,-2.77600000e-009,-2.49999479e-003
,,,-2.77200000e-009,-9.03124489e-003
,,,-2.76800000e-009,-1.59999950e-002
,,,-2.76400000e-009,-2.15312451e-002
,,,-2.76000000e-009,-2.44374951e-002
,,,-2.75600000e-009,-2.42499951e-002
,,,-2.75200000e-009,-2.11874951e-002
,,,-2.74800000e-009,-1.59999950e-002
,,,-2.74400000e-009,-1.00937449e-002
,,,-2.74000000e-009,-5.18749483e-003
,,,-2.73600000e-009,-2.65624479e-003
,,,-2.73200000e-009,-3.49999481e-003
,,,-2.72800000e-009,-7.99999487e-003
,,,-2.72400000e-009,-1.53124950e-002
,,,-2.72000000e-009,-2.40937451e-002
,,,-2.71600000e-009,-3.24374952e-002
,,,-2.71200000e-009,-3.82812453e-002
,,,-2.70800000e-009,-3.99999954e-002
,,,-2.70400000e-009,-3.65624953e-002
,,,-2.70000000e-009,-2.84687452e-002
,,,-2.69600000e-009,-1.70312450e-002
,,,-2.69200000e-009,-4.15624482e-003
,,,-2.68800000e-009,8.00000536e-003
,,,-2.68400000e-009,1.69375055e-002
,,,-2.68000000e-009,2.14687556e-002
,,,-2.67600000e-009,2.11562556e-002
,,,-2.67200000e-009,1.63125055e-002
,,,-2.66800000e-009,8.00000536e-003
,,,-2.66400000e-009,-2.15624479e-003
,,,-2.66000000e-009,-1.19374949e-002
,,,-2.65600000e-009,-1.95937450e-002
,,,-2.65200000e-009,-2.38749951e-002
,,,-2.64800000e-009,-2.39999951e-002
,,,-2.64400000e-009,-2.02187451e-002
,,,-2.64000000e-009,-1.35312450e-002
,,,-2.63600000e-009,-5.43749484e-003
,,,-2.63200000e-009,2.28125528e-003
,,,-2.62800000e-009,8.00000536e-003
,,,-2.62400000e-009,1.00937554e-002
,,,-2.62000000e-009,8.25000537e-003
,,,-2.61600000e-009,2.56250528e-003
,,,-2.61200000e-009,-5.99999484e-003
,,,-2.60800000e-009,-1.59999950e-002
,,,-2.60400000e-009,-2.53437451e-002
,,,-2.60000000e-009,-3.19374952e-002
,,,-2.59600000e-009,-3.42499953e-002
,,,-2.59200000e-009,-3.15624952e-002
,,,-2.58800000e-009,-2.39999951e-002
,,,-2.58400000e-009,-1.29062449e-002
,,,-2.58000000e-009,-8.74994768e-004
,,,-2.57600000e-009,9.40625539e-003
,,,-2.57200000e-009,1.55312555e-002
,,,-2.56800000e-009,1.60000055e-002
,,,-2.56400000e-009,1.03750054e-002
,,,-2.56000000e-009,1.56255248e-004
,,,-2.55600000e-009,-1.21874949e-002
,,,-2.55200000e-009,-2.38437451e-002
,,,-2.54800000e-009,-3.19999952e-002
,,,-2.54400000e-009,-3.45937453e-002
,,,-2.54000000e-009,-3.13124952e-002
,,,-2.53600000e-009,-2.31249951e-002
,,,-2.53200000e-009,-1.19062449e-002
,,,-2.52800000e-009,5.24520882e-009
,,,-2.52400000e-009,1.02812554e-002
,,,-2.52000000e-009,1.68125055e-002
,,,-2.51600000e-009,1.85312555e-002
,,,-2.51200000e-009,1.53437555e-002
,,,-2.50800000e-009,8.00000536e-003
,,,-2.50400000e-009,-1.90624478e-003
,,,-2.50000000e-009,-1.19062449e-002
,,,-2.49600000e-009,-1.99374951e-002
,,,-2.49200000e-009,-2.42499951e-002
,,,-2.48800000e-009,-2.39999951e-002
,,,-2.48400000e-009,-1.92499950e-002
,,,-2.48000000e-009,-1.15312449e-002
,,,-2.47600000e-009,-2.99999480e-003
,,,-2.47200000e-009,4.12500531e-003
,,,-2.46800000e-009,8.00000536e-003
,,,-2.46400000e-009,7.96875536e-003
,,,-2.46000000e-009,4.50000531e-003
,,,-2.45600000e-009,-7.49994766e-004
,,,-2.45200000e-009,-5.59374484e-003
,,,-2.44800000e-009,-7.99999487e-003
,,,-2.44400000e-009,-6.93749486e-003
,,,-2.44000000e-009,-1.90624478e-003
,,,-2.43600000e-009,6.06250534e-003
,,,-2.43200000e-009,1.53437555e-002
,,,-2.42800000e-009,2.40000056e-002
,,,-2.42400000e-009,2.98750057e-002
,,,-2.42000000e-009,3.20000057e-002
,,,-2.41600000e-009,3.00312557e-002
,,,-2.41200000e-009,2.43437556e-002
,,,-2.40800000e-009,1.60000055e-002
,,,-2.40400000e-009,6.37500534e-003
,,,-2.40000000e-009,-2.24999479e-003
,,,-2.39600000e-009,-8.18749488e-003
,,,-2.39200000e-009,-1.02499949e-002
,,,-2.38800000e-009,-7.99999487e-003
,,,-2.38400000e-009,-2.34374479e-003
,,,-2.38000000e-009,5.12500532e-003
,,,-2.37600000e-009,1.20625054e-002
,,,-2.37200000e-009,1.61875055e-002
,,,-2.36800000e-009,1.60000055e-002
,,,-2.36400000e-009,1.12812554e-002
,,,-2.36000000e-009,3.34375530e-003
,,,-2.35600000e-009,-5.53124484e-003
,,,-2.35200000e-009,-1.26874949e-002
,,,-2.34800000e-009,-1.59999950e-002
,,,-2.34400000e-009,-1.43749950e-002
,,,-2.34000000e-009,-8.31249488e-003
,,,-2.33600000e-009,3.75005251e-004
,,,-2.33200000e-009,9.28125538e-003
,,,-2.32800000e-009,1.60000055e-002
,,,-2.32400000e-009,1.86562555e-002
,,,-2.32000000e-009,1.66250055e-002
,,,-2.31600000e-009,1.04062554e-002
,,,-2.31200000e-009,1.56250527e-003
,,,-2.30800000e-009,-7.99999487e-003
,,,-2.30400000e-009,-1.58437450e-002
,,,-2.30000000e-009,-2.03749951e-002
,,,-2.29600000e-009,-2.05937451e-002
,,,-2.29200000e-009,-1.62812450e-002
,,,-2.28800000e-009,-7.99999487e-003
,,,-2.28400000e-009,2.56250528e-003
,,,-2.28000000e-009,1.31562554e-002
,,,-2.27600000e-009,2.13750056e-002
,,,-2.27200000e-009,2.53437556e-002
,,,-2.26800000e-009,2.40000056e-002
,,,-2.26400000e-009,1.72187555e-002
,,,-2.26000000e-009,7.15625535e-003
,,,-2.25600000e-009,-3.53124481e-003
,,,-2.25200000e-009,-1.20312449e-002
,,,-2.24800000e-009,-1.59999950e-002
,,,-2.24400000e-009,-1.45937450e-002
,,,-2.24000000e-009,-8.43749488e-003
,,,-2.23600000e-009,4.37505252e-004
,,,-2.23200000e-009,9.40625539e-003
,,,-2.22800000e-009,1.60000055e-002
,,,-2.22400000e-009,1.85625055e-002
,,,-2.22000000e-009,1.69062555e-002
,,,-2.21600000e-009,1.20625054e-002
,,,-2.21200000e-009,5.78125533e-003
,,,-2.20800000e-009,5.24520882e-009
,,,-2.20400000e-009,-3.90624481e-003
,,,-2.20000000e-009,-5.18749483e-003
,,,-2.19600000e-009,-4.24999482e-003
,,,-2.19200000e-009,-2.09374479e-003
,,,-2.18800000e-009,5.24520882e-009
,,,-2.18400000e-009,9.37505259e-004
,,,-2.18000000e-009,-1.56244757e-004
,,,-2.17600000e-009,-3.59374481e-003
,,,-2.17200000e-009,-9.12499489e-003
,,,-2.16800000e-009,-1.59999950e-002
,,,-2.16400000e-009,-2.25312451e-002
,,,-2.16000000e-009,-2.76874952e-002
,,,-2.15600000e-009,-3.01562452e-002
,,,-2.15200000e-009,-2.90624952e-002
,,,-2.14800000e-009,-2.39999951e-002
,,,-2.14400000e-009,-1.54374950e-002
,,,-2.14000000e-009,-5.15624483e-003
,,,-2.13600000e-009,4.71875532e-003
,,,-2.13200000e-009,1.22500054e-002
,,,-2.12800000e-009,1.60000055e-002
,,,-2.12400000e-009,1.55312555e-002
,,,-2.12000000e-009,1.17812554e-002
,,,-2.11600000e-009,6.53125534e-003
,,,-2.11200000e-009,2.00000528e-003
,,,-2.10800000e-009,5.24520882e-009
,,,-2.10400000e-009,1.37500527e-003
,,,-2.10000000e-009,5.96875533e-003
,,,-2.09600000e-009,1.25000054e-002
,,,-2.09200000e-009,1.90937555e-002
,,,-2.08800000e-009,2.40000056e-002
,,,-2.08400000e-009,2.58125056e-002
,,,-2.08000000e-009,2.43125056e-002
,,,-2.07600000e-009,2.00625055e-002
,,,-2.07200000e-009,1.41250055e-002
,,,-2.06800000e-009,8.00000536e-003
,,,-2.06400000e-009,2.90625529e-003
,,,-2.06000000e-009,2.50005249e-004
,,,-2.05600000e-009,3.75005251e-004
,,,-2.05200000e-009,3.21875529e-003
,,,-2.04800000e-009,8.00000536e-003
,,,-2.04400000e-009,1.32812554e-002
,,,-2.04000000e-009,1.79062555e-002
,,,-2.03600000e-009,2.04375055e-002
,,,-2.03200000e-009,1.99062555e-002
,,,-2.02800000e-009,1.60000055e-002
,,,-2.02400000e-009,9.68750539e-003
,,,-2.02000000e-009,2.31250528e-003
,,,-2.01600000e-009,-4.28124482e-003
,,,-2.01200000e-009,-8.15624488e-003
,,,-2.00800000e-009,-7.99999487e-003
,,,-2.00400000e-009,-3.28124480e-003
,,,-2.00000000e-009,5.00000532e-003
,,,-1.99600000e-009,1.50625055e-002
,,,-1.99200000e-009,2.47812556e-002
,,,-1.98800000e-009,3.20000057e-002
,,,-1.98400000e-009,3.48750058e-002
,,,-1.98000000e-009,3.30000057e-002
,,,-1.97600000e-009,2.69062556e-002
,,,-1.97200000e-009,1.79375055e-002
,,,-1.96800000e-009,8.00000536e-003
,,,-1.96400000e-009,-6.56244765e-004
,,,-1.96000000e-009,-5.93749484e-003
,,,-1.95600000e-009,-6.46874485e-003
,,,-1.95200000e-009,-1.68749478e-003
,,,-1.94800000e-009,8.00000536e-003
,,,-1.94400000e-009,2.07812556e-002
,,,-1.94000000e-009,3.43750058e-002
,,,-1.93600000e-009,4.61875059e-002
,,,-1.93200000e-009,5.39375060e-002
,,,-1.92800000e-009,5.60000061e-002
,,,-1.92400000e-009,5.12500060e-002
,,,-1.92000000e-009,4.16562559e-002
,,,-1.91600000e-009,2.95000057e-002
,,,-1.91200000e-009,1.74687555e-002
,,,-1.90800000e-009,8.00000536e-003
,,,-1.90400000e-009,2.71875529e-003
,,,-1.90000000e-009,2.15625528e-003
,,,-1.89600000e-009,5.37500533e-003
,,,-1.89200000e-009,1.06562554e-002
,,,-1.88800000e-009,1.60000055e-002
,,,-1.88400000e-009,1.97812555e-002
,,,-1.88000000e-009,2.07812556e-002
,,,-1.87600000e-009,1.87500055e-002
,,,-1.87200000e-009,1.42187555e-002
,,,-1.86800000e-009,8.00000536e-003
,,,-1.86400000e-009,1.00000526e-003
,,,-1.86000000e-009,-5.46874484e-003
,,,-1.85600000e-009,-1.07499949e-002
,,,-1.85200000e-009,-1.43124950e-002
,,,-1.84800000e-009,-1.59999950e-002
,,,-1.84400000e-009,-1.58124950e-002
,,,-1.84000000e-009,-1.43749950e-002
,,,-1.83600000e-009,-1.22812449e-002
,,,-1.83200000e-009,-1.00624949e-002
,,,-1.82800000e-009,-7.99999487e-003
,,,-1.82400000e-009,-5.59374484e-003
,,,-1.82000000e-009,-3.28124480e-003
,,,-1.81600000e-009,-5.31244763e-004
,,,-1.81200000e-009,3.12500529e-003
,,,-1.80800000e-009,8.00000536e-003
,,,-1.80400000e-009,1.37187554e-002
,,,-1.80000000e-009,1.93750055e-002
,,,-1.79600000e-009,2.37187556e-002
,,,-1.79200000e-009,2.55625056e-002
,,,-1.78800000e-009,2.40000056e-002
,,,-1.78400000e-009,1.88750055e-002
,,,-1.78000000e-009,1.09375054e-002
,,,-1.77600000e-009,1.40625527e-003
,,,-1.77200000e-009,-8.09374488e-003
,,,-1.76800000e-009,-1.59999950e-002
,,,-1.76400000e-009,-2.06249951e-002
,,,-1.76000000e-009,-2.17499951e-002
,,,-1.75600000e-009,-1.95312450e-002
,,,-1.75200000e-009,-1.46249950e-002
,,,-1.74800000e-009,-7.99999487e-003
,,,-1.74400000e-009,-8.43744767e-004
,,,-1.74000000e-009,5.75000533e-003
,,,-1.73600000e-009,1.10000054e-002
,,,-1.73200000e-009,1.44062555e-002
,,,-1.72800000e-009,1.60000055e-002
,,,-1.72400000e-009,1.60312555e-002
,,,-1.72000000e-009,1.53437555e-002
,,,-1.71600000e-009,1.46562555e-002
,,,-1.71200000e-009,1.47187555e-002
,,,-1.70800000e-009,1.60000055e-002
,,,-1.70400000e-009,1.85000055e-002
,,,-1.70000000e-009,2.20625056e-002
,,,-1.69600000e-009,2.60312556e-002
,,,-1.69200000e-009,2.95937557e-002
,,,-1.68800000e-009,3.20000057e-002
,,,-1.68400000e-009,3.23125057e-002
,,,-1.68000000e-009,3.05000057e-002
,,,-1.67600000e-009,2.68125056e-002
,,,-1.67200000e-009,2.16875056e-002
,,,-1.66800000e-009,1.60000055e-002
,,,-1.66400000e-009,1.05312554e-002
,,,-1.66000000e-009,6.56250534e-003
,,,-1.65600000e-009,4.65625531e-003
,,,-1.65200000e-009,5.15625532e-003
,,,-1.64800000e-009,8.00000536e-003
,,,-1.64400000e-009,1.26875054e-002
,,,-1.64000000e-009,1.84687555e-002
,,,-1.63600000e-009,2.42500056e-002
,,,-1.63200000e-009,2.90625057e-002
,,,-1.62800000e-009,3.20000057e-002
,,,-1.62400000e-009,3.26250057e-002
,,,-1.62000000e-009,3.08750057e-002
,,,-1.61600000e-009,2.70312556e-002
,,,-1.61200000e-009,2.18125056e-002
,,,-1.60800000e-009,1.60000055e-002
,,,-1.60400000e-009,1.06875054e-002
,,,-1.60000000e-009,6.81250535e-003
,,,-1.59600000e-009,4.96875532e-003
,,,-1.59200000e-009,5.40625533e-003
